
++++++++++++++++++++++++++++++++++++++++++
2022-11-04 09:59:08 -- 113.188.187.164
code:1 -- msg:success
data:[]
url: 117.4.244.81:82/vt/api_client_error.php
?content=game%2Fbag%2Fitem%2Fgoods%5Fitem%3A19%3A+attempt+to+index+a+nil+value+%28field+%27info%27%29%0D%0Astack+traceback%3A%0D%0A%09game%2Fbag%2Fitem%2Fgoods%5Fitem%3A19%3A+in+upvalue+%27func%27%0D%0A%09game%2Fbag%2Fitem%2Fgoods%5Fitem%3A41%3A+in+function+%3Cgame%2Fbag%2Fitem%2Fgoods%5Fitem%3A27%3E&role_id=24422211239936&time=1667527146&level=53&channel=vtnemo&ticket=df453a8a551164d5cd4496287b5da76a&server_id=1&nick_name=S%C3%B3i

++++++++++++++++++++++++++++++++++++++++++
2022-11-04 10:30:54 -- 113.188.187.164
code:1 -- msg:success
data:[]
url: 117.4.244.81:82/vt/api_client_error.php
?time=1667529052&ticket=f4be43a20956c7847aa225f305876944&level=59&server_id=1&nick_name=S%C3%B3i&channel=vtnemo&content=game%2Ffoundry%2Ffoundry%5Fgodweapon%5Fcollect%5Fview%3A35%3A+attempt+to+index+a+nil+value+%28local+%27role%5Finfo%27%29%0D%0Astack+traceback%3A%0D%0A%09game%2Ffoundry%2Ffoundry%5Fgodweapon%5Fcollect%5Fview%3A35%3A+in+function+%3Cgame%2Ffoundry%2Ffoundry%5Fgodweapon%5Fcollect%5Fview%3A30%3E&role_id=24422211239936

++++++++++++++++++++++++++++++++++++++++++
2022-11-04 12:40:22 -- 113.188.187.164
code:1 -- msg:success
data:[]
url: 117.4.244.81:82/vt/api_client_error.php
?ticket=f75f63679969fb85225e811392d1a860&role_id=24422211239936&level=69&content=game%2Fbag%2Fitem%2Fgoods%5Fitem%3A19%3A+attempt+to+index+a+nil+value+%28field+%27info%27%29%0D%0Astack+traceback%3A%0D%0A%09game%2Fbag%2Fitem%2Fgoods%5Fitem%3A19%3A+in+upvalue+%27func%27%0D%0A%09game%2Fbag%2Fitem%2Fgoods%5Fitem%3A41%3A+in+function+%3Cgame%2Fbag%2Fitem%2Fgoods%5Fitem%3A27%3E&server_id=1&nick_name=S%C3%B3i&channel=vtnemo&time=1667536820

++++++++++++++++++++++++++++++++++++++++++
2022-11-04 13:29:53 -- 113.188.187.164
code:1 -- msg:success
data:[]
url: 117.4.244.81:82/vt/api_client_error.php
?server_id=1&content=game%2Fbag%2Fitem%2Fgoods%5Fitem%3A19%3A+attempt+to+index+a+nil+value+%28field+%27info%27%29%0D%0Astack+traceback%3A%0D%0A%09game%2Fbag%2Fitem%2Fgoods%5Fitem%3A19%3A+in+upvalue+%27func%27%0D%0A%09game%2Fbag%2Fitem%2Fgoods%5Fitem%3A41%3A+in+function+%3Cgame%2Fbag%2Fitem%2Fgoods%5Fitem%3A27%3E&channel=vtnemo&time=1667539790&ticket=2511d2a3daa7e988e65c569214b4df38&level=79&role_id=24422211239936&nick_name=S%C3%B3i

++++++++++++++++++++++++++++++++++++++++++
2022-11-04 14:18:33 -- 126.253.205.155
code:1 -- msg:success
data:[]
url: 117.4.244.81:82/vt/api_client_error.php
?ticket=7b6b409c2f477b802be7a39d3bd9b1d2&nick_name=%E3%83%A0%E3%83%B3%E3%81%A1%E3%82%83%E3%82%93&channel=vtnemo&level=49&time=1667542711&server_id=1&role_id=24422211473408&content=game%2Fbag%2Fitem%2Fgoods%5Fitem%3A19%3A+attempt+to+index+a+nil+value+%28field+%27info%27%29%0D%0Astack+traceback%3A%0D%0A%09game%2Fbag%2Fitem%2Fgoods%5Fitem%3A19%3A+in+upvalue+%27func%27%0D%0A%09game%2Fbag%2Fitem%2Fgoods%5Fitem%3A41%3A+in+function+%3Cgame%2Fbag%2Fitem%2Fgoods%5Fitem%3A27%3E

++++++++++++++++++++++++++++++++++++++++++
2022-11-04 15:07:38 -- 113.185.45.155
code:1 -- msg:success
data:[]
url: 117.4.244.81:82/vt/api_client_error.php
?nick_name=hiha&time=1667545658&server_id=1&level=99&role_id=24383485521920&content=game%2Fbag%2Fitem%2Fgoods%5Fitem%3A19%3A+attempt+to+index+a+nil+value+%28field+%27info%27%29%0D%0Astack+traceback%3A%0D%0A%09game%2Fbag%2Fitem%2Fgoods%5Fitem%3A19%3A+in+upvalue+%27func%27%0D%0A%09game%2Fbag%2Fitem%2Fgoods%5Fitem%3A41%3A+in+function+%3Cgame%2Fbag%2Fitem%2Fgoods%5Fitem%3A27%3E&ticket=4c92aea313b41bfe42dbec1aa8b538c9&channel=vtnemo

++++++++++++++++++++++++++++++++++++++++++
2022-11-04 19:48:29 -- 113.188.187.164
code:1 -- msg:success
data:[]
url: 117.4.244.81:82/vt/api_client_error.php
?ticket=d926e7644b44ae03167e23beea9954ba&role_id=24422211239936&server_id=1&content=game%2Fbag%2Fitem%2Fgoods%5Fitem%3A19%3A+attempt+to+index+a+nil+value+%28field+%27info%27%29%0D%0Astack+traceback%3A%0D%0A%09game%2Fbag%2Fitem%2Fgoods%5Fitem%3A19%3A+in+upvalue+%27func%27%0D%0A%09game%2Fbag%2Fitem%2Fgoods%5Fitem%3A41%3A+in+function+%3Cgame%2Fbag%2Fitem%2Fgoods%5Fitem%3A27%3E&channel=vtnemo&nick_name=S%C3%B3i&time=1667562507&level=96

++++++++++++++++++++++++++++++++++++++++++
2022-11-04 19:57:42 -- 113.188.187.164
code:1 -- msg:success
data:[]
url: 117.4.244.81:82/vt/api_client_error.php
?ticket=61bf9ca1b4c8648d103c91e29391ceeb&channel=vtnemo&server_id=1&role_id=24422211239936&time=1667563060&level=96&content=game%2Fcharacter%2Fstates%2Fjump%5Fstate%3A53%3A+attempt+to+call+a+nil+value+%28method+%27SetCalcMapHeightFunc%27%29%0D%0Astack+traceback%3A%0D%0A%09game%2Fcharacter%2Fstates%2Fjump%5Fstate%3A53%3A+in+method+%27StateEnter%27%0D%0A%09global%2Fstate%5Fmachine%3A37%3A+in+function+%3Cglobal%2Fstate%5Fmachine%3A28%3E%0D%0A%09%28...tail+calls...%29%0D%0A%09game%2Foperate%2Foperate%5Fjump%3A35%3A+in+method+%27Update%27%0D%0A%09game%2Foperate%2Foperate%5Fsequence%3A41%3A+in+field+%27Update%27%0D%0A%09game%2Foperate%2Foperate%5Ffind%5Fway%3A184%3A+in+method+%27Update%27%0D%0A%09game%2Foperate%2Foperate%5Fhang%5Fweapon%5Fsoul%3A66%3A+in+method+%27UpdateCurOperate%27%0D%0A%09game%2Foperate%2Foperate%5Fhang%5Fweapon%5Fsoul%3A27%3A+in+method+%27Update%27%0D%0A%09game%2Foperate%2Foperate%5Fmgr%3A51%3A+in+method+%27Update%27%0D%0A%09game%2Fcharacter%2Fcharacter%3A442%3A+in+method+%27UpdateOperate%27%0D%0A%09game%2Fcharacter%2Fcharacter%3A80%3A+in+method+%27CheckUpdate%27%0D%0A%09game%2Fscene%2Fscene%3A278%3A+in+method+%27Update%27%0D%0A%09game%2Fcommon%2Fgameloop%2Fgameloop%5Fplay%3A39%3A+in+method+%27StateUpdate%27%0D%0A%09global%2Fstate%5Fmachine%3A47%3A+in+method+%27Update%27%0D%0A%09game%2Fcommon%2Fgameloop%2Fgameloop%3A100%3A+in+method+%27Update%27%0D%0A%09global%2Frunner%3A27%3A+in+method+%27Update%27%0D%0A%09app%3A45%3A+in+function+%27app.Update%27&nick_name=S%C3%B3i

++++++++++++++++++++++++++++++++++++++++++
2022-11-04 20:24:53 -- 113.188.187.164
code:1 -- msg:success
data:[]
url: 117.4.244.81:82/vt/api_client_error.php
?channel=vtnemo&server_id=1&role_id=24422211239936&ticket=af27555c91cd65c32a2c1ec1b2119e28&time=1667564691&level=96&nick_name=S%C3%B3i&content=game%2Fbag%2Fitem%2Fgoods%5Fitem%3A19%3A+attempt+to+index+a+nil+value+%28field+%27info%27%29%0D%0Astack+traceback%3A%0D%0A%09game%2Fbag%2Fitem%2Fgoods%5Fitem%3A19%3A+in+upvalue+%27func%27%0D%0A%09game%2Fbag%2Fitem%2Fgoods%5Fitem%3A41%3A+in+function+%3Cgame%2Fbag%2Fitem%2Fgoods%5Fitem%3A27%3E

++++++++++++++++++++++++++++++++++++++++++
2022-11-04 21:00:22 -- 113.188.187.164
code:1 -- msg:success
data:[]
url: 117.4.244.81:82/vt/api_client_error.php
?role_id=24422211239936&content=game%2Fcharacter%2Fstates%2Fjump%5Fstate%3A53%3A+attempt+to+call+a+nil+value+%28method+%27SetCalcMapHeightFunc%27%29%0D%0Astack+traceback%3A%0D%0A%09game%2Fcharacter%2Fstates%2Fjump%5Fstate%3A53%3A+in+method+%27StateEnter%27%0D%0A%09global%2Fstate%5Fmachine%3A37%3A+in+function+%3Cglobal%2Fstate%5Fmachine%3A28%3E%0D%0A%09%28...tail+calls...%29%0D%0A%09game%2Foperate%2Foperate%5Fjump%3A35%3A+in+method+%27Update%27%0D%0A%09game%2Foperate%2Foperate%5Fsequence%3A41%3A+in+field+%27Update%27%0D%0A%09game%2Foperate%2Foperate%5Ffind%5Fway%3A184%3A+in+method+%27Update%27%0D%0A%09game%2Foperate%2Foperate%5Fhang%5Fweapon%5Fsoul%3A66%3A+in+method+%27UpdateCurOperate%27%0D%0A%09game%2Foperate%2Foperate%5Fhang%5Fweapon%5Fsoul%3A27%3A+in+method+%27Update%27%0D%0A%09game%2Foperate%2Foperate%5Fmgr%3A51%3A+in+method+%27Update%27%0D%0A%09game%2Fcharacter%2Fcharacter%3A442%3A+in+method+%27UpdateOperate%27%0D%0A%09game%2Fcharacter%2Fcharacter%3A80%3A+in+method+%27CheckUpdate%27%0D%0A%09game%2Fscene%2Fscene%3A278%3A+in+method+%27Update%27%0D%0A%09game%2Fcommon%2Fgameloop%2Fgameloop%5Fplay%3A39%3A+in+method+%27StateUpdate%27%0D%0A%09global%2Fstate%5Fmachine%3A47%3A+in+method+%27Update%27%0D%0A%09game%2Fcommon%2Fgameloop%2Fgameloop%3A100%3A+in+method+%27Update%27%0D%0A%09global%2Frunner%3A27%3A+in+method+%27Update%27%0D%0A%09app%3A45%3A+in+function+%27app.Update%27&ticket=160fbec2fe1d81fdbfd4010c39046aa2&server_id=1&nick_name=S%C3%B3i&time=1667566820&level=98&channel=vtnemo

++++++++++++++++++++++++++++++++++++++++++
2022-11-04 21:11:28 -- 113.188.187.164
code:1 -- msg:success
data:[]
url: 117.4.244.81:82/vt/api_client_error.php
?server_id=1&content=game%2Fcharacter%2Fstates%2Fjump%5Fstate%3A53%3A+attempt+to+call+a+nil+value+%28method+%27SetCalcMapHeightFunc%27%29%0D%0Astack+traceback%3A%0D%0A%09game%2Fcharacter%2Fstates%2Fjump%5Fstate%3A53%3A+in+method+%27StateEnter%27%0D%0A%09global%2Fstate%5Fmachine%3A37%3A+in+function+%3Cglobal%2Fstate%5Fmachine%3A28%3E%0D%0A%09%28...tail+calls...%29%0D%0A%09game%2Foperate%2Foperate%5Fjump%3A35%3A+in+method+%27Update%27%0D%0A%09game%2Foperate%2Foperate%5Fsequence%3A41%3A+in+field+%27Update%27%0D%0A%09game%2Foperate%2Foperate%5Ffind%5Fway%3A184%3A+in+method+%27Update%27%0D%0A%09game%2Foperate%2Foperate%5Fhang%5Fweapon%5Fsoul%3A66%3A+in+method+%27UpdateCurOperate%27%0D%0A%09game%2Foperate%2Foperate%5Fhang%5Fweapon%5Fsoul%3A27%3A+in+method+%27Update%27%0D%0A%09game%2Foperate%2Foperate%5Fmgr%3A51%3A+in+method+%27Update%27%0D%0A%09game%2Fcharacter%2Fcharacter%3A442%3A+in+method+%27UpdateOperate%27%0D%0A%09game%2Fcharacter%2Fcharacter%3A80%3A+in+method+%27CheckUpdate%27%0D%0A%09game%2Fscene%2Fscene%3A278%3A+in+method+%27Update%27%0D%0A%09game%2Fcommon%2Fgameloop%2Fgameloop%5Fplay%3A39%3A+in+method+%27StateUpdate%27%0D%0A%09global%2Fstate%5Fmachine%3A47%3A+in+method+%27Update%27%0D%0A%09game%2Fcommon%2Fgameloop%2Fgameloop%3A100%3A+in+method+%27Update%27%0D%0A%09global%2Frunner%3A27%3A+in+method+%27Update%27%0D%0A%09app%3A45%3A+in+function+%27app.Update%27&role_id=24422211239936&time=1667567485&ticket=61a01f3adbef2797b98ba44d6b2c3770&level=99&nick_name=S%C3%B3i&channel=vtnemo

++++++++++++++++++++++++++++++++++++++++++
2022-11-04 22:56:53 -- 113.188.187.164
code:-12 -- msg:insert_exception_error
data:[]
url: 117.4.244.81:82/vt/api_client_error.php
?time=1667573811&ticket=847a8c5c2ac987a29cedb4d3ad96bb95&level=49&channel=vtnemo&role_id=24422265380864&content=game%2Fpet%2Fitem%2Fpet%5Ficon%5Fitem%3A22%3A+attempt+to+index+a+nil+value+%28local+%27pet%5Fcfg%27%29%0D%0Astack+traceback%3A%0D%0A%09game%2Fpet%2Fitem%2Fpet%5Ficon%5Fitem%3A22%3A+in+method+%27SetItemInfo%27%0D%0A%09game%2Fview%5Fothers%2Fpet%5Ftemplate%3A31%3A+in+field+%27refresh%5Ffunc%27%0D%0A%09game%2Fcommon%2Fmvc%2Fui%5Flist%3A38%3A+in+function+%3Cgame%2Fcommon%2Fmvc%2Fui%5Flist%3A32%3E%0D%0A%09%5BC%5D%3A+in+upvalue+%27cs%5Ffunc%27%0D%0A%09%5Bstring+%22%0D...%22%5D%3A9%3A+in+method+%27SetItemNum%27%0D%0A%09game%2Fcommon%2Fmvc%2Fui%5Flist%3A81%3A+in+method+%27SetItemNum%27%0D%0A%09game%2Fview%5Fothers%2Fpet%5Ftemplate%3A67%3A+in+method+%27SetPetList%27%0D%0A%09game%2Fview%5Fothers%2Fpet%5Ftemplate%3A14%3A+in+method+%27OpenViewCallBack%27%0D%0A%09game%2Fcommon%2Fmvc%2Fui%5Ftemplate%3A51%3A+in+method+%27Open%27%0D%0A%09game%2Fcommon%2Fmvc%2Fbase%5Fview%3A307%3A+in+method+%27GetTemplate%27%0D%0A%09game%2Fview%5Fothers%2Fview%5Fothers%5Fview%3A29%3A+in+method+%27InitTemplate%27%0D%0A%09game%2Fview%5Fothers%2Fview%5Fothers%5Fview%3A24%3A+in+method+%27OpenViewCallBack%27%0D%0A%09game%2Fcommon%2Fmvc%2Fbase%5Fview%3A235%3A+in+method+%27%5FLoadResFinish%27%0D%0A%09game%2Fcommon%2Fmvc%2Fbase%5Fview%3A197%3A+in+field+%27finish%5Ffunc%27%0D%0A%09global%2Fasset%5Floader%3A86%3A+in+method+%27Update%27%0D%0A%09global%2Frunner%3A27%3A+in+method+%27Update%27%0D%0A%09app%3A45%3A+in+function+%27app.Update%27&nick_name=T%C3%ADN%E1%BB%8B&server_id=1

++++++++++++++++++++++++++++++++++++++++++
2022-11-04 23:47:19 -- 113.188.187.164
code:1 -- msg:success
data:[]
url: 117.4.244.81:82/vt/api_client_error.php
?server_id=1&ticket=44e4ef85499aec80a384cb78ba91a39e&content=game%2Ffoundry%2Ffoundry%5Fgodweapon%5Fcollect%5Fview%3A35%3A+attempt+to+index+a+nil+value+%28local+%27role%5Finfo%27%29%0D%0Astack+traceback%3A%0D%0A%09game%2Ffoundry%2Ffoundry%5Fgodweapon%5Fcollect%5Fview%3A35%3A+in+function+%3Cgame%2Ffoundry%2Ffoundry%5Fgodweapon%5Fcollect%5Fview%3A30%3E&role_id=24422568894464&channel=vtnemo&level=49&time=1667576837&nick_name=G%E1%BA%A5u
