
++++++++++++++++++++++++++++++++++++++++++
2022-10-02 10:40:13--136.158.24.38
url: 117.4.244.81:82/vt/api_server.php
?channel=vtnemo&ios_version=18379&ticket=8d093222fb9f7d8ac621186d8baf815a&device_id=ad3d442dd6a2d88e238f44702df401d3&time=1664678413&accname=toanvv

++++++++++++++++++++++++++++++++++++++++++
2022-10-02 21:21:15--136.158.24.38
url: 117.4.244.81:82/vt/api_server.php
?ticket=294ff411dc54d034fcd09cb83929444a&device_id=ad3d442dd6a2d88e238f44702df401d3&time=1664716874&channel=vtnemo&accname=toanvv&ios_version=18379
