
++++++++++++++++++++++++++++++++++++++++++
2022-11-06 19:36:11 -- 14.161.232.93
code:1 -- msg:success
data:{"platform":"10000","game_id":"111","is_pay":"1","admin_url":"http:\/\/117.4.244.81:82\/","res_url":"http:\/\/117.4.244.81:82\/dev\/","version_url":"http:\/\/117.4.244.81:82\/dev\/","verify_url":"vt\/api_verify.php","server_url":"vt\/api_server.php","order_url":"vt\/api_order.php","reg_url":"vt\/api_insert_reg.php","update_url":"vt\/api_update_info.php","notice_url":"vt\/api_notice.php","error_url":"vt\/api_client_error.php","card_url":"vt\/api_card.php","pos_url":"vt\/api_pos.php","photo_upload_url":"wx\/show\/head_photo_upload.php","photo_show_url":"http:\/\/183.6.169.170:7511\/wx\/show\/"}
url: 117.4.244.81:82/vt/api_active.php
?channel=vtnemo&time=1667734568&ticket=b9d371ff1adaac677a6b5c6b35373a60

++++++++++++++++++++++++++++++++++++++++++
2022-11-06 21:08:19 -- 14.161.232.93
code:1 -- msg:success
data:{"platform":"10000","game_id":"111","is_pay":"1","admin_url":"http:\/\/117.4.244.81:82\/","res_url":"http:\/\/117.4.244.81:82\/dev\/","version_url":"http:\/\/117.4.244.81:82\/dev\/","verify_url":"vt\/api_verify.php","server_url":"vt\/api_server.php","order_url":"vt\/api_order.php","reg_url":"vt\/api_insert_reg.php","update_url":"vt\/api_update_info.php","notice_url":"vt\/api_notice.php","error_url":"vt\/api_client_error.php","card_url":"vt\/api_card.php","pos_url":"vt\/api_pos.php","photo_upload_url":"wx\/show\/head_photo_upload.php","photo_show_url":"http:\/\/183.6.169.170:7511\/wx\/show\/"}
url: 117.4.244.81:82/vt/api_active.php
?channel=vtnemo&time=1667740097&ticket=9f87df6ee1c0001a6c4a9057b17bcdef

++++++++++++++++++++++++++++++++++++++++++
2022-11-06 22:43:47 -- 14.161.232.93
code:1 -- msg:success
data:{"platform":"10000","game_id":"111","is_pay":"1","admin_url":"http:\/\/117.4.244.81:82\/","res_url":"http:\/\/117.4.244.81:82\/dev\/","version_url":"http:\/\/117.4.244.81:82\/dev\/","verify_url":"vt\/api_verify.php","server_url":"vt\/api_server.php","order_url":"vt\/api_order.php","reg_url":"vt\/api_insert_reg.php","update_url":"vt\/api_update_info.php","notice_url":"vt\/api_notice.php","error_url":"vt\/api_client_error.php","card_url":"vt\/api_card.php","pos_url":"vt\/api_pos.php","photo_upload_url":"wx\/show\/head_photo_upload.php","photo_show_url":"http:\/\/183.6.169.170:7511\/wx\/show\/"}
url: 117.4.244.81:82/vt/api_active.php
?channel=vtnemo&time=1667745824&ticket=bfddd4496d5cb1f2f9ebdf5114ce498d
