
++++++++++++++++++++++++++++++++++++++++++
2022-11-07 06:23:31 -- 14.161.232.93
code:-11 -- msg:insert_role_fail
data:[]
url: 117.4.244.81:82/vt/api_insert_reg.php
?accname=tinogom1&device_id=da2d8274fb994e7740a950b8f589c049&ticket=2ff73a05df61c183d3a2555c7e2ed0f3&os=11&sid=1&channel=vtnemo&role_id=24422568894464&nickname=G%E1%BA%A5u&time=1667773408

++++++++++++++++++++++++++++++++++++++++++
2022-11-07 06:28:22 -- 14.161.232.93
code:-11 -- msg:insert_role_fail
data:[]
url: 117.4.244.81:82/vt/api_insert_reg.php
?accname=tinogom102&device_id=da2d8274fb994e7740a950b8f589c049&ticket=8b383ded2c640e7a9cada39874daa83a&os=11&sid=1&channel=vtnemo&role_id=24422211239936&nickname=S%C3%B3i&time=1667773700

++++++++++++++++++++++++++++++++++++++++++
2022-11-07 08:26:27 -- 58.187.250.4
code:1 -- msg:success
data:[]
url: 117.4.244.81:82/vt/api_insert_reg.php
?ticket=f7bc8219429acdf5d891a22575fe949d&nickname=%E5%82%85%E6%B8%85&device_id=9b45d56692d3bb40a938d463121adf64&role_id=24423416143872&os=11&time=1667780786&channel=vtnemo&sid=1&accname=doluan

++++++++++++++++++++++++++++++++++++++++++
2022-11-07 08:27:46 -- 58.187.250.4
code:1 -- msg:success
data:[]
url: 117.4.244.81:82/vt/api_insert_reg.php
?ticket=143dde20a637e84c595a793d54ecc27c&nickname=L%C3%A3o%C4%90%E1%BA%A1i&device_id=9b45d56692d3bb40a938d463121adf64&role_id=24423416467456&os=11&time=1667780865&channel=vtnemo&sid=1&accname=doluan

++++++++++++++++++++++++++++++++++++++++++
2022-11-07 15:25:43 -- 136.158.25.154
code:-11 -- msg:insert_role_fail
data:[]
url: 117.4.244.81:82/vt/api_insert_reg.php
?accname=shacojx&time=1667805943&device_id=ad3d442dd6a2d88e238f44702df401d3&sid=1&ticket=4e2f46df766af649386694d7c0a2d279&role_id=24420370886656&channel=vtnemo&nickname=V%C3%B4Ng%C3%A3&os=11

++++++++++++++++++++++++++++++++++++++++++
2022-11-07 15:26:04 -- 58.187.250.4
code:-11 -- msg:insert_role_fail
data:[]
url: 117.4.244.81:82/vt/api_insert_reg.php
?ticket=9864b5d426d4613e9aa7997f727ffa4f&role_id=24383483707392&sid=1&time=1667805963&accname=abc123&device_id=9b45d56692d3bb40a938d463121adf64&nickname=UyenThanh&os=11&channel=vtnemo
