
++++++++++++++++++++++++++++++++++++++++++
2022-11-01 05:51:51 -- 113.185.45.125
code:1 -- msg:success
data:{"platform":"10000","game_id":"111","is_pay":"1","admin_url":"http:\/\/117.4.244.81:82\/","res_url":"http:\/\/117.4.244.81:82\/dev\/","version_url":"http:\/\/117.4.244.81:82\/dev\/","verify_url":"vt\/api_verify.php","server_url":"vt\/api_server.php","order_url":"vt\/api_order.php","reg_url":"vt\/api_insert_reg.php","update_url":"vt\/api_update_info.php","notice_url":"vt\/api_notice.php","error_url":"vt\/api_client_error.php","card_url":"vt\/api_card.php","pos_url":"vt\/api_pos.php","photo_upload_url":"wx\/show\/head_photo_upload.php","photo_show_url":"http:\/\/183.6.169.170:7511\/wx\/show\/"}
url: 117.4.244.81:82/vt/api_active.php
?channel=vtnemo&time=1667253110&ticket=a6dda88e115f91b6c5167a198260f406

++++++++++++++++++++++++++++++++++++++++++
2022-11-01 12:04:41 -- 113.185.45.85
code:1 -- msg:success
data:{"platform":"10000","game_id":"111","is_pay":"1","admin_url":"http:\/\/117.4.244.81:82\/","res_url":"http:\/\/117.4.244.81:82\/dev\/","version_url":"http:\/\/117.4.244.81:82\/dev\/","verify_url":"vt\/api_verify.php","server_url":"vt\/api_server.php","order_url":"vt\/api_order.php","reg_url":"vt\/api_insert_reg.php","update_url":"vt\/api_update_info.php","notice_url":"vt\/api_notice.php","error_url":"vt\/api_client_error.php","card_url":"vt\/api_card.php","pos_url":"vt\/api_pos.php","photo_upload_url":"wx\/show\/head_photo_upload.php","photo_show_url":"http:\/\/183.6.169.170:7511\/wx\/show\/"}
url: 117.4.244.81:82/vt/api_active.php
?channel=vtnemo&time=1667275480&ticket=79218d70a2f02304e89599f7bdec80d5

++++++++++++++++++++++++++++++++++++++++++
2022-11-01 12:48:07 -- 113.185.45.85
code:1 -- msg:success
data:{"platform":"10000","game_id":"111","is_pay":"1","admin_url":"http:\/\/117.4.244.81:82\/","res_url":"http:\/\/117.4.244.81:82\/dev\/","version_url":"http:\/\/117.4.244.81:82\/dev\/","verify_url":"vt\/api_verify.php","server_url":"vt\/api_server.php","order_url":"vt\/api_order.php","reg_url":"vt\/api_insert_reg.php","update_url":"vt\/api_update_info.php","notice_url":"vt\/api_notice.php","error_url":"vt\/api_client_error.php","card_url":"vt\/api_card.php","pos_url":"vt\/api_pos.php","photo_upload_url":"wx\/show\/head_photo_upload.php","photo_show_url":"http:\/\/183.6.169.170:7511\/wx\/show\/"}
url: 117.4.244.81:82/vt/api_active.php
?channel=vtnemo&time=1667278086&ticket=16a664240e3dad80d4af13c75bd0e36c

++++++++++++++++++++++++++++++++++++++++++
2022-11-01 15:56:21 -- 113.185.46.74
code:1 -- msg:success
data:{"platform":"10000","game_id":"111","is_pay":"1","admin_url":"http:\/\/117.4.244.81:82\/","res_url":"http:\/\/117.4.244.81:82\/dev\/","version_url":"http:\/\/117.4.244.81:82\/dev\/","verify_url":"vt\/api_verify.php","server_url":"vt\/api_server.php","order_url":"vt\/api_order.php","reg_url":"vt\/api_insert_reg.php","update_url":"vt\/api_update_info.php","notice_url":"vt\/api_notice.php","error_url":"vt\/api_client_error.php","card_url":"vt\/api_card.php","pos_url":"vt\/api_pos.php","photo_upload_url":"wx\/show\/head_photo_upload.php","photo_show_url":"http:\/\/183.6.169.170:7511\/wx\/show\/"}
url: 117.4.244.81:82/vt/api_active.php
?channel=vtnemo&time=1667289380&ticket=b9c5bf06fb5743e6d5ab653ef2c9bb5a

++++++++++++++++++++++++++++++++++++++++++
2022-11-01 19:00:33 -- 136.158.25.154
code:1 -- msg:success
data:{"platform":"10000","game_id":"111","is_pay":"1","admin_url":"http:\/\/117.4.244.81:82\/","res_url":"http:\/\/117.4.244.81:82\/dev\/","version_url":"http:\/\/117.4.244.81:82\/dev\/","verify_url":"vt\/api_verify.php","server_url":"vt\/api_server.php","order_url":"vt\/api_order.php","reg_url":"vt\/api_insert_reg.php","update_url":"vt\/api_update_info.php","notice_url":"vt\/api_notice.php","error_url":"vt\/api_client_error.php","card_url":"vt\/api_card.php","pos_url":"vt\/api_pos.php","photo_upload_url":"wx\/show\/head_photo_upload.php","photo_show_url":"http:\/\/183.6.169.170:7511\/wx\/show\/"}
url: 117.4.244.81:82/vt/api_active.php
?channel=vtnemo&time=1667300433&ticket=41083e3404843dd30a16585ee46e5ac7

++++++++++++++++++++++++++++++++++++++++++
2022-11-01 19:04:25 -- 136.158.25.147
code:1 -- msg:success
data:{"platform":"10000","game_id":"111","is_pay":"1","admin_url":"http:\/\/117.4.244.81:82\/","res_url":"http:\/\/117.4.244.81:82\/dev\/","version_url":"http:\/\/117.4.244.81:82\/dev\/","verify_url":"vt\/api_verify.php","server_url":"vt\/api_server.php","order_url":"vt\/api_order.php","reg_url":"vt\/api_insert_reg.php","update_url":"vt\/api_update_info.php","notice_url":"vt\/api_notice.php","error_url":"vt\/api_client_error.php","card_url":"vt\/api_card.php","pos_url":"vt\/api_pos.php","photo_upload_url":"wx\/show\/head_photo_upload.php","photo_show_url":"http:\/\/183.6.169.170:7511\/wx\/show\/"}
url: 117.4.244.81:82/vt/api_active.php
?channel=vtnemo&time=1667300665&ticket=6ec8d2ef389f25db1b1592b18121b6bc
