
++++++++++++++++++++++++++++++++++++++++++
2022-07-26 04:11:52 -- 171.255.126.113
code:-1 -- msg:missing_parameter
data:[]
url: 117.4.244.81:82/vt/api_update_info.php
?level=99&ticket=5a37e490e858de80ba7486d3e0bebd9a&nickname=KiemMa&last_login_server=1&channel=vtnemo&server_id=1&accname=toanvv&time=1658779911&role_id=24383464448000

++++++++++++++++++++++++++++++++++++++++++
2022-07-26 04:16:38 -- 117.4.244.81
code:-1 -- msg:missing_parameter
data:[]
url: 117.4.244.81:82/vt/api_update_info.php
?channel=vtnemo&accname=toanvv&level=99&nickname=KiemMa&server_id=1&last_login_server=1&time=1658780198&role_id=24383464448000&ticket=e586c4576f747f23875283fa090d9efc

++++++++++++++++++++++++++++++++++++++++++
2022-07-26 18:45:17 -- 121.123.244.230
code:-1 -- msg:missing_parameter
data:[]
url: 117.4.244.81:82/vt/api_update_info.php
?server_id=1&last_login_server=1&nickname=B%C3%A9+Sun&ticket=05ed7cbcf0c3035113ba11b7bad18c1c&level=89&channel=vtnemo&accname=besun21&time=1658832316&role_id=24383825645568
