
++++++++++++++++++++++++++++++++++++++++++
2022-07-27 09:19:38 -- 27.3.149.67
code:1 -- msg:success
data:{"time":"1581246101","content":"\u5929\u4e0b\u98a8\u96f2\u51fa\u6211\u8f29\uff0c\u58f9\u5165\u6c5f\u6e56\u6b72\u6708\u50ac\uff01\u7531\u570b\u5167\u9802\u7d1a\u904a\u6232\u5236\u4f5c\u5718\u968a\u806f\u624b\u66a2\u904a\u6253\u9020\u7684\u5168\u65b0\u8c4e\u7248\u5929\u9f8d\u624b\u904a\u2014\u2014\u300a\u5929\u9f8d\u516b\u90e8\u69ae\u8000\u7248\u300b\uff0c11\u67088\u65e5\u65e910\u9ede\u6b63\u5f0f\u958b\u555f!\u5b89\u5353\u73a9\u5bb6\u6436\u5148\u9ad4\u9a57\u5168\u65b0\u91cd\u5236\u7684\u5929\u9f8d\u6c5f\u6e56 \u6843\u82b1\u5f71\u843d\uff0c\u78a7\u6d77\u6f6e\u751f\u3002\u66fe\u5728\u300a\u5929\u9f8d\u516b\u90e8\u300b\u7db2\u904a\u4e2d\uff0c\u8207\u55ac\u5cf0\u4e26\u80a9\u8840\u6230\u805a\u8ce2\u838a\u7684\u6fc0\u60c5\u96a8\u8457\u6b72\u6708\u6d41\u901d\u800c\u6d88\u9000\uff1b\u8207\u5144\u5f1f\u5171\u6230\u5b8b\u907c\u6230\u5834\uff0c\u5927\u9b27\u7e39\u7df2\u5cf0\u7684\u58ef\u8a8c\uff0c\u4e5f\u5728\u5de5\u4f5c\u8207\u751f\u6d3b\u7684\u91cd\u64d4\u4e0b\u6f38\u6f38\u6d88\u9000\u3002\u4f46\u96a8\u8457\u300a\u5929\u9f8d\u516b\u90e8\u69ae\u8000\u7248\u300b\u4e2d\u58f9\u66f2\u300a\u84bc\u5c71\u300b\u7684\u594f\u97ff\uff0c\u6bcf\u4f4d\u5929\u9f8d\u5c11\u4fe0\u90fd\u6703\u8ddf\u5b83\u7684\u65cb\u5f8b\uff0c\u58f9\u8d77\u54fc\u8457\u3001\u56de\u61b6\u8457\u7576\u521d\u8207\u5144\u5f1f\u66a2\u904a\u6c5f\u6e56\u7684\u7d93\u6b77\u3002 \uff0c\u727d\u52d5\u8001\u73a9\u5bb6\u7684\u60c5\u61f7\u5916\u3002\u90a3\u4e9b\u5e74\uff0c\u59b3\u5ff5\u5ff5\u4e0d\u5fd8\u7684\u6642\u88dd\u5750\u9a0e\u3001\u4e45\u6253\u4e0d\u901a\u7684\u526f\u672c\u3001\u6c92\u5237\u5b8c\u7684\u65e5\u5e38\u4efb\u52d9\uff0c\u90fd\u80fd\u5728\u88cf\u9762\u627e\u5230\u3002","title":"\u6e38\u620f\u516c\u544a"}
url: 117.4.244.81:82/vt/api_notice.php
?channel=vtnemo&time=1658884777&ticket=c450eace04abbc78fa2a8dfa8b94165b

++++++++++++++++++++++++++++++++++++++++++
2022-07-27 12:58:28 -- 67.188.29.138
code:1 -- msg:success
data:{"time":"1581246101","content":"\u5929\u4e0b\u98a8\u96f2\u51fa\u6211\u8f29\uff0c\u58f9\u5165\u6c5f\u6e56\u6b72\u6708\u50ac\uff01\u7531\u570b\u5167\u9802\u7d1a\u904a\u6232\u5236\u4f5c\u5718\u968a\u806f\u624b\u66a2\u904a\u6253\u9020\u7684\u5168\u65b0\u8c4e\u7248\u5929\u9f8d\u624b\u904a\u2014\u2014\u300a\u5929\u9f8d\u516b\u90e8\u69ae\u8000\u7248\u300b\uff0c11\u67088\u65e5\u65e910\u9ede\u6b63\u5f0f\u958b\u555f!\u5b89\u5353\u73a9\u5bb6\u6436\u5148\u9ad4\u9a57\u5168\u65b0\u91cd\u5236\u7684\u5929\u9f8d\u6c5f\u6e56 \u6843\u82b1\u5f71\u843d\uff0c\u78a7\u6d77\u6f6e\u751f\u3002\u66fe\u5728\u300a\u5929\u9f8d\u516b\u90e8\u300b\u7db2\u904a\u4e2d\uff0c\u8207\u55ac\u5cf0\u4e26\u80a9\u8840\u6230\u805a\u8ce2\u838a\u7684\u6fc0\u60c5\u96a8\u8457\u6b72\u6708\u6d41\u901d\u800c\u6d88\u9000\uff1b\u8207\u5144\u5f1f\u5171\u6230\u5b8b\u907c\u6230\u5834\uff0c\u5927\u9b27\u7e39\u7df2\u5cf0\u7684\u58ef\u8a8c\uff0c\u4e5f\u5728\u5de5\u4f5c\u8207\u751f\u6d3b\u7684\u91cd\u64d4\u4e0b\u6f38\u6f38\u6d88\u9000\u3002\u4f46\u96a8\u8457\u300a\u5929\u9f8d\u516b\u90e8\u69ae\u8000\u7248\u300b\u4e2d\u58f9\u66f2\u300a\u84bc\u5c71\u300b\u7684\u594f\u97ff\uff0c\u6bcf\u4f4d\u5929\u9f8d\u5c11\u4fe0\u90fd\u6703\u8ddf\u5b83\u7684\u65cb\u5f8b\uff0c\u58f9\u8d77\u54fc\u8457\u3001\u56de\u61b6\u8457\u7576\u521d\u8207\u5144\u5f1f\u66a2\u904a\u6c5f\u6e56\u7684\u7d93\u6b77\u3002 \uff0c\u727d\u52d5\u8001\u73a9\u5bb6\u7684\u60c5\u61f7\u5916\u3002\u90a3\u4e9b\u5e74\uff0c\u59b3\u5ff5\u5ff5\u4e0d\u5fd8\u7684\u6642\u88dd\u5750\u9a0e\u3001\u4e45\u6253\u4e0d\u901a\u7684\u526f\u672c\u3001\u6c92\u5237\u5b8c\u7684\u65e5\u5e38\u4efb\u52d9\uff0c\u90fd\u80fd\u5728\u88cf\u9762\u627e\u5230\u3002","title":"\u6e38\u620f\u516c\u544a"}
url: 117.4.244.81:82/vt/api_notice.php
?time=1658898002&ticket=35a473e1bc57af01379e6784ec2a4cf5&channel=vtnemo

++++++++++++++++++++++++++++++++++++++++++
2022-07-27 13:01:03 -- 67.188.29.138
code:1 -- msg:success
data:{"time":"1581246101","content":"\u5929\u4e0b\u98a8\u96f2\u51fa\u6211\u8f29\uff0c\u58f9\u5165\u6c5f\u6e56\u6b72\u6708\u50ac\uff01\u7531\u570b\u5167\u9802\u7d1a\u904a\u6232\u5236\u4f5c\u5718\u968a\u806f\u624b\u66a2\u904a\u6253\u9020\u7684\u5168\u65b0\u8c4e\u7248\u5929\u9f8d\u624b\u904a\u2014\u2014\u300a\u5929\u9f8d\u516b\u90e8\u69ae\u8000\u7248\u300b\uff0c11\u67088\u65e5\u65e910\u9ede\u6b63\u5f0f\u958b\u555f!\u5b89\u5353\u73a9\u5bb6\u6436\u5148\u9ad4\u9a57\u5168\u65b0\u91cd\u5236\u7684\u5929\u9f8d\u6c5f\u6e56 \u6843\u82b1\u5f71\u843d\uff0c\u78a7\u6d77\u6f6e\u751f\u3002\u66fe\u5728\u300a\u5929\u9f8d\u516b\u90e8\u300b\u7db2\u904a\u4e2d\uff0c\u8207\u55ac\u5cf0\u4e26\u80a9\u8840\u6230\u805a\u8ce2\u838a\u7684\u6fc0\u60c5\u96a8\u8457\u6b72\u6708\u6d41\u901d\u800c\u6d88\u9000\uff1b\u8207\u5144\u5f1f\u5171\u6230\u5b8b\u907c\u6230\u5834\uff0c\u5927\u9b27\u7e39\u7df2\u5cf0\u7684\u58ef\u8a8c\uff0c\u4e5f\u5728\u5de5\u4f5c\u8207\u751f\u6d3b\u7684\u91cd\u64d4\u4e0b\u6f38\u6f38\u6d88\u9000\u3002\u4f46\u96a8\u8457\u300a\u5929\u9f8d\u516b\u90e8\u69ae\u8000\u7248\u300b\u4e2d\u58f9\u66f2\u300a\u84bc\u5c71\u300b\u7684\u594f\u97ff\uff0c\u6bcf\u4f4d\u5929\u9f8d\u5c11\u4fe0\u90fd\u6703\u8ddf\u5b83\u7684\u65cb\u5f8b\uff0c\u58f9\u8d77\u54fc\u8457\u3001\u56de\u61b6\u8457\u7576\u521d\u8207\u5144\u5f1f\u66a2\u904a\u6c5f\u6e56\u7684\u7d93\u6b77\u3002 \uff0c\u727d\u52d5\u8001\u73a9\u5bb6\u7684\u60c5\u61f7\u5916\u3002\u90a3\u4e9b\u5e74\uff0c\u59b3\u5ff5\u5ff5\u4e0d\u5fd8\u7684\u6642\u88dd\u5750\u9a0e\u3001\u4e45\u6253\u4e0d\u901a\u7684\u526f\u672c\u3001\u6c92\u5237\u5b8c\u7684\u65e5\u5e38\u4efb\u52d9\uff0c\u90fd\u80fd\u5728\u88cf\u9762\u627e\u5230\u3002","title":"\u6e38\u620f\u516c\u544a"}
url: 117.4.244.81:82/vt/api_notice.php
?time=1658898157&ticket=359b013453af2518a4d4356b6f7341ad&channel=vtnemo

++++++++++++++++++++++++++++++++++++++++++
2022-07-27 13:01:44 -- 67.188.29.138
code:1 -- msg:success
data:{"time":"1581246101","content":"\u5929\u4e0b\u98a8\u96f2\u51fa\u6211\u8f29\uff0c\u58f9\u5165\u6c5f\u6e56\u6b72\u6708\u50ac\uff01\u7531\u570b\u5167\u9802\u7d1a\u904a\u6232\u5236\u4f5c\u5718\u968a\u806f\u624b\u66a2\u904a\u6253\u9020\u7684\u5168\u65b0\u8c4e\u7248\u5929\u9f8d\u624b\u904a\u2014\u2014\u300a\u5929\u9f8d\u516b\u90e8\u69ae\u8000\u7248\u300b\uff0c11\u67088\u65e5\u65e910\u9ede\u6b63\u5f0f\u958b\u555f!\u5b89\u5353\u73a9\u5bb6\u6436\u5148\u9ad4\u9a57\u5168\u65b0\u91cd\u5236\u7684\u5929\u9f8d\u6c5f\u6e56 \u6843\u82b1\u5f71\u843d\uff0c\u78a7\u6d77\u6f6e\u751f\u3002\u66fe\u5728\u300a\u5929\u9f8d\u516b\u90e8\u300b\u7db2\u904a\u4e2d\uff0c\u8207\u55ac\u5cf0\u4e26\u80a9\u8840\u6230\u805a\u8ce2\u838a\u7684\u6fc0\u60c5\u96a8\u8457\u6b72\u6708\u6d41\u901d\u800c\u6d88\u9000\uff1b\u8207\u5144\u5f1f\u5171\u6230\u5b8b\u907c\u6230\u5834\uff0c\u5927\u9b27\u7e39\u7df2\u5cf0\u7684\u58ef\u8a8c\uff0c\u4e5f\u5728\u5de5\u4f5c\u8207\u751f\u6d3b\u7684\u91cd\u64d4\u4e0b\u6f38\u6f38\u6d88\u9000\u3002\u4f46\u96a8\u8457\u300a\u5929\u9f8d\u516b\u90e8\u69ae\u8000\u7248\u300b\u4e2d\u58f9\u66f2\u300a\u84bc\u5c71\u300b\u7684\u594f\u97ff\uff0c\u6bcf\u4f4d\u5929\u9f8d\u5c11\u4fe0\u90fd\u6703\u8ddf\u5b83\u7684\u65cb\u5f8b\uff0c\u58f9\u8d77\u54fc\u8457\u3001\u56de\u61b6\u8457\u7576\u521d\u8207\u5144\u5f1f\u66a2\u904a\u6c5f\u6e56\u7684\u7d93\u6b77\u3002 \uff0c\u727d\u52d5\u8001\u73a9\u5bb6\u7684\u60c5\u61f7\u5916\u3002\u90a3\u4e9b\u5e74\uff0c\u59b3\u5ff5\u5ff5\u4e0d\u5fd8\u7684\u6642\u88dd\u5750\u9a0e\u3001\u4e45\u6253\u4e0d\u901a\u7684\u526f\u672c\u3001\u6c92\u5237\u5b8c\u7684\u65e5\u5e38\u4efb\u52d9\uff0c\u90fd\u80fd\u5728\u88cf\u9762\u627e\u5230\u3002","title":"\u6e38\u620f\u516c\u544a"}
url: 117.4.244.81:82/vt/api_notice.php
?time=1658898198&ticket=9e3c80c3a449e8c16629da2b394a4c7f&channel=vtnemo

++++++++++++++++++++++++++++++++++++++++++
2022-07-27 13:01:48 -- 67.188.29.138
code:1 -- msg:success
data:{"time":"1581246101","content":"\u5929\u4e0b\u98a8\u96f2\u51fa\u6211\u8f29\uff0c\u58f9\u5165\u6c5f\u6e56\u6b72\u6708\u50ac\uff01\u7531\u570b\u5167\u9802\u7d1a\u904a\u6232\u5236\u4f5c\u5718\u968a\u806f\u624b\u66a2\u904a\u6253\u9020\u7684\u5168\u65b0\u8c4e\u7248\u5929\u9f8d\u624b\u904a\u2014\u2014\u300a\u5929\u9f8d\u516b\u90e8\u69ae\u8000\u7248\u300b\uff0c11\u67088\u65e5\u65e910\u9ede\u6b63\u5f0f\u958b\u555f!\u5b89\u5353\u73a9\u5bb6\u6436\u5148\u9ad4\u9a57\u5168\u65b0\u91cd\u5236\u7684\u5929\u9f8d\u6c5f\u6e56 \u6843\u82b1\u5f71\u843d\uff0c\u78a7\u6d77\u6f6e\u751f\u3002\u66fe\u5728\u300a\u5929\u9f8d\u516b\u90e8\u300b\u7db2\u904a\u4e2d\uff0c\u8207\u55ac\u5cf0\u4e26\u80a9\u8840\u6230\u805a\u8ce2\u838a\u7684\u6fc0\u60c5\u96a8\u8457\u6b72\u6708\u6d41\u901d\u800c\u6d88\u9000\uff1b\u8207\u5144\u5f1f\u5171\u6230\u5b8b\u907c\u6230\u5834\uff0c\u5927\u9b27\u7e39\u7df2\u5cf0\u7684\u58ef\u8a8c\uff0c\u4e5f\u5728\u5de5\u4f5c\u8207\u751f\u6d3b\u7684\u91cd\u64d4\u4e0b\u6f38\u6f38\u6d88\u9000\u3002\u4f46\u96a8\u8457\u300a\u5929\u9f8d\u516b\u90e8\u69ae\u8000\u7248\u300b\u4e2d\u58f9\u66f2\u300a\u84bc\u5c71\u300b\u7684\u594f\u97ff\uff0c\u6bcf\u4f4d\u5929\u9f8d\u5c11\u4fe0\u90fd\u6703\u8ddf\u5b83\u7684\u65cb\u5f8b\uff0c\u58f9\u8d77\u54fc\u8457\u3001\u56de\u61b6\u8457\u7576\u521d\u8207\u5144\u5f1f\u66a2\u904a\u6c5f\u6e56\u7684\u7d93\u6b77\u3002 \uff0c\u727d\u52d5\u8001\u73a9\u5bb6\u7684\u60c5\u61f7\u5916\u3002\u90a3\u4e9b\u5e74\uff0c\u59b3\u5ff5\u5ff5\u4e0d\u5fd8\u7684\u6642\u88dd\u5750\u9a0e\u3001\u4e45\u6253\u4e0d\u901a\u7684\u526f\u672c\u3001\u6c92\u5237\u5b8c\u7684\u65e5\u5e38\u4efb\u52d9\uff0c\u90fd\u80fd\u5728\u88cf\u9762\u627e\u5230\u3002","title":"\u6e38\u620f\u516c\u544a"}
url: 117.4.244.81:82/vt/api_notice.php
?time=1658898202&ticket=3a8ce463adb6c2f2f8125b1c52bd76d1&channel=vtnemo
