
++++++++++++++++++++++++++++++++++++++++++
2022-11-03 02:32:50--136.158.25.154
url: 117.4.244.81:82/vt/api_server.php
?time=1667413972&channel=vtnemo&accname=shacojx&ticket=78837cd44997e3109b92d13437950df9&ios_version=18379&device_id=df04a5d3883a4f3e15ba949e53bba02f

++++++++++++++++++++++++++++++++++++++++++
2022-11-03 05:56:38--113.185.40.245
url: 117.4.244.81:82/vt/api_server.php
?channel=vtnemo&time=1667426198&ios_version=18379&device_id=dc37fd3b9776d047ad7ff700556507ac&accname=aechoivui&ticket=9a33932e5d0639f94fef7896bb8d5834

++++++++++++++++++++++++++++++++++++++++++
2022-11-03 12:02:23--136.158.25.154
url: 117.4.244.81:82/vt/api_server.php
?device_id=ad3d442dd6a2d88e238f44702df401d3&ios_version=18379&channel=vtnemo&accname=shacojx&ticket=307a530b447b7dc1faef104c2c9eda7a&time=1667448143

++++++++++++++++++++++++++++++++++++++++++
2022-11-03 14:02:17--136.158.25.154
url: 117.4.244.81:82/vt/api_server.php
?ios_version=18379&accname=shacojx&time=1667455337&device_id=ad3d442dd6a2d88e238f44702df401d3&ticket=67cfb32b4d836683d2cab939c9706b6e&channel=vtnemo

++++++++++++++++++++++++++++++++++++++++++
2022-11-03 14:08:35--113.185.40.93
url: 117.4.244.81:82/vt/api_server.php
?ios_version=18379&channel=vtnemo&time=1667455715&ticket=648f3385d0a584003e3f27a7265ff6b3&device_id=dc37fd3b9776d047ad7ff700556507ac&accname=aechoivui

++++++++++++++++++++++++++++++++++++++++++
2022-11-03 15:49:25--113.185.40.85
url: 117.4.244.81:82/vt/api_server.php
?time=1667461765&ticket=93b714c72fec3600d787e0bcef224d48&ios_version=18379&channel=vtnemo&device_id=dc37fd3b9776d047ad7ff700556507ac&accname=aechoivui

++++++++++++++++++++++++++++++++++++++++++
2022-11-03 16:23:18--136.158.25.154
url: 117.4.244.81:82/vt/api_server.php
?accname=shacojx&device_id=ad3d442dd6a2d88e238f44702df401d3&ios_version=18379&ticket=ef7074850cd5b82d357e03b090e27d61&channel=vtnemo&time=1667463798

++++++++++++++++++++++++++++++++++++++++++
2022-11-03 20:26:39--113.185.40.166
url: 117.4.244.81:82/vt/api_server.php
?channel=vtnemo&accname=aechoivui&ticket=fb89aeb65a40f51c0bef0e8b32341e3a&ios_version=18379&device_id=dc37fd3b9776d047ad7ff700556507ac&time=1667478399

++++++++++++++++++++++++++++++++++++++++++
2022-11-03 22:36:58--136.158.25.154
url: 117.4.244.81:82/vt/api_server.php
?device_id=ad3d442dd6a2d88e238f44702df401d3&ios_version=18379&time=1667486218&ticket=6b2ef13dbbdceee1e836ed5e6409d1f9&channel=vtnemo&accname=shacojx

++++++++++++++++++++++++++++++++++++++++++
2022-11-03 22:42:57--113.188.187.164
url: 117.4.244.81:82/vt/api_server.php
?time=1667486575&ios_version=18379&accname=tinogom102&device_id=da2d8274fb994e7740a950b8f589c049&ticket=50f86b0a6e79c3e91d316f928ae6d2de&channel=vtnemo

++++++++++++++++++++++++++++++++++++++++++
2022-11-03 22:43:01--153.242.91.10
url: 117.4.244.81:82/vt/api_server.php
?accname=quangsach&device_id=4a0dbbb773087a0bf85297101727a82f&ticket=69a236535723e1b09d6f7d40ce4474f1&ios_version=18379&channel=vtnemo&time=1667486580

++++++++++++++++++++++++++++++++++++++++++
2022-11-03 22:43:49--153.242.91.10
url: 117.4.244.81:82/vt/api_server.php
?ios_version=18379&accname=quangsach&device_id=4a0dbbb773087a0bf85297101727a82f&ticket=f53e16919a47436104068fe39e934b85&time=1667486628&channel=vtnemo

++++++++++++++++++++++++++++++++++++++++++
2022-11-03 22:44:19--113.188.187.164
url: 117.4.244.81:82/vt/api_server.php
?time=1667486657&ios_version=18379&accname=tinogom102&device_id=da2d8274fb994e7740a950b8f589c049&ticket=02a219c2e8c3c2c92acb86db4870268d&channel=vtnemo

++++++++++++++++++++++++++++++++++++++++++
2022-11-03 22:46:59--153.242.91.10
url: 117.4.244.81:82/vt/api_server.php
?time=1667486818&accname=quangsach&ticket=c3024e800a4e1d9c588321a3ab0911c5&channel=vtnemo&device_id=4a0dbbb773087a0bf85297101727a82f&ios_version=18379

++++++++++++++++++++++++++++++++++++++++++
2022-11-03 22:54:22--153.242.91.10
url: 117.4.244.81:82/vt/api_server.php
?ticket=7e20627ec49ec620503f366351b1c532&time=1667487261&accname=quangsach&device_id=4a0dbbb773087a0bf85297101727a82f&ios_version=18379&channel=vtnemo

++++++++++++++++++++++++++++++++++++++++++
2022-11-03 23:02:33--133.106.47.242
url: 117.4.244.81:82/vt/api_server.php
?accname=quangsach&ticket=f5f55c2e08279eb9f932a74eefcc03a8&time=1667487752&channel=vtnemo&device_id=4a0dbbb773087a0bf85297101727a82f&ios_version=18379

++++++++++++++++++++++++++++++++++++++++++
2022-11-03 23:04:35--113.188.187.164
url: 117.4.244.81:82/vt/api_server.php
?ticket=a75c2d1a4fc7573e485ef7126d24cc2f&accname=tinogom&channel=vtnemo&device_id=da2d8274fb994e7740a950b8f589c049&ios_version=18379&time=1667487873

++++++++++++++++++++++++++++++++++++++++++
2022-11-03 23:04:53--136.158.25.154
url: 117.4.244.81:82/vt/api_server.php
?channel=vtnemo&ticket=72361ab3ea08e4a917698330fc821cb3&device_id=ad3d442dd6a2d88e238f44702df401d3&time=1667487893&accname=shacojx&ios_version=18379

++++++++++++++++++++++++++++++++++++++++++
2022-11-03 23:44:24--113.188.187.164
url: 117.4.244.81:82/vt/api_server.php
?channel=vtnemo&device_id=da2d8274fb994e7740a950b8f589c049&time=1667490263&ticket=bb98f3ab8bd9010dd7ab8c2a7f3cdb06&ios_version=18379&accname=tinogom
