
++++++++++++++++++++++++++++++++++++++++++
2022-07-28 04:19:49 -- 117.4.244.81
code:-12 -- msg:insert_exception_error
data:[]
url: 117.4.244.81:82/vt/api_client_error.php
?server_id=1&content=%5Bstring+%22%0D...%22%5D%3A4%3A+System.FormatException%3A+Input+string+was+not+in+the+correct+format%0D%0A++at+System.Int16.Parse+%28System.String+s%29+%5B0x00000%5D+in+%3Cfilename+unknown%3E%3A0+%0D%0A++at+System.Convert.ToInt16+%28System.String+value%29+%5B0x00000%5D+in+%3Cfilename+unknown%3E%3A0+%0D%0A++at+FairyGUI.Utils.XMLUtils.DecodeString+%28System.String+aSource%29+%5B0x00000%5D+in+%3Cfilename+unknown%3E%3A0+%0D%0A++at+FairyGUI.Utils.XMLIterator.ParseAttributes+%28IDictionary+attrs%29+%5B0x00000%5D+in+%3Cfilename+unknown%3E%3A0+%0D%0A++at+FairyGUI.Utils.XMLIterator.GetAttributes+%28System.Collections.Generic.Dictionary%602+result%29+%5B0x00000%5D+in+%3Cfilename+unknown%3E%3A0+%0D%0A++at+FairyGUI.Utils.XML.Parse+%28System.String+aSource%29+%5B0x00000%5D+in+%3Cfilename+unknown%3E%3A0+%0D%0A++at+FairyGUI.UIPackage.LoadComponent+%28FairyGUI.PackageItem+item%29+%5B0x00000%5D+in+%3Cfilename+unknown%3E%3A0+%0D%0A++at+FairyGUI.UIPackage.GetItemAsset+%28FairyGUI.PackageItem+item%29+%5B0x00000%5D+in+%3Cfilename+unknown%3E%3A0+%0D%0A++at+FairyGUI.UIPackage.LoadPackage+%28%29+%5B0x00000%5D+in+%3Cfilename+unknown%3E%3A0+%0D%0A++at+FairyGUI.UIPackage.AddPackage+%28System.String+bundleName%2C+System.String+assetName%2C+FairyGUI.LoadResource+loadFunc%29+%5B0x00000%5D+in+%3Cfilename+unknown%3E%3A0+%0D%0A++at+FairyGUI.UIPackage.LoadPackage+%28System.String+bundleName%2C+System.String+assetName%29+%5B0x00000%5D+in+%3Cfilename+unknown%3E%3A0+%0D%0A++at+Lua%5FN3DClient%5FUIManager.AddUIPackage+%28IntPtr+l%29+%5B0x00000%5D+in+%3Cfilename+unknown%3E%3A0+%0D%0Astack+traceback%3A%0D%0A%09%5BC%5D%3A+in+function+%27assert%27%0D%0A%09%5Bstring+%22%0D...%22%5D%3A4%3A+in+function+%3C%5Bstring+%22%0D...%22%5D%3A3%3E%0D%0A%09%28...tail+calls...%29%0D%0A%09global%2Fasset%5Floader%3A200%3A+in+method+%27%5FOnLoadAssetFinish%27%0D%0A%09global%2Fasset%5Floader%3A74%3A+in+method+%27Update%27%0D%0A%09global%2Frunner%3A27%3A+in+method+%27Update%27%0D%0A%09app%3A45%3A+in+function+%27app.Update%27&time=1658953189&nick_name=KiemMa&level=99&channel=vtnemo&role_id=24383464448000&ticket=27f98549e98a2085dd674ca4701929c9

++++++++++++++++++++++++++++++++++++++++++
2022-07-28 16:12:40 -- 1.52.127.131
code:1 -- msg:success
data:[]
url: 117.4.244.81:82/vt/api_client_error.php
?channel=vtnemo&server_id=1&time=1658995959&content=game%2Fbag%2Fitem%2Fgoods%5Fitem%3A19%3A+attempt+to+index+a+nil+value+%28field+%27info%27%29%0D%0Astack+traceback%3A%0D%0A%09game%2Fbag%2Fitem%2Fgoods%5Fitem%3A19%3A+in+upvalue+%27func%27%0D%0A%09game%2Fbag%2Fitem%2Fgoods%5Fitem%3A41%3A+in+function+%3Cgame%2Fbag%2Fitem%2Fgoods%5Fitem%3A27%3E&ticket=56d2f42709e082a564cffef2d9eaaad1&nick_name=LiengLieng&role_id=24387429883904&level=49
