
++++++++++++++++++++++++++++++++++++++++++
2022-10-12 01:36:29 -- 59.153.243.221
code:-13 -- msg:card_no_empty
data:[]
url: 117.4.244.81:82/vt/api_card.php
?sid=1&role_id=24413857230848&time=1665509788&ticket=4e8f5b6b81f9012d798d9936714aae03&card_no=tanthu
