
++++++++++++++++++++++++++++++++++++++++++
2022-09-24 11:46:42--1.54.176.60
url: 117.4.244.81:82/vt/api_server.php
?accname=abc123&time=1663991200&channel=vtnemo&device_id=9b45d56692d3bb40a938d463121adf64&ios_version=18379&ticket=9ef2486043b7935fb0fc1b137874088e
