
++++++++++++++++++++++++++++++++++++++++++
2022-08-18 01:55:10--171.234.161.51
url: 117.4.244.81:82/vt/api_insert_reg.php
?channel=vtnemo&time=1660758911&accname=kingpinetwork&role_id=24394654535680&device_id=824b3a80c96091b9a1193e9193c8d2c7&os=11&ticket=19bd17e94cbdc1e519254bc55be80f21&sid=1&nickname=KingPi
