
++++++++++++++++++++++++++++++++++++++++++
2022-11-13 15:17:19 -- 1.55.7.29
code:1 -- msg:success
data:{"is_white":0,"zone_list":[{"name":"\u65b01\u533a","list":[1,2]}],"server_list":{"1":{"server_id":"1","description":"Kieu Phong","game_ip":"117.4.244.81","game_port":"9000","otime":"1581213600","visible_time":"1579795200","hot_state":"0","recom_state":"1","default":"1","stop_service_describe":""},"2":{"server_id":"2","description":"Chua Ra","game_ip":"117.4.244.81","game_port":"9001","otime":"1581323219","visible_time":"1580486400","hot_state":"0","recom_state":"0","default":"1","stop_service_describe":""}},"person_list":[{"role_id":"24383483707392","accname":"abc123","last_login_server":"1","last_login_time":"1658031657","nickname":"UyenThanh","server_id":"1","reg_time":"1658031657","level":"1","channel":"vtnemo"}]}
url: 117.4.244.81:82/vt/api_server.php
?ticket=673ac859a4023891c79cdce2ce53214d&channel=vtnemo&accname=abc123&ios_version=18379&device_id=9b45d56692d3bb40a938d463121adf64&time=1668323838
