
++++++++++++++++++++++++++++++++++++++++++
2022-08-25 17:38:38 -- 14.241.121.178
code:1 -- msg:success
data:[]
url: 117.4.244.81:82/vt/api_client_error.php
?content=game%2Ffoundry%2Ffoundry%5Fgodweapon%5Fcollect%5Fview%3A35%3A+attempt+to+index+a+nil+value+%28local+%27role%5Finfo%27%29%0D%0Astack+traceback%3A%0D%0A%09game%2Ffoundry%2Ffoundry%5Fgodweapon%5Fcollect%5Fview%3A35%3A+in+function+%3Cgame%2Ffoundry%2Ffoundry%5Fgodweapon%5Fcollect%5Fview%3A30%3E&ticket=34fbf574724968bd313b2a0ecf81b9a5&channel=vtnemo&time=1661420319&level=64&nick_name=MaQuan&role_id=24397353086976&server_id=1
