
++++++++++++++++++++++++++++++++++++++++++
2022-07-24 13:15:44--117.4.244.81
url: 117.4.244.81:82/vt/api_server.php
?ticket=3c1402c4486a94794a2217b48f94003d&device_id=df04a5d3883a4f3e15ba949e53bba02f&ios_version=18379&time=1658639746&channel=vtnemo&accname=toanvv

++++++++++++++++++++++++++++++++++++++++++
2022-07-24 13:40:42--117.4.244.81
url: 117.4.244.81:82/vt/api_server.php
?ios_version=18379&ticket=1faa2e93be83ba21b59634d61537f684&device_id=df04a5d3883a4f3e15ba949e53bba02f&time=1658641244&accname=toanvv&channel=vtnemo

++++++++++++++++++++++++++++++++++++++++++
2022-07-24 13:53:08--117.4.244.81
url: 117.4.244.81:82/vt/api_server.php
?time=1658641990&accname=toanvv1&ios_version=18379&channel=vtnemo&device_id=df04a5d3883a4f3e15ba949e53bba02f&ticket=49ef9d0c37b7576bd8078cd3ce188dc8

++++++++++++++++++++++++++++++++++++++++++
2022-07-24 13:53:21--27.68.212.129
url: 117.4.244.81:82/vt/api_server.php
?device_id=2eaa75488fbebffe1317fdf23dcab441&accname=toanvv&ticket=64fc64f185972663f53bb2e3bf63ab1d&time=1658642000&ios_version=18379&channel=vtnemo

++++++++++++++++++++++++++++++++++++++++++
2022-07-24 21:49:10--27.71.85.39
url: 117.4.244.81:82/vt/api_server.php
?ios_version=18379&channel=vtnemo&ticket=8ca815e5cdd8c3853a0627a2a64f9492&time=1658670548&accname=quoc96&device_id=3f6edf16639acb7c9695a357a9d58629

++++++++++++++++++++++++++++++++++++++++++
2022-07-24 22:03:21--27.3.149.67
url: 117.4.244.81:82/vt/api_server.php
?device_id=5556655c70cb158f8797b8a454c97461&accname=voi123&ios_version=18379&time=1658671401&channel=vtnemo&ticket=ea10dfc59e109cf9c7837d41e8cc3d82
