
++++++++++++++++++++++++++++++++++++++++++
2022-11-05 00:17:34--113.188.187.164
url: 117.4.244.81:82/vt/api_active.php
?channel=vtnemo&time=1667578651&ticket=87ee5aa8058342e48e38b0687c3fa718

++++++++++++++++++++++++++++++++++++++++++
2022-11-05 00:54:10--126.33.105.44
url: 117.4.244.81:82/vt/api_active.php
?channel=vtnemo&time=1667580849&ticket=13b30bd95a84a31d6887f3b1b3d75311

++++++++++++++++++++++++++++++++++++++++++
2022-11-05 01:07:52--113.188.187.164
url: 117.4.244.81:82/vt/api_active.php
?channel=vtnemo&time=1667581670&ticket=deea51bb7ccae4e303440ba7cc4e8a41

++++++++++++++++++++++++++++++++++++++++++
2022-11-05 01:22:01--113.188.187.164
url: 117.4.244.81:82/vt/api_active.php
?channel=vtnemo&time=1667582519&ticket=233c45e47e0e30639b72cf4b4bd3a64b

++++++++++++++++++++++++++++++++++++++++++
2022-11-05 02:20:34--113.188.187.164
url: 117.4.244.81:82/vt/api_active.php
?channel=vtnemo&time=1667586032&ticket=6fa6aade0934465d4df5a4eccb2b6fcd

++++++++++++++++++++++++++++++++++++++++++
2022-11-05 10:11:16--113.188.187.164
url: 117.4.244.81:82/vt/api_active.php
?channel=vtnemo&time=1667614274&ticket=b6dc44858bd28448ca1098e3996e54e5

++++++++++++++++++++++++++++++++++++++++++
2022-11-05 10:15:19--113.188.187.164
url: 117.4.244.81:82/vt/api_active.php
?channel=vtnemo&time=1667614517&ticket=8c416448bb84e50f8698a193aaa0c8c5

++++++++++++++++++++++++++++++++++++++++++
2022-11-05 10:15:52--113.188.187.164
url: 117.4.244.81:82/vt/api_active.php
?channel=vtnemo&time=1667614550&ticket=671d10cfe0696d664eabb26a8a08d19d

++++++++++++++++++++++++++++++++++++++++++
2022-11-05 11:43:09--113.188.187.164
url: 117.4.244.81:82/vt/api_active.php
?channel=vtnemo&time=1667619786&ticket=725faf6884cd1c9c970f6b8f0e88f63f

++++++++++++++++++++++++++++++++++++++++++
2022-11-05 12:25:04--136.158.25.154
url: 117.4.244.81:82/vt/api_active.php
?channel=vtnemo&time=1667622303&ticket=79491e0e834369451fa87e1fbc7e38f0

++++++++++++++++++++++++++++++++++++++++++
2022-11-05 14:40:55--126.158.208.131
url: 117.4.244.81:82/vt/api_active.php
?channel=vtnemo&time=1667630454&ticket=2569fec0675a6765e2f4e83c3c19bdcc
