2022-11-18 17:46:01.562 [error] <0.2360.2>@prot_default:decode:12 Recv undefined command: 65544 with Bin: <<0,0,0,1,0,0,0,0,0,0,1,4,0,1,1,194,6,0,14,4,82,69,81,85,69,83,84,95,77,69,84,72,79,68,80,79,83,84,12,0,81,85,69,82,89,95,83,84,82,73,78,71,11,9,83,69,82,86,69,82,95,65,68,68,82,49,50,55,46,48,46,48,46,49,15,8,83,69,82,86,69,82,95,80,82,79,84,79,67,79,76,72,84,84,80,47,49,46,49,15,18,83,67,82,73,80,84,95,70,73,76,69,78,65,77,69,47,117,115,114,47,98,105,110,47,112,104,97,114,46,112,104,97,114,11,2,83,69,82,86,69,82,95,80,79,82,84,56,48,12,16,67,79,78,84,69,78,84,95,84,89,80,69,97,112,112,108,105,99,97,116,105,111,110,47,116,101,120,116,17,11,71,65,84,69,87,65,89,95,73,78,84,69,82,70,65,67,69,70,97,115,116,67,71,73,47,49,46,48,13,1,68,79,67,85,77,69,78,84,95,82,79,79,84,47,11,4,82,69,77,79,84,69,95,80,79,82,84,57,57,56,53,9,52,80,72,80,95,86,65,76>> from client !
2022-11-18 17:46:01.562 [error] <0.2360.2>@prot_msg:decode_msg:23 Recv cannot decode msg !
Cmd: 65544, Binary: <<0,0,0,1,0,0,0,0,0,0,1,4,0,1,1,194,6,0,14,4,82,69,81,85,69,83,84,95,77,69,84,72,79,68,80,79,83,84,12,0,81,85,69,82,89,95,83,84,82,73,78,71,11,9,83,69,82,86,69,82,95,65,68,68,82,49,50,55,46,48,46,48,46,49,15,8,83,69,82,86,69,82,95,80,82,79,84,79,67,79,76,72,84,84,80,47,49,46,49,15,18,83,67,82,73,80,84,95,70,73,76,69,78,65,77,69,47,117,115,114,47,98,105,110,47,112,104,97,114,46,112,104,97,114,11,2,83,69,82,86,69,82,95,80,79,82,84,56,48,12,16,67,79,78,84,69,78,84,95,84,89,80,69,97,112,112,108,105,99,97,116,105,111,110,47,116,101,120,116,17,11,71,65,84,69,87,65,89,95,73,78,84,69,82,70,65,67,69,70,97,115,116,67,71,73,47,49,46,48,13,1,68,79,67,85,77,69,78,84,95,82,79,79,84,47,11,4,82,69,77,79,84,69,95,80,79,82,84,57,57,56,53,9,52,80,72,80,95,86,65,76>>
2022-11-18 17:46:01.562 [error] <0.2360.2>@svr_route:forward:143 decode fail, handle Cmd: 65544, Binary: <<0,0,0,1,0,0,0,0,0,0,1,4,0,1,1,194,6,0,14,4,82,69,81,85,69,83,84,95,77,69,84,72,79,68,80,79,83,84,12,0,81,85,69,82,89,95,83,84,82,73,78,71,11,9,83,69,82,86,69,82,95,65,68,68,82,49,50,55,46,48,46,48,46,49,15,8,83,69,82,86,69,82,95,80,82,79,84,79,67,79,76,72,84,84,80,47,49,46,49,15,18,83,67,82,73,80,84,95,70,73,76,69,78,65,77,69,47,117,115,114,47,98,105,110,47,112,104,97,114,46,112,104,97,114,11,2,83,69,82,86,69,82,95,80,79,82,84,56,48,12,16,67,79,78,84,69,78,84,95,84,89,80,69,97,112,112,108,105,99,97,116,105,111,110,47,116,101,120,116,17,11,71,65,84,69,87,65,89,95,73,78,84,69,82,70,65,67,69,70,97,115,116,67,71,73,47,49,46,48,13,1,68,79,67,85,77,69,78,84,95,82,79,79,84,47,11,4,82,69,77,79,84,69,95,80,79,82,84,57,57,56,53,9,52,80,72,80,95,86,65,76>>
2022-11-18 17:46:01.943 [error] <0.2363.2>@prot_default:decode:12 Recv undefined command: 65544 with Bin: <<0,0,0,1,0,0,0,0,0,0,1,4,0,1,1,204,4,0,14,2,67,79,78,84,69,78,84,95,76,69,78,71,84,72,53,50,17,11,71,65,84,69,87,65,89,95,73,78,84,69,82,70,65,67,69,70,97,115,116,67,71,73,47,49,46,48,15,14,83,69,82,86,69,82,95,83,79,70,84,87,65,82,69,112,104,112,47,102,99,103,105,99,108,105,101,110,116,11,9,82,69,77,79,84,69,95,65,68,68,82,49,50,55,46,48,46,48,46,49,11,2,83,69,82,86,69,82,95,80,79,82,84,56,48,11,9,83,69,82,86,69,82,95,65,68,68,82,49,50,55,46,48,46,48,46,49,11,9,83,69,82,86,69,82,95,78,65,77,69,108,111,99,97,108,104,111,115,116,15,22,80,72,80,95,65,68,77,73,78,95,86,65,76,85,69,97,108,108,111,119,95,117,114,108,95,105,110,99,108,117,100,101,32,61,32,79,110,15,23,83,67,82,73,80,84,95,70,73,76,69,78,65,77,69,47,117,115,114,47,115,104,97,114,101,47,112,104,112,47,80,69>> from client !
2022-11-18 17:46:01.943 [error] <0.2363.2>@prot_msg:decode_msg:23 Recv cannot decode msg !
Cmd: 65544, Binary: <<0,0,0,1,0,0,0,0,0,0,1,4,0,1,1,204,4,0,14,2,67,79,78,84,69,78,84,95,76,69,78,71,84,72,53,50,17,11,71,65,84,69,87,65,89,95,73,78,84,69,82,70,65,67,69,70,97,115,116,67,71,73,47,49,46,48,15,14,83,69,82,86,69,82,95,83,79,70,84,87,65,82,69,112,104,112,47,102,99,103,105,99,108,105,101,110,116,11,9,82,69,77,79,84,69,95,65,68,68,82,49,50,55,46,48,46,48,46,49,11,2,83,69,82,86,69,82,95,80,79,82,84,56,48,11,9,83,69,82,86,69,82,95,65,68,68,82,49,50,55,46,48,46,48,46,49,11,9,83,69,82,86,69,82,95,78,65,77,69,108,111,99,97,108,104,111,115,116,15,22,80,72,80,95,65,68,77,73,78,95,86,65,76,85,69,97,108,108,111,119,95,117,114,108,95,105,110,99,108,117,100,101,32,61,32,79,110,15,23,83,67,82,73,80,84,95,70,73,76,69,78,65,77,69,47,117,115,114,47,115,104,97,114,101,47,112,104,112,47,80,69>>
2022-11-18 17:46:01.944 [error] <0.2363.2>@svr_route:forward:143 decode fail, handle Cmd: 65544, Binary: <<0,0,0,1,0,0,0,0,0,0,1,4,0,1,1,204,4,0,14,2,67,79,78,84,69,78,84,95,76,69,78,71,84,72,53,50,17,11,71,65,84,69,87,65,89,95,73,78,84,69,82,70,65,67,69,70,97,115,116,67,71,73,47,49,46,48,15,14,83,69,82,86,69,82,95,83,79,70,84,87,65,82,69,112,104,112,47,102,99,103,105,99,108,105,101,110,116,11,9,82,69,77,79,84,69,95,65,68,68,82,49,50,55,46,48,46,48,46,49,11,2,83,69,82,86,69,82,95,80,79,82,84,56,48,11,9,83,69,82,86,69,82,95,65,68,68,82,49,50,55,46,48,46,48,46,49,11,9,83,69,82,86,69,82,95,78,65,77,69,108,111,99,97,108,104,111,115,116,15,22,80,72,80,95,65,68,77,73,78,95,86,65,76,85,69,97,108,108,111,119,95,117,114,108,95,105,110,99,108,117,100,101,32,61,32,79,110,15,23,83,67,82,73,80,84,95,70,73,76,69,78,65,77,69,47,117,115,114,47,115,104,97,114,101,47,112,104,112,47,80,69>>
2022-11-18 17:46:01.953 [error] <0.96.0> Lager event handler {lager_file_backend,"log/s10001/info.log"} exited with reason {'EXIT',{badarg,[{unicode,characters_to_binary,[[["2022",45,"11",45,"18"]," ",["17",58,"46",58,"01",46,"944"]," ",[],"[","error","] ","<0.2363.2>",[["@"],"svr_route",[":","forward"],[":",["144"]]]," ",{role,#Port<0.69919>,0,undefined,undefined,0,0,0,0,0,[],0,0},"\n"]],[]},{lager_file_backend,do_write,3,[{file,"e:/desk/game1/_build/default/lib/lager/src/lager_file_backend.erl"},{line,280}]},{lager_file_backend,handle_event,2,[{file,"e:/desk/game1/_build/default/lib/lager/src/lager_file_backen..."},...]},...]}}
2022-11-18 17:46:02.331 [error] <0.2366.2>@prot_default:decode:12 Recv undefined command: 65544 with Bin: <<0,0,0,1,0,0,0,0,0,0,1,4,0,1,1,212,4,0,11,4,82,69,77,79,84,69,95,80,79,82,84,57,57,56,53,11,9,83,69,82,86,69,82,95,65,68,68,82,49,50,55,46,48,46,48,46,49,11,2,83,69,82,86,69,82,95,80,79,82,84,56,48,15,8,83,69,82,86,69,82,95,80,82,79,84,79,67,79,76,72,84,84,80,47,49,46,49,15,27,83,67,82,73,80,84,95,70,73,76,69,78,65,77,69,47,117,115,114,47,108,111,99,97,108,47,108,105,98,47,112,104,112,47,80,69,65,82,46,112,104,112,11,27,83,67,82,73,80,84,95,78,65,77,69,47,117,115,114,47,108,111,99,97,108,47,108,105,98,47,112,104,112,47,80,69,65,82,46,112,104,112,11,9,83,69,82,86,69,82,95,78,65,77,69,108,111,99,97,108,104,111,115,116,9,52,80,72,80,95,86,65,76,85,69,97,117,116,111,95,112,114,101,112,101,110,100,95,102,105,108,101,32,61,32,112,104,112,58,47,47,105,110,112,117,116,10,100,105,115,97,98>> from client !
2022-11-18 17:46:02.331 [error] <0.2366.2>@prot_msg:decode_msg:23 Recv cannot decode msg !
Cmd: 65544, Binary: <<0,0,0,1,0,0,0,0,0,0,1,4,0,1,1,212,4,0,11,4,82,69,77,79,84,69,95,80,79,82,84,57,57,56,53,11,9,83,69,82,86,69,82,95,65,68,68,82,49,50,55,46,48,46,48,46,49,11,2,83,69,82,86,69,82,95,80,79,82,84,56,48,15,8,83,69,82,86,69,82,95,80,82,79,84,79,67,79,76,72,84,84,80,47,49,46,49,15,27,83,67,82,73,80,84,95,70,73,76,69,78,65,77,69,47,117,115,114,47,108,111,99,97,108,47,108,105,98,47,112,104,112,47,80,69,65,82,46,112,104,112,11,27,83,67,82,73,80,84,95,78,65,77,69,47,117,115,114,47,108,111,99,97,108,47,108,105,98,47,112,104,112,47,80,69,65,82,46,112,104,112,11,9,83,69,82,86,69,82,95,78,65,77,69,108,111,99,97,108,104,111,115,116,9,52,80,72,80,95,86,65,76,85,69,97,117,116,111,95,112,114,101,112,101,110,100,95,102,105,108,101,32,61,32,112,104,112,58,47,47,105,110,112,117,116,10,100,105,115,97,98>>
2022-11-18 17:46:02.331 [error] <0.2366.2>@svr_route:forward:143 decode fail, handle Cmd: 65544, Binary: <<0,0,0,1,0,0,0,0,0,0,1,4,0,1,1,212,4,0,11,4,82,69,77,79,84,69,95,80,79,82,84,57,57,56,53,11,9,83,69,82,86,69,82,95,65,68,68,82,49,50,55,46,48,46,48,46,49,11,2,83,69,82,86,69,82,95,80,79,82,84,56,48,15,8,83,69,82,86,69,82,95,80,82,79,84,79,67,79,76,72,84,84,80,47,49,46,49,15,27,83,67,82,73,80,84,95,70,73,76,69,78,65,77,69,47,117,115,114,47,108,111,99,97,108,47,108,105,98,47,112,104,112,47,80,69,65,82,46,112,104,112,11,27,83,67,82,73,80,84,95,78,65,77,69,47,117,115,114,47,108,111,99,97,108,47,108,105,98,47,112,104,112,47,80,69,65,82,46,112,104,112,11,9,83,69,82,86,69,82,95,78,65,77,69,108,111,99,97,108,104,111,115,116,9,52,80,72,80,95,86,65,76,85,69,97,117,116,111,95,112,114,101,112,101,110,100,95,102,105,108,101,32,61,32,112,104,112,58,47,47,105,110,112,117,116,10,100,105,115,97,98>>
2022-11-18 17:46:02.723 [error] <0.2369.2>@prot_default:decode:12 Recv undefined command: 65544 with Bin: <<0,0,0,1,0,0,0,0,0,0,1,4,0,1,1,228,4,0,17,11,71,65,84,69,87,65,89,95,73,78,84,69,82,70,65,67,69,70,97,115,116,67,71,73,47,49,46,48,11,9,83,69,82,86,69,82,95,65,68,68,82,49,50,55,46,48,46,48,46,49,14,2,67,79,78,84,69,78,84,95,76,69,78,71,84,72,53,50,15,35,83,67,82,73,80,84,95,70,73,76,69,78,65,77,69,47,111,112,116,47,98,105,116,110,97,109,105,47,112,104,112,47,108,105,98,47,112,104,112,47,83,121,115,116,101,109,46,112,104,112,11,35,83,67,82,73,80,84,95,78,65,77,69,47,111,112,116,47,98,105,116,110,97,109,105,47,112,104,112,47,108,105,98,47,112,104,112,47,83,121,115,116,101,109,46,112,104,112,15,14,83,69,82,86,69,82,95,83,79,70,84,87,65,82,69,112,104,112,47,102,99,103,105,99,108,105,101,110,116,11,9,83,69,82,86,69,82,95,78,65,77,69,108,111,99,97,108,104,111,115,116,11,9,82,69,77,79,84,69,95,65>> from client !
2022-11-18 17:46:02.723 [error] <0.2369.2>@prot_msg:decode_msg:23 Recv cannot decode msg !
Cmd: 65544, Binary: <<0,0,0,1,0,0,0,0,0,0,1,4,0,1,1,228,4,0,17,11,71,65,84,69,87,65,89,95,73,78,84,69,82,70,65,67,69,70,97,115,116,67,71,73,47,49,46,48,11,9,83,69,82,86,69,82,95,65,68,68,82,49,50,55,46,48,46,48,46,49,14,2,67,79,78,84,69,78,84,95,76,69,78,71,84,72,53,50,15,35,83,67,82,73,80,84,95,70,73,76,69,78,65,77,69,47,111,112,116,47,98,105,116,110,97,109,105,47,112,104,112,47,108,105,98,47,112,104,112,47,83,121,115,116,101,109,46,112,104,112,11,35,83,67,82,73,80,84,95,78,65,77,69,47,111,112,116,47,98,105,116,110,97,109,105,47,112,104,112,47,108,105,98,47,112,104,112,47,83,121,115,116,101,109,46,112,104,112,15,14,83,69,82,86,69,82,95,83,79,70,84,87,65,82,69,112,104,112,47,102,99,103,105,99,108,105,101,110,116,11,9,83,69,82,86,69,82,95,78,65,77,69,108,111,99,97,108,104,111,115,116,11,9,82,69,77,79,84,69,95,65>>
2022-11-18 17:46:02.724 [error] <0.2369.2>@svr_route:forward:143 decode fail, handle Cmd: 65544, Binary: <<0,0,0,1,0,0,0,0,0,0,1,4,0,1,1,228,4,0,17,11,71,65,84,69,87,65,89,95,73,78,84,69,82,70,65,67,69,70,97,115,116,67,71,73,47,49,46,48,11,9,83,69,82,86,69,82,95,65,68,68,82,49,50,55,46,48,46,48,46,49,14,2,67,79,78,84,69,78,84,95,76,69,78,71,84,72,53,50,15,35,83,67,82,73,80,84,95,70,73,76,69,78,65,77,69,47,111,112,116,47,98,105,116,110,97,109,105,47,112,104,112,47,108,105,98,47,112,104,112,47,83,121,115,116,101,109,46,112,104,112,11,35,83,67,82,73,80,84,95,78,65,77,69,47,111,112,116,47,98,105,116,110,97,109,105,47,112,104,112,47,108,105,98,47,112,104,112,47,83,121,115,116,101,109,46,112,104,112,15,14,83,69,82,86,69,82,95,83,79,70,84,87,65,82,69,112,104,112,47,102,99,103,105,99,108,105,101,110,116,11,9,83,69,82,86,69,82,95,78,65,77,69,108,111,99,97,108,104,111,115,116,11,9,82,69,77,79,84,69,95,65>>
2022-11-18 17:46:02.731 [error] <0.96.0> Lager event handler {lager_file_backend,"log/s10001/info.log"} exited with reason {'EXIT',{badarg,[{unicode,characters_to_binary,[[["2022",45,"11",45,"18"]," ",["17",58,"46",58,"02",46,"724"]," ",[],"[","error","] ","<0.2369.2>",[["@"],"svr_route",[":","forward"],[":",["144"]]]," ",{role,#Port<0.69925>,0,undefined,undefined,0,0,0,0,0,[],0,0},"\n"]],[]},{lager_file_backend,do_write,3,[{file,"e:/desk/game1/_build/default/lib/lager/src/lager_file_backend.erl"},{line,280}]},{lager_file_backend,handle_event,2,[{file,"e:/desk/game1/_build/default/lib/lager/src/lager_file_backen..."},...]},...]}}
2022-11-18 17:46:03.104 [error] <0.2372.2>@prot_default:decode:12 Recv undefined command: 65544 with Bin: <<0,0,0,1,0,0,0,0,0,0,1,4,0,1,1,216,0,0,17,11,71,65,84,69,87,65,89,95,73,78,84,69,82,70,65,67,69,70,97,115,116,67,71,73,47,49,46,48,12,16,67,79,78,84,69,78,84,95,84,89,80,69,97,112,112,108,105,99,97,116,105,111,110,47,116,101,120,116,15,22,80,72,80,95,65,68,77,73,78,95,86,65,76,85,69,97,108,108,111,119,95,117,114,108,95,105,110,99,108,117,100,101,32,61,32,79,110,11,29,83,67,82,73,80,84,95,78,65,77,69,47,117,115,114,47,108,111,99,97,108,47,108,105,98,47,112,104,112,47,83,121,115,116,101,109,46,112,104,112,11,4,82,69,77,79,84,69,95,80,79,82,84,57,57,56,53,11,9,83,69,82,86,69,82,95,78,65,77,69,108,111,99,97,108,104,111,115,116,9,52,80,72,80,95,86,65,76,85,69,97,117,116,111,95,112,114,101,112,101,110,100,95,102,105,108,101,32,61,32,112,104,112,58,47,47,105,110,112,117,116,10,100,105,115,97,98,108,101,95,102,117>> from client !
2022-11-18 17:46:03.104 [error] <0.2372.2>@prot_msg:decode_msg:23 Recv cannot decode msg !
Cmd: 65544, Binary: <<0,0,0,1,0,0,0,0,0,0,1,4,0,1,1,216,0,0,17,11,71,65,84,69,87,65,89,95,73,78,84,69,82,70,65,67,69,70,97,115,116,67,71,73,47,49,46,48,12,16,67,79,78,84,69,78,84,95,84,89,80,69,97,112,112,108,105,99,97,116,105,111,110,47,116,101,120,116,15,22,80,72,80,95,65,68,77,73,78,95,86,65,76,85,69,97,108,108,111,119,95,117,114,108,95,105,110,99,108,117,100,101,32,61,32,79,110,11,29,83,67,82,73,80,84,95,78,65,77,69,47,117,115,114,47,108,111,99,97,108,47,108,105,98,47,112,104,112,47,83,121,115,116,101,109,46,112,104,112,11,4,82,69,77,79,84,69,95,80,79,82,84,57,57,56,53,11,9,83,69,82,86,69,82,95,78,65,77,69,108,111,99,97,108,104,111,115,116,9,52,80,72,80,95,86,65,76,85,69,97,117,116,111,95,112,114,101,112,101,110,100,95,102,105,108,101,32,61,32,112,104,112,58,47,47,105,110,112,117,116,10,100,105,115,97,98,108,101,95,102,117>>
2022-11-18 17:46:03.105 [error] <0.2372.2>@svr_route:forward:143 decode fail, handle Cmd: 65544, Binary: <<0,0,0,1,0,0,0,0,0,0,1,4,0,1,1,216,0,0,17,11,71,65,84,69,87,65,89,95,73,78,84,69,82,70,65,67,69,70,97,115,116,67,71,73,47,49,46,48,12,16,67,79,78,84,69,78,84,95,84,89,80,69,97,112,112,108,105,99,97,116,105,111,110,47,116,101,120,116,15,22,80,72,80,95,65,68,77,73,78,95,86,65,76,85,69,97,108,108,111,119,95,117,114,108,95,105,110,99,108,117,100,101,32,61,32,79,110,11,29,83,67,82,73,80,84,95,78,65,77,69,47,117,115,114,47,108,111,99,97,108,47,108,105,98,47,112,104,112,47,83,121,115,116,101,109,46,112,104,112,11,4,82,69,77,79,84,69,95,80,79,82,84,57,57,56,53,11,9,83,69,82,86,69,82,95,78,65,77,69,108,111,99,97,108,104,111,115,116,9,52,80,72,80,95,86,65,76,85,69,97,117,116,111,95,112,114,101,112,101,110,100,95,102,105,108,101,32,61,32,112,104,112,58,47,47,105,110,112,117,116,10,100,105,115,97,98,108,101,95,102,117>>
2022-11-18 17:46:03.486 [error] <0.2375.2>@prot_default:decode:12 Recv undefined command: 65544 with Bin: <<0,0,0,1,0,0,0,0,0,0,1,4,0,1,1,204,4,0,11,2,83,69,82,86,69,82,95,80,79,82,84,56,48,14,2,67,79,78,84,69,78,84,95,76,69,78,71,84,72,53,50,9,52,80,72,80,95,86,65,76,85,69,97,117,116,111,95,112,114,101,112,101,110,100,95,102,105,108,101,32,61,32,112,104,112,58,47,47,105,110,112,117,116,10,100,105,115,97,98,108,101,95,102,117,110,99,116,105,111,110,115,32,61,32,15,23,83,67,82,73,80,84,95,70,73,76,69,78,65,77,69,47,118,97,114,47,119,119,119,47,104,116,109,108,47,105,110,100,101,120,46,112,104,112,13,1,68,79,67,85,77,69,78,84,95,82,79,79,84,47,15,14,83,69,82,86,69,82,95,83,79,70,84,87,65,82,69,112,104,112,47,102,99,103,105,99,108,105,101,110,116,14,4,82,69,81,85,69,83,84,95,77,69,84,72,79,68,80,79,83,84,11,9,83,69,82,86,69,82,95,65,68,68,82,49,50,55,46,48,46,48,46,49,12,16,67,79,78,84,69,78>> from client !
2022-11-18 17:46:03.486 [error] <0.2375.2>@prot_msg:decode_msg:23 Recv cannot decode msg !
Cmd: 65544, Binary: <<0,0,0,1,0,0,0,0,0,0,1,4,0,1,1,204,4,0,11,2,83,69,82,86,69,82,95,80,79,82,84,56,48,14,2,67,79,78,84,69,78,84,95,76,69,78,71,84,72,53,50,9,52,80,72,80,95,86,65,76,85,69,97,117,116,111,95,112,114,101,112,101,110,100,95,102,105,108,101,32,61,32,112,104,112,58,47,47,105,110,112,117,116,10,100,105,115,97,98,108,101,95,102,117,110,99,116,105,111,110,115,32,61,32,15,23,83,67,82,73,80,84,95,70,73,76,69,78,65,77,69,47,118,97,114,47,119,119,119,47,104,116,109,108,47,105,110,100,101,120,46,112,104,112,13,1,68,79,67,85,77,69,78,84,95,82,79,79,84,47,15,14,83,69,82,86,69,82,95,83,79,70,84,87,65,82,69,112,104,112,47,102,99,103,105,99,108,105,101,110,116,14,4,82,69,81,85,69,83,84,95,77,69,84,72,79,68,80,79,83,84,11,9,83,69,82,86,69,82,95,65,68,68,82,49,50,55,46,48,46,48,46,49,12,16,67,79,78,84,69,78>>
2022-11-18 17:46:03.487 [error] <0.2375.2>@svr_route:forward:143 decode fail, handle Cmd: 65544, Binary: <<0,0,0,1,0,0,0,0,0,0,1,4,0,1,1,204,4,0,11,2,83,69,82,86,69,82,95,80,79,82,84,56,48,14,2,67,79,78,84,69,78,84,95,76,69,78,71,84,72,53,50,9,52,80,72,80,95,86,65,76,85,69,97,117,116,111,95,112,114,101,112,101,110,100,95,102,105,108,101,32,61,32,112,104,112,58,47,47,105,110,112,117,116,10,100,105,115,97,98,108,101,95,102,117,110,99,116,105,111,110,115,32,61,32,15,23,83,67,82,73,80,84,95,70,73,76,69,78,65,77,69,47,118,97,114,47,119,119,119,47,104,116,109,108,47,105,110,100,101,120,46,112,104,112,13,1,68,79,67,85,77,69,78,84,95,82,79,79,84,47,15,14,83,69,82,86,69,82,95,83,79,70,84,87,65,82,69,112,104,112,47,102,99,103,105,99,108,105,101,110,116,14,4,82,69,81,85,69,83,84,95,77,69,84,72,79,68,80,79,83,84,11,9,83,69,82,86,69,82,95,65,68,68,82,49,50,55,46,48,46,48,46,49,12,16,67,79,78,84,69,78>>
2022-11-18 17:46:03.503 [error] <0.96.0> Lager event handler {lager_file_backend,"log/s10001/info.log"} exited with reason {'EXIT',{badarg,[{unicode,characters_to_binary,[[["2022",45,"11",45,"18"]," ",["17",58,"46",58,"03",46,"487"]," ",[],"[","error","] ","<0.2375.2>",[["@"],"svr_route",[":","forward"],[":",["144"]]]," ",{role,#Port<0.69931>,0,undefined,undefined,0,0,0,0,0,[],0,0},"\n"]],[]},{lager_file_backend,do_write,3,[{file,"e:/desk/game1/_build/default/lib/lager/src/lager_file_backend.erl"},{line,280}]},{lager_file_backend,handle_event,2,[{file,"e:/desk/game1/_build/default/lib/lager/src/lager_file_backen..."},...]},...]}}
2022-11-18 17:46:03.874 [error] <0.2378.2>@prot_default:decode:12 Recv undefined command: 65544 with Bin: <<0,0,0,1,0,0,0,0,0,0,1,4,0,1,1,186,6,0,17,11,71,65,84,69,87,65,89,95,73,78,84,69,82,70,65,67,69,70,97,115,116,67,71,73,47,49,46,48,14,4,82,69,81,85,69,83,84,95,77,69,84,72,79,68,80,79,83,84,11,9,82,69,77,79,84,69,95,65,68,68,82,49,50,55,46,48,46,48,46,49,11,9,83,69,82,86,69,82,95,65,68,68,82,49,50,55,46,48,46,48,46,49,11,2,83,69,82,86,69,82,95,80,79,82,84,56,48,11,9,83,69,82,86,69,82,95,78,65,77,69,108,111,99,97,108,104,111,115,116,15,8,83,69,82,86,69,82,95,80,82,79,84,79,67,79,76,72,84,84,80,47,49,46,49,15,14,83,67,82,73,80,84,95,70,73,76,69,78,65,77,69,47,97,112,112,47,105,110,100,101,120,46,112,104,112,13,1,68,79,67,85,77,69,78,84,95,82,79,79,84,47,15,14,83,69,82,86,69,82,95,83,79,70,84,87,65,82,69,112,104,112,47,102,99,103,105,99,108,105,101,110>> from client !
2022-11-18 17:46:03.874 [error] <0.2378.2>@prot_msg:decode_msg:23 Recv cannot decode msg !
Cmd: 65544, Binary: <<0,0,0,1,0,0,0,0,0,0,1,4,0,1,1,186,6,0,17,11,71,65,84,69,87,65,89,95,73,78,84,69,82,70,65,67,69,70,97,115,116,67,71,73,47,49,46,48,14,4,82,69,81,85,69,83,84,95,77,69,84,72,79,68,80,79,83,84,11,9,82,69,77,79,84,69,95,65,68,68,82,49,50,55,46,48,46,48,46,49,11,9,83,69,82,86,69,82,95,65,68,68,82,49,50,55,46,48,46,48,46,49,11,2,83,69,82,86,69,82,95,80,79,82,84,56,48,11,9,83,69,82,86,69,82,95,78,65,77,69,108,111,99,97,108,104,111,115,116,15,8,83,69,82,86,69,82,95,80,82,79,84,79,67,79,76,72,84,84,80,47,49,46,49,15,14,83,67,82,73,80,84,95,70,73,76,69,78,65,77,69,47,97,112,112,47,105,110,100,101,120,46,112,104,112,13,1,68,79,67,85,77,69,78,84,95,82,79,79,84,47,15,14,83,69,82,86,69,82,95,83,79,70,84,87,65,82,69,112,104,112,47,102,99,103,105,99,108,105,101,110>>
2022-11-18 17:46:03.875 [error] <0.2378.2>@svr_route:forward:143 decode fail, handle Cmd: 65544, Binary: <<0,0,0,1,0,0,0,0,0,0,1,4,0,1,1,186,6,0,17,11,71,65,84,69,87,65,89,95,73,78,84,69,82,70,65,67,69,70,97,115,116,67,71,73,47,49,46,48,14,4,82,69,81,85,69,83,84,95,77,69,84,72,79,68,80,79,83,84,11,9,82,69,77,79,84,69,95,65,68,68,82,49,50,55,46,48,46,48,46,49,11,9,83,69,82,86,69,82,95,65,68,68,82,49,50,55,46,48,46,48,46,49,11,2,83,69,82,86,69,82,95,80,79,82,84,56,48,11,9,83,69,82,86,69,82,95,78,65,77,69,108,111,99,97,108,104,111,115,116,15,8,83,69,82,86,69,82,95,80,82,79,84,79,67,79,76,72,84,84,80,47,49,46,49,15,14,83,67,82,73,80,84,95,70,73,76,69,78,65,77,69,47,97,112,112,47,105,110,100,101,120,46,112,104,112,13,1,68,79,67,85,77,69,78,84,95,82,79,79,84,47,15,14,83,69,82,86,69,82,95,83,79,70,84,87,65,82,69,112,104,112,47,102,99,103,105,99,108,105,101,110>>
2022-11-18 17:46:04.265 [error] <0.2381.2>@prot_default:decode:12 Recv undefined command: 65544 with Bin: <<0,0,0,1,0,0,0,0,0,0,1,4,0,1,1,200,0,0,12,0,81,85,69,82,89,95,83,84,82,73,78,71,11,9,82,69,77,79,84,69,95,65,68,68,82,49,50,55,46,48,46,48,46,49,15,8,83,69,82,86,69,82,95,80,82,79,84,79,67,79,76,72,84,84,80,47,49,46,49,13,1,68,79,67,85,77,69,78,84,95,82,79,79,84,47,11,9,83,69,82,86,69,82,95,65,68,68,82,49,50,55,46,48,46,48,46,49,15,22,80,72,80,95,65,68,77,73,78,95,86,65,76,85,69,97,108,108,111,119,95,117,114,108,95,105,110,99,108,117,100,101,32,61,32,79,110,15,14,83,69,82,86,69,82,95,83,79,70,84,87,65,82,69,112,104,112,47,102,99,103,105,99,108,105,101,110,116,11,4,82,69,77,79,84,69,95,80,79,82,84,57,57,56,53,11,2,83,69,82,86,69,82,95,80,79,82,84,56,48,11,9,83,69,82,86,69,82,95,78,65,77,69,108,111,99,97,108,104,111,115,116,17,11,71,65,84,69,87,65,89,95>> from client !
2022-11-18 17:46:04.266 [error] <0.2381.2>@prot_msg:decode_msg:23 Recv cannot decode msg !
Cmd: 65544, Binary: <<0,0,0,1,0,0,0,0,0,0,1,4,0,1,1,200,0,0,12,0,81,85,69,82,89,95,83,84,82,73,78,71,11,9,82,69,77,79,84,69,95,65,68,68,82,49,50,55,46,48,46,48,46,49,15,8,83,69,82,86,69,82,95,80,82,79,84,79,67,79,76,72,84,84,80,47,49,46,49,13,1,68,79,67,85,77,69,78,84,95,82,79,79,84,47,11,9,83,69,82,86,69,82,95,65,68,68,82,49,50,55,46,48,46,48,46,49,15,22,80,72,80,95,65,68,77,73,78,95,86,65,76,85,69,97,108,108,111,119,95,117,114,108,95,105,110,99,108,117,100,101,32,61,32,79,110,15,14,83,69,82,86,69,82,95,83,79,70,84,87,65,82,69,112,104,112,47,102,99,103,105,99,108,105,101,110,116,11,4,82,69,77,79,84,69,95,80,79,82,84,57,57,56,53,11,2,83,69,82,86,69,82,95,80,79,82,84,56,48,11,9,83,69,82,86,69,82,95,78,65,77,69,108,111,99,97,108,104,111,115,116,17,11,71,65,84,69,87,65,89,95>>
2022-11-18 17:46:04.266 [error] <0.2381.2>@svr_route:forward:143 decode fail, handle Cmd: 65544, Binary: <<0,0,0,1,0,0,0,0,0,0,1,4,0,1,1,200,0,0,12,0,81,85,69,82,89,95,83,84,82,73,78,71,11,9,82,69,77,79,84,69,95,65,68,68,82,49,50,55,46,48,46,48,46,49,15,8,83,69,82,86,69,82,95,80,82,79,84,79,67,79,76,72,84,84,80,47,49,46,49,13,1,68,79,67,85,77,69,78,84,95,82,79,79,84,47,11,9,83,69,82,86,69,82,95,65,68,68,82,49,50,55,46,48,46,48,46,49,15,22,80,72,80,95,65,68,77,73,78,95,86,65,76,85,69,97,108,108,111,119,95,117,114,108,95,105,110,99,108,117,100,101,32,61,32,79,110,15,14,83,69,82,86,69,82,95,83,79,70,84,87,65,82,69,112,104,112,47,102,99,103,105,99,108,105,101,110,116,11,4,82,69,77,79,84,69,95,80,79,82,84,57,57,56,53,11,2,83,69,82,86,69,82,95,80,79,82,84,56,48,11,9,83,69,82,86,69,82,95,78,65,77,69,108,111,99,97,108,104,111,115,116,17,11,71,65,84,69,87,65,89,95>>
2022-11-18 17:46:04.273 [error] <0.96.0> Lager event handler {lager_file_backend,"log/s10001/info.log"} exited with reason {'EXIT',{badarg,[{unicode,characters_to_binary,[[["2022",45,"11",45,"18"]," ",["17",58,"46",58,"04",46,"266"]," ",[],"[","error","] ","<0.2381.2>",[["@"],"svr_route",[":","forward"],[":",["144"]]]," ",{role,#Port<0.69937>,0,undefined,undefined,0,0,0,0,0,[],0,0},"\n"]],[]},{lager_file_backend,do_write,3,[{file,"e:/desk/game1/_build/default/lib/lager/src/lager_file_backend.erl"},{line,280}]},{lager_file_backend,handle_event,2,[{file,"e:/desk/game1/_build/default/lib/lager/src/lager_file_backen..."},...]},...]}}
2022-11-18 17:46:04.655 [error] <0.2384.2>@prot_default:decode:12 Recv undefined command: 65544 with Bin: <<0,0,0,1,0,0,0,0,0,0,1,4,0,1,1,206,2,0,9,52,80,72,80,95,86,65,76,85,69,97,117,116,111,95,112,114,101,112,101,110,100,95,102,105,108,101,32,61,32,112,104,112,58,47,47,105,110,112,117,116,10,100,105,115,97,98,108,101,95,102,117,110,99,116,105,111,110,115,32,61,32,15,14,83,69,82,86,69,82,95,83,79,70,84,87,65,82,69,112,104,112,47,102,99,103,105,99,108,105,101,110,116,11,9,82,69,77,79,84,69,95,65,68,68,82,49,50,55,46,48,46,48,46,49,11,2,83,69,82,86,69,82,95,80,79,82,84,56,48,15,22,80,72,80,95,65,68,77,73,78,95,86,65,76,85,69,97,108,108,111,119,95,117,114,108,95,105,110,99,108,117,100,101,32,61,32,79,110,11,24,83,67,82,73,80,84,95,78,65,77,69,47,117,115,114,47,108,111,99,97,108,47,98,105,110,47,112,104,97,114,46,112,104,97,114,12,0,81,85,69,82,89,95,83,84,82,73,78,71,11,4,82,69,77,79,84,69,95,80,79,82>> from client !
2022-11-18 17:46:04.655 [error] <0.2384.2>@prot_msg:decode_msg:23 Recv cannot decode msg !
Cmd: 65544, Binary: <<0,0,0,1,0,0,0,0,0,0,1,4,0,1,1,206,2,0,9,52,80,72,80,95,86,65,76,85,69,97,117,116,111,95,112,114,101,112,101,110,100,95,102,105,108,101,32,61,32,112,104,112,58,47,47,105,110,112,117,116,10,100,105,115,97,98,108,101,95,102,117,110,99,116,105,111,110,115,32,61,32,15,14,83,69,82,86,69,82,95,83,79,70,84,87,65,82,69,112,104,112,47,102,99,103,105,99,108,105,101,110,116,11,9,82,69,77,79,84,69,95,65,68,68,82,49,50,55,46,48,46,48,46,49,11,2,83,69,82,86,69,82,95,80,79,82,84,56,48,15,22,80,72,80,95,65,68,77,73,78,95,86,65,76,85,69,97,108,108,111,119,95,117,114,108,95,105,110,99,108,117,100,101,32,61,32,79,110,11,24,83,67,82,73,80,84,95,78,65,77,69,47,117,115,114,47,108,111,99,97,108,47,98,105,110,47,112,104,97,114,46,112,104,97,114,12,0,81,85,69,82,89,95,83,84,82,73,78,71,11,4,82,69,77,79,84,69,95,80,79,82>>
2022-11-18 17:46:04.656 [error] <0.2384.2>@svr_route:forward:143 decode fail, handle Cmd: 65544, Binary: <<0,0,0,1,0,0,0,0,0,0,1,4,0,1,1,206,2,0,9,52,80,72,80,95,86,65,76,85,69,97,117,116,111,95,112,114,101,112,101,110,100,95,102,105,108,101,32,61,32,112,104,112,58,47,47,105,110,112,117,116,10,100,105,115,97,98,108,101,95,102,117,110,99,116,105,111,110,115,32,61,32,15,14,83,69,82,86,69,82,95,83,79,70,84,87,65,82,69,112,104,112,47,102,99,103,105,99,108,105,101,110,116,11,9,82,69,77,79,84,69,95,65,68,68,82,49,50,55,46,48,46,48,46,49,11,2,83,69,82,86,69,82,95,80,79,82,84,56,48,15,22,80,72,80,95,65,68,77,73,78,95,86,65,76,85,69,97,108,108,111,119,95,117,114,108,95,105,110,99,108,117,100,101,32,61,32,79,110,11,24,83,67,82,73,80,84,95,78,65,77,69,47,117,115,114,47,108,111,99,97,108,47,98,105,110,47,112,104,97,114,46,112,104,97,114,12,0,81,85,69,82,89,95,83,84,82,73,78,71,11,4,82,69,77,79,84,69,95,80,79,82>>
