
++++++++++++++++++++++++++++++++++++++++++
2022-07-17 04:05:50--117.1.222.3
url: 117.4.244.81:82/vt/api_update_info.php
?role_id=24382972407808&accname=deptrai&last_login_server=1&level=6&nickname=chimto&time=1658001951&ticket=b05f83b5a3cdd2b291ea79f51ac72383&channel=vtnemo&server_id=1

++++++++++++++++++++++++++++++++++++++++++
2022-07-17 12:06:26--117.1.222.3
url: 117.4.244.81:82/vt/api_update_info.php
?role_id=24383464448000&level=49&time=1658030789&server_id=1&channel=vtnemo&ticket=04d06e8d6066bb7a851796a4ffc090fb&nickname=KiemMa&accname=toanvv&last_login_server=1

++++++++++++++++++++++++++++++++++++++++++
2022-07-17 12:38:02--58.187.163.49
url: 117.4.244.81:82/vt/api_update_info.php
?ticket=3f461ebb20ef22e6969b0f710f9f7388&server_id=1&last_login_server=1&nickname=UyenThanh&level=49&accname=abc123&channel=vtnemo&time=1658032681&role_id=24383483707392

++++++++++++++++++++++++++++++++++++++++++
2022-07-17 12:39:19--14.243.145.206
url: 117.4.244.81:82/vt/api_update_info.php
?role_id=24383486324736&ticket=c7e20c085477b7f7188944c4d3e64d7d&server_id=1&last_login_server=1&time=1658032759&level=6&nickname=minhka&accname=270591&channel=vtnemo

++++++++++++++++++++++++++++++++++++++++++
2022-07-17 13:34:42--58.187.163.49
url: 117.4.244.81:82/vt/api_update_info.php
?role_id=24383483707392&channel=vtnemo&server_id=1&nickname=UyenThanh&accname=abc123&level=49&time=1658036080&ticket=4b1ddfff7ee93863cd86917ec9e3b52b&last_login_server=1

++++++++++++++++++++++++++++++++++++++++++
2022-07-17 13:39:54--58.187.163.49
url: 117.4.244.81:82/vt/api_update_info.php
?server_id=1&time=1658036393&level=49&last_login_server=1&ticket=a56af029d00c9bb64f2a5247742f5ea1&channel=vtnemo&accname=abc123&role_id=24383483707392&nickname=UyenThanh

++++++++++++++++++++++++++++++++++++++++++
2022-07-17 13:52:34--113.185.44.152
url: 117.4.244.81:82/vt/api_update_info.php
?server_id=1&last_login_server=1&time=1658037153&accname=aechoivui&nickname=hiha&role_id=24383485521920&level=49&channel=vtnemo&ticket=62c8e51458d727a708a38567ff99cb09

++++++++++++++++++++++++++++++++++++++++++
2022-07-17 14:26:38--42.1.90.9
url: 117.4.244.81:82/vt/api_update_info.php
?time=1658039198&ticket=7ae14f27467ae176fc9f1968d8f52a10&accname=270591&nickname=minhka&level=49&channel=vtnemo&role_id=24383486324736&server_id=1&last_login_server=1

++++++++++++++++++++++++++++++++++++++++++
2022-07-17 14:27:54--58.187.163.49
url: 117.4.244.81:82/vt/api_update_info.php
?nickname=UyenThanh&time=1658039274&last_login_server=1&server_id=1&channel=vtnemo&role_id=24383483707392&ticket=26d406abcf252a8f5f25b694fb7ae4cf&level=49&accname=abc123

++++++++++++++++++++++++++++++++++++++++++
2022-07-17 14:34:54--58.187.163.49
url: 117.4.244.81:82/vt/api_update_info.php
?nickname=UyenThanh&time=1658039693&last_login_server=1&server_id=1&channel=vtnemo&role_id=24383483707392&ticket=59102a6d189efbb0edb61f2dfd0cedf4&level=49&accname=abc123

++++++++++++++++++++++++++++++++++++++++++
2022-07-17 14:38:43--58.187.163.49
url: 117.4.244.81:82/vt/api_update_info.php
?channel=vtnemo&last_login_server=1&accname=abc123&nickname=UyenThanh&level=49&ticket=0b217e228a0ccc4c087df2bea91dd269&time=1658039922&server_id=1&role_id=24383483707392

++++++++++++++++++++++++++++++++++++++++++
2022-07-17 14:45:18--58.187.163.49
url: 117.4.244.81:82/vt/api_update_info.php
?nickname=UyenThanh&time=1658040317&ticket=4d8fe2048fc031c12739f20841a7c359&accname=abc123&role_id=24383483707392&channel=vtnemo&last_login_server=1&server_id=1&level=49

++++++++++++++++++++++++++++++++++++++++++
2022-07-17 14:58:49--58.187.163.49
url: 117.4.244.81:82/vt/api_update_info.php
?last_login_server=1&role_id=24383483707392&level=49&nickname=UyenThanh&time=1658041128&channel=vtnemo&server_id=1&ticket=f3acf1e944b0db43749ac8ece28af459&accname=abc123

++++++++++++++++++++++++++++++++++++++++++
2022-07-17 15:29:01--42.1.90.9
url: 117.4.244.81:82/vt/api_update_info.php
?channel=vtnemo&level=49&ticket=3a52546c9cc8ae418cb7ff46e347aa60&server_id=1&time=1658042941&role_id=24383486324736&accname=270591&last_login_server=1&nickname=minhka

++++++++++++++++++++++++++++++++++++++++++
2022-07-17 16:31:45--113.185.44.152
url: 117.4.244.81:82/vt/api_update_info.php
?ticket=f2565cd6bf8e5f28cf4602bf139e1e14&accname=aechoivui&nickname=hiha&channel=vtnemo&server_id=1&role_id=24383485521920&time=1658046704&level=49&last_login_server=1

++++++++++++++++++++++++++++++++++++++++++
2022-07-17 17:03:47--14.177.27.133
url: 117.4.244.81:82/vt/api_update_info.php
?level=59&server_id=1&ticket=12825b984ffceaf86c3f086e862a89e4&accname=kkkshfsd&nickname=DZ&role_id=24383521579008&time=1658048627&channel=vtnemo&last_login_server=1

++++++++++++++++++++++++++++++++++++++++++
2022-07-17 17:14:36--14.177.27.133
url: 117.4.244.81:82/vt/api_update_info.php
?role_id=24383521579008&time=1658049276&channel=vtnemo&nickname=DZ&level=59&ticket=66823df224846c40d7dcff3ce9807f34&accname=kkkshfsd&server_id=1&last_login_server=1

++++++++++++++++++++++++++++++++++++++++++
2022-07-17 17:56:14--117.0.152.188
url: 117.4.244.81:82/vt/api_update_info.php
?level=49&ticket=e9249d7154ab2605778e676618ad365a&role_id=24383464448000&channel=vtnemo&last_login_server=1&nickname=KiemMa&time=1658051778&server_id=1&accname=toanvv

++++++++++++++++++++++++++++++++++++++++++
2022-07-17 18:06:32--14.177.27.133
url: 117.4.244.81:82/vt/api_update_info.php
?server_id=1&last_login_server=1&level=59&role_id=24383521579008&accname=kkkshfsd&ticket=a44f7d411a6922d2d5e54f4163cb74f8&channel=vtnemo&time=1658052392&nickname=DZ

++++++++++++++++++++++++++++++++++++++++++
2022-07-17 18:14:14--59.153.233.177
url: 117.4.244.81:82/vt/api_update_info.php
?time=1658052853&server_id=1&accname=270591&channel=vtnemo&nickname=minhka&role_id=24383486324736&level=49&ticket=c6879bdd82df54a506e397abe74d16d8&last_login_server=1

++++++++++++++++++++++++++++++++++++++++++
2022-07-17 18:27:13--58.187.163.49
url: 117.4.244.81:82/vt/api_update_info.php
?accname=abc123&last_login_server=1&level=69&channel=vtnemo&ticket=f855263d7d60ae80070247dd54d31d5b&time=1658053631&server_id=1&nickname=UyenThanh&role_id=24383483707392

++++++++++++++++++++++++++++++++++++++++++
2022-07-17 18:50:41--117.0.152.188
url: 117.4.244.81:82/vt/api_update_info.php
?server_id=1&channel=vtnemo&accname=toanvv&ticket=ead96711c877da868f11fe3143c9b876&nickname=KiemMa&role_id=24383464448000&time=1658055044&last_login_server=1&level=53

++++++++++++++++++++++++++++++++++++++++++
2022-07-17 18:55:30--58.187.163.49
url: 117.4.244.81:82/vt/api_update_info.php
?accname=abc123&last_login_server=1&level=73&channel=vtnemo&ticket=7b966d096188d34f3ff975845c60d497&time=1658055329&server_id=1&nickname=UyenThanh&role_id=24383483707392

++++++++++++++++++++++++++++++++++++++++++
2022-07-17 19:48:58--14.177.27.133
url: 117.4.244.81:82/vt/api_update_info.php
?last_login_server=1&role_id=24383521579008&nickname=DZ&server_id=1&time=1658058538&channel=vtnemo&ticket=20339d8d4e69906f0e4935e34efb24e1&accname=kkkshfsd&level=59

++++++++++++++++++++++++++++++++++++++++++
2022-07-17 19:50:45--58.187.163.49
url: 117.4.244.81:82/vt/api_update_info.php
?nickname=UyenThanh&server_id=1&channel=vtnemo&ticket=6bdcae6574f74734c65e5ff7c6256d2f&role_id=24383483707392&level=76&last_login_server=1&time=1658058644&accname=abc123

++++++++++++++++++++++++++++++++++++++++++
2022-07-17 20:07:09--1.53.12.90
url: 117.4.244.81:82/vt/api_update_info.php
?time=1658059628&accname=nhutst123&nickname=boss&role_id=24383595425792&last_login_server=1&server_id=1&ticket=56cd88f509294411cf4c4ebcd8f5779c&channel=vtnemo&level=41

++++++++++++++++++++++++++++++++++++++++++
2022-07-17 20:08:28--58.187.163.49
url: 117.4.244.81:82/vt/api_update_info.php
?server_id=1&role_id=24383483707392&accname=abc123&level=79&last_login_server=1&time=1658059707&ticket=595b1c3537edd943a3f7f04210cda3b6&channel=vtnemo&nickname=UyenThanh

++++++++++++++++++++++++++++++++++++++++++
2022-07-17 20:17:43--118.68.247.240
url: 117.4.244.81:82/vt/api_update_info.php
?time=1658060262&last_login_server=1&server_id=1&channel=vtnemo&ticket=c7c7868ad016e563c4714fc65c995710&nickname=8UP&role_id=24383597158400&level=41&accname=123456

++++++++++++++++++++++++++++++++++++++++++
2022-07-17 20:22:53--113.183.156.218
url: 117.4.244.81:82/vt/api_update_info.php
?level=49&ticket=e4b343f850c936a717b877719e7e98b5&nickname=Ti%E1%BB%83u+Ph%C3%A0m&last_login_server=1&accname=ryn8100&time=1658060571&role_id=24383486451712&server_id=1&channel=vtnemo

++++++++++++++++++++++++++++++++++++++++++
2022-07-17 20:26:42--1.53.12.90
url: 117.4.244.81:82/vt/api_update_info.php
?nickname=boss&last_login_server=1&role_id=24383595425792&ticket=7b4af7332236304d68d18e7eb8792314&level=49&accname=nhutst123&time=1658060800&server_id=1&channel=vtnemo

++++++++++++++++++++++++++++++++++++++++++
2022-07-17 20:38:30--59.153.233.177
url: 117.4.244.81:82/vt/api_update_info.php
?nickname=minhka&time=1658061510&last_login_server=1&channel=vtnemo&ticket=6e133b4afbad7cc7d03c22d62942850a&server_id=1&role_id=24383486324736&level=54&accname=270591

++++++++++++++++++++++++++++++++++++++++++
2022-07-17 20:43:32--115.76.63.77
url: 117.4.244.81:82/vt/api_update_info.php
?last_login_server=1&level=59&nickname=KiemMa&server_id=1&time=1658061815&ticket=c1e7e0554d0b44d712fd8e1411ce749e&channel=vtnemo&role_id=24383464448000&accname=toanvv

++++++++++++++++++++++++++++++++++++++++++
2022-07-17 20:49:02--58.187.163.49
url: 117.4.244.81:82/vt/api_update_info.php
?role_id=24383483707392&ticket=89eff01677b378e36a94fe961c4f3d09&channel=vtnemo&level=84&nickname=UyenThanh&time=1658062142&last_login_server=1&accname=abc123&server_id=1

++++++++++++++++++++++++++++++++++++++++++
2022-07-17 21:13:16--58.187.163.49
url: 117.4.244.81:82/vt/api_update_info.php
?channel=vtnemo&ticket=d87dff81f044c30986953ad804e31a69&nickname=UyenThanh&time=1658063595&last_login_server=1&server_id=1&role_id=24383483707392&accname=abc123&level=84

++++++++++++++++++++++++++++++++++++++++++
2022-07-17 21:24:45--14.177.27.133
url: 117.4.244.81:82/vt/api_update_info.php
?channel=vtnemo&accname=kkkshfsd&ticket=a0dd670256f7ecc7cd18a8bc80fa037e&last_login_server=1&level=74&server_id=1&nickname=DZ&time=1658064285&role_id=24383521579008

++++++++++++++++++++++++++++++++++++++++++
2022-07-17 21:26:24--1.53.12.90
url: 117.4.244.81:82/vt/api_update_info.php
?channel=vtnemo&accname=nhutst123&level=49&server_id=1&time=1658064382&ticket=39ed3535d5e1076d5f1c95c6852ec881&role_id=24383595425792&last_login_server=1&nickname=boss

++++++++++++++++++++++++++++++++++++++++++
2022-07-17 21:39:12--58.187.163.49
url: 117.4.244.81:82/vt/api_update_info.php
?server_id=1&time=1658065151&ticket=4100470a6b052dda4a1b70a2998a3662&accname=abc123&role_id=24383483707392&level=86&nickname=UyenThanh&channel=vtnemo&last_login_server=1

++++++++++++++++++++++++++++++++++++++++++
2022-07-17 21:43:52--14.177.27.133
url: 117.4.244.81:82/vt/api_update_info.php
?nickname=DZ&channel=vtnemo&level=75&ticket=581052bfe8628901acc62ed1df8f191b&server_id=1&last_login_server=1&accname=kkkshfsd&role_id=24383521579008&time=1658065432

++++++++++++++++++++++++++++++++++++++++++
2022-07-17 22:05:11--59.153.233.177
url: 117.4.244.81:82/vt/api_update_info.php
?role_id=24383486324736&nickname=minhka&ticket=3e0bb71f85e8854e60bf2cf8a4e39955&channel=vtnemo&time=1658066711&last_login_server=1&level=54&server_id=1&accname=270591

++++++++++++++++++++++++++++++++++++++++++
2022-07-17 22:15:42--113.22.11.8
url: 117.4.244.81:82/vt/api_update_info.php
?accname=crislove&server_id=1&nickname=crislove&level=49&role_id=24383624998912&time=1658067341&ticket=35ca140e72f58929024e75066a6c1355&last_login_server=1&channel=vtnemo

++++++++++++++++++++++++++++++++++++++++++
2022-07-17 22:18:07--113.22.11.8
url: 117.4.244.81:82/vt/api_update_info.php
?ticket=dfa292f5ead38e429401c0cd8dbb29e6&server_id=1&nickname=crislove&last_login_server=1&role_id=24383624998912&level=49&accname=crislove&channel=vtnemo&time=1658067486

++++++++++++++++++++++++++++++++++++++++++
2022-07-17 22:25:06--59.153.233.177
url: 117.4.244.81:82/vt/api_update_info.php
?level=54&nickname=minhka&time=1658067906&accname=270591&server_id=1&channel=vtnemo&ticket=fba5d04aae05ac4ee6fe8b57e463470d&role_id=24383486324736&last_login_server=1

++++++++++++++++++++++++++++++++++++++++++
2022-07-17 22:25:36--115.76.63.77
url: 117.4.244.81:82/vt/api_update_info.php
?nickname=KiemMa&channel=vtnemo&last_login_server=1&server_id=1&role_id=24383464448000&time=1658067939&ticket=ad1580f0d6c7b728e51e1f5c37423c20&accname=toanvv&level=64

++++++++++++++++++++++++++++++++++++++++++
2022-07-17 22:29:42--115.76.63.77
url: 117.4.244.81:82/vt/api_update_info.php
?channel=vtnemo&accname=toanvv&role_id=24383464448000&server_id=1&nickname=KiemMa&last_login_server=1&time=1658068186&level=66&ticket=9783e51fea0c60904a96505fe0f661e3

++++++++++++++++++++++++++++++++++++++++++
2022-07-17 22:38:50--113.22.11.8
url: 117.4.244.81:82/vt/api_update_info.php
?ticket=1f9dbb50c5dcaad76e3d507845a903ed&server_id=1&nickname=crislove&last_login_server=1&role_id=24383624998912&level=49&accname=crislove&channel=vtnemo&time=1658068729

++++++++++++++++++++++++++++++++++++++++++
2022-07-17 22:44:51--113.185.47.196
url: 117.4.244.81:82/vt/api_update_info.php
?nickname=hiha&server_id=1&time=1658069089&accname=aechoivui&level=49&channel=vtnemo&last_login_server=1&ticket=ab3cd22e251b621a2e6636c78222b364&role_id=24383485521920

++++++++++++++++++++++++++++++++++++++++++
2022-07-17 22:49:35--118.68.247.240
url: 117.4.244.81:82/vt/api_update_info.php
?ticket=e311d4c0e6feca6f409ea99f4c698fef&server_id=1&time=1658069374&last_login_server=1&nickname=8UP&role_id=24383597158400&channel=vtnemo&accname=123456&level=49

++++++++++++++++++++++++++++++++++++++++++
2022-07-17 22:57:22--58.187.163.49
url: 117.4.244.81:82/vt/api_update_info.php
?channel=vtnemo&nickname=UyenThanh&last_login_server=1&server_id=1&accname=abc123&role_id=24383483707392&time=1658069841&level=87&ticket=24b39dd35bdb45375677a782f5d6c4f5

++++++++++++++++++++++++++++++++++++++++++
2022-07-17 23:21:40--113.22.11.8
url: 117.4.244.81:82/vt/api_update_info.php
?channel=vtnemo&level=49&ticket=e816b7d7afc8a69f80a1ac02669b379c&accname=crislove&time=1658071300&last_login_server=1&server_id=1&nickname=crislove&role_id=24383624998912

++++++++++++++++++++++++++++++++++++++++++
2022-07-17 23:32:16--58.187.163.49
url: 117.4.244.81:82/vt/api_update_info.php
?channel=vtnemo&nickname=UyenThanh&last_login_server=1&role_id=24383483707392&ticket=9d23f131f80b198d68f3de8955e091cc&time=1658071936&level=89&server_id=1&accname=abc123

++++++++++++++++++++++++++++++++++++++++++
2022-07-17 23:40:48--14.243.145.206
url: 117.4.244.81:82/vt/api_update_info.php
?last_login_server=1&ticket=e7edad9018e7d4583f5339dfb34145dc&nickname=minhka&accname=270591&role_id=24383486324736&time=1658072448&channel=vtnemo&server_id=1&level=54

++++++++++++++++++++++++++++++++++++++++++
2022-07-17 23:53:48--113.22.11.8
url: 117.4.244.81:82/vt/api_update_info.php
?level=49&time=1658073227&last_login_server=1&accname=crislove&role_id=24383624998912&ticket=851f13a204f5deed13de5b51a1e37293&nickname=crislove&channel=vtnemo&server_id=1

++++++++++++++++++++++++++++++++++++++++++
2022-07-17 23:59:39--27.3.149.67
url: 117.4.244.81:82/vt/api_update_info.php
?level=49&nickname=voi&time=1658073578&ticket=af3df918ae600df1427a2999eb6fd206&server_id=1&last_login_server=1&role_id=24383653474304&channel=vtnemo&accname=voi123
