
++++++++++++++++++++++++++++++++++++++++++
2022-10-31 13:59:01--113.185.40.33
url: 117.4.244.81:82/vt/api_update_info.php
?channel=vtnemo&ticket=79605f59497552df8c4e1ba10fe3f778&accname=aechoivui&nickname=hiha&time=1667195940&last_login_server=1&level=64&server_id=1&role_id=24383485521920

++++++++++++++++++++++++++++++++++++++++++
2022-10-31 16:00:17--136.158.25.154
url: 117.4.244.81:82/vt/api_update_info.php
?ticket=281c00e8c3dc479e5f9ff3282eebbd82&server_id=1&channel=vtnemo&accname=shacojx&level=54&nickname=V%C3%B4Ng%C3%A3&time=1667203219&last_login_server=1&role_id=24420370886656
