
++++++++++++++++++++++++++++++++++++++++++
2022-07-27 09:19:37--27.3.149.67
url: 117.4.244.81:82/vt/api_server.php
?device_id=5556655c70cb158f8797b8a454c97461&ticket=d73ae1bed6805af823d53365ea351f07&ios_version=18379&channel=vtnemo&time=1658884777&accname=voi123

++++++++++++++++++++++++++++++++++++++++++
2022-07-27 12:58:27--67.188.29.138
url: 117.4.244.81:82/vt/api_server.php
?channel=vtnemo&ios_version=18379&ticket=3472c7cc037d335c382b405f044a0b25&time=1658898002&device_id=b83c8b6d512585c48b01ea4ac3302d53&accname=Vicky987
