
++++++++++++++++++++++++++++++++++++++++++
2022-11-03 22:43:41 -- 113.188.187.164
code:1 -- msg:success
data:[]
url: 117.4.244.81:82/vt/api_insert_reg.php
?time=1667486619&sid=1&os=11&nickname=S%C3%B3i&device_id=da2d8274fb994e7740a950b8f589c049&accname=tinogom102&role_id=24422211239936&ticket=9abe800ece04658f7edd7db861641f25&channel=vtnemo

++++++++++++++++++++++++++++++++++++++++++
2022-11-03 22:44:38 -- 153.242.91.10
code:1 -- msg:success
data:[]
url: 117.4.244.81:82/vt/api_insert_reg.php
?os=11&role_id=24422211473408&ticket=1c73f2ace0da7bf449c431aaa6fd8634&time=1667486678&sid=1&accname=quangsach&channel=vtnemo&nickname=%E3%83%A0%E3%83%B3%E3%81%A1%E3%82%83%E3%82%93&device_id=4a0dbbb773087a0bf85297101727a82f

++++++++++++++++++++++++++++++++++++++++++
2022-11-03 22:45:42 -- 113.188.187.164
code:1 -- msg:success
data:[]
url: 117.4.244.81:82/vt/api_insert_reg.php
?time=1667486740&sid=1&os=11&nickname=S%E1%BB%91ngC%C3%B2n&device_id=da2d8274fb994e7740a950b8f589c049&accname=tinogom&role_id=24422211739648&ticket=559d57ff9f37d9d5c1b9bdd35d61b476&channel=vtnemo
