
++++++++++++++++++++++++++++++++++++++++++
2022-07-16 01:38:47--117.4.244.81
url: 117.4.244.81:82/vt/api_notice.php
?channel=vtnemo&time=1657906727&ticket=b1c095577b6e7a6574d056fd88b36631

++++++++++++++++++++++++++++++++++++++++++
2022-07-16 01:40:02--117.4.244.81
url: 117.4.244.81:82/vt/api_notice.php
?ticket=6ddbca9ffafc9f81368267789c372f4c&time=1657906802&channel=vtnemo

++++++++++++++++++++++++++++++++++++++++++
2022-07-16 01:42:08--27.76.244.169
url: 117.4.244.81:82/vt/api_notice.php
?ticket=8bfd427a5121002e6e23e233819f71aa&time=1657906928&channel=vtnemo

++++++++++++++++++++++++++++++++++++++++++
2022-07-16 22:45:59--171.229.114.111
url: 117.4.244.81:82/vt/api_notice.php
?ticket=19e06c1e0be32bd5932dd5cfbd6dea69&channel=vtnemo&time=1657982759

++++++++++++++++++++++++++++++++++++++++++
2022-07-16 22:54:09--171.229.114.111
url: 117.4.244.81:82/vt/api_notice.php
?time=1657983249&ticket=9092fd21f2e46622ad410d68de27ba14&channel=vtnemo
