
++++++++++++++++++++++++++++++++++++++++++
2022-07-17 03:25:59--117.4.244.81
url: 117.4.244.81:82/vt/api_notice.php
?channel=vtnemo&ticket=9b627010205445ad3c06c740fe8848d0&time=1657999559

++++++++++++++++++++++++++++++++++++++++++
2022-07-17 03:27:04--171.229.114.111
url: 117.4.244.81:82/vt/api_notice.php
?ticket=6de66efa928c33b4148ea6276e00e7cc&time=1657999624&channel=vtnemo

++++++++++++++++++++++++++++++++++++++++++
2022-07-17 03:29:55--117.4.244.81
url: 117.4.244.81:82/vt/api_notice.php
?ticket=af05f64bf24ddb42ad22e9afbdba433c&channel=vtnemo&time=1657999795

++++++++++++++++++++++++++++++++++++++++++
2022-07-17 04:03:55--117.1.222.3
url: 117.4.244.81:82/vt/api_notice.php
?ticket=b935131f882aec8169832fe3ca523898&time=1658001836&channel=vtnemo

++++++++++++++++++++++++++++++++++++++++++
2022-07-17 10:46:57--171.229.114.111
url: 117.4.244.81:82/vt/api_notice.php
?ticket=96bb8f1d33529461e826cf693432d6cd&time=1658026017&channel=vtnemo

++++++++++++++++++++++++++++++++++++++++++
2022-07-17 11:00:32--117.1.222.3
url: 117.4.244.81:82/vt/api_notice.php
?time=1658026834&channel=vtnemo&ticket=0478c08bf7d139bb18981cd5746bf746

++++++++++++++++++++++++++++++++++++++++++
2022-07-17 11:20:28--117.1.222.3
url: 117.4.244.81:82/vt/api_notice.php
?time=1658028030&channel=vtnemo&ticket=7904a9301e1b92162b10fe15120bcfe7

++++++++++++++++++++++++++++++++++++++++++
2022-07-17 11:21:00--117.1.222.3
url: 117.4.244.81:82/vt/api_notice.php
?time=1658028062&channel=vtnemo&ticket=0e6d467cb901d4c415cb82fba85006e9

++++++++++++++++++++++++++++++++++++++++++
2022-07-17 11:26:17--171.229.114.111
url: 117.4.244.81:82/vt/api_notice.php
?ticket=e0507c55a772879108f0af0ca24c56cf&time=1658028377&channel=vtnemo

++++++++++++++++++++++++++++++++++++++++++
2022-07-17 11:28:04--171.229.114.111
url: 117.4.244.81:82/vt/api_notice.php
?ticket=20ced0f5f3021822ff8dd7fea5232feb&time=1658028484&channel=vtnemo

++++++++++++++++++++++++++++++++++++++++++
2022-07-17 11:43:14--171.229.114.111
url: 117.4.244.81:82/vt/api_notice.php
?ticket=e741a4d540c5911569e20928ab51e7e2&time=1658029394&channel=vtnemo

++++++++++++++++++++++++++++++++++++++++++
2022-07-17 11:45:21--171.229.114.111
url: 117.4.244.81:82/vt/api_notice.php
?channel=vtnemo&time=1658029521&ticket=3cc9ad334cb6b13aa01852e95cf7386f

++++++++++++++++++++++++++++++++++++++++++
2022-07-17 11:48:21--171.229.114.111
url: 117.4.244.81:82/vt/api_notice.php
?channel=vtnemo&time=1658029701&ticket=d3bb91f3477df2571dc313f6778bdd24

++++++++++++++++++++++++++++++++++++++++++
2022-07-17 11:52:03--171.229.114.111
url: 117.4.244.81:82/vt/api_notice.php
?channel=vtnemo&ticket=223d0c06fcff9f4a96d87fea08283d5d&time=1658029923

++++++++++++++++++++++++++++++++++++++++++
2022-07-17 11:58:29--171.229.114.111
url: 117.4.244.81:82/vt/api_notice.php
?channel=vtnemo&ticket=3e6fc814920609f6cf1358c51dd51208&time=1658030309

++++++++++++++++++++++++++++++++++++++++++
2022-07-17 12:01:36--117.1.222.3
url: 117.4.244.81:82/vt/api_notice.php
?channel=vtnemo&ticket=d7a1b35ebd63434320e37c66f9d6b727&time=1658030499

++++++++++++++++++++++++++++++++++++++++++
2022-07-17 12:06:44--117.1.222.3
url: 117.4.244.81:82/vt/api_notice.php
?channel=vtnemo&ticket=29d14bf19f535777ea9a1ce7b24b90ec&time=1658030807

++++++++++++++++++++++++++++++++++++++++++
2022-07-17 12:06:58--117.1.222.3
url: 117.4.244.81:82/vt/api_notice.php
?channel=vtnemo&ticket=3901a44a3a9a7f4712b399ae677c4745&time=1658030820

++++++++++++++++++++++++++++++++++++++++++
2022-07-17 12:07:13--117.1.222.3
url: 117.4.244.81:82/vt/api_notice.php
?channel=vtnemo&ticket=2294b1c3f9017ea3fe062518bf46c180&time=1658030835

++++++++++++++++++++++++++++++++++++++++++
2022-07-17 12:20:11--58.187.163.49
url: 117.4.244.81:82/vt/api_notice.php
?ticket=13c3d01e03225fde9683489b9781594e&channel=vtnemo&time=1658031610

++++++++++++++++++++++++++++++++++++++++++
2022-07-17 12:25:31--58.187.163.49
url: 117.4.244.81:82/vt/api_notice.php
?ticket=95ce6609b81c8f8a30aa4cc9338b4de5&channel=vtnemo&time=1658031930

++++++++++++++++++++++++++++++++++++++++++
2022-07-17 12:25:54--58.187.163.49
url: 117.4.244.81:82/vt/api_notice.php
?ticket=8aee0125dc72e7537f2a62b34abacbe4&channel=vtnemo&time=1658031954

++++++++++++++++++++++++++++++++++++++++++
2022-07-17 12:27:46--113.185.44.152
url: 117.4.244.81:82/vt/api_notice.php
?channel=vtnemo&ticket=0018f22a5202768b62896a3dbcefc677&time=1658032064

++++++++++++++++++++++++++++++++++++++++++
2022-07-17 12:29:34--58.187.163.49
url: 117.4.244.81:82/vt/api_notice.php
?ticket=23966b08a0ed458d6775f56714812e56&channel=vtnemo&time=1658032173

++++++++++++++++++++++++++++++++++++++++++
2022-07-17 12:30:08--113.185.44.152
url: 117.4.244.81:82/vt/api_notice.php
?channel=vtnemo&ticket=be3d67a282f6ee6425dd69b8072cb9d0&time=1658032207

++++++++++++++++++++++++++++++++++++++++++
2022-07-17 12:30:43--14.243.145.206
url: 117.4.244.81:82/vt/api_notice.php
?ticket=3913631feea028b0cc44c6050bbaa33f&time=1658032242&channel=vtnemo

++++++++++++++++++++++++++++++++++++++++++
2022-07-17 12:31:20--113.183.156.218
url: 117.4.244.81:82/vt/api_notice.php
?ticket=6bcda1e7c9d1999324d91d283c538c49&time=1658032277&channel=vtnemo

++++++++++++++++++++++++++++++++++++++++++
2022-07-17 12:32:08--113.185.44.152
url: 117.4.244.81:82/vt/api_notice.php
?channel=vtnemo&ticket=4655d10e7fda3050558ba70da439d0e3&time=1658032326

++++++++++++++++++++++++++++++++++++++++++
2022-07-17 12:33:52--113.183.156.218
url: 117.4.244.81:82/vt/api_notice.php
?ticket=210d506a4f43843b73eaad85883b6f32&time=1658032430&channel=vtnemo

++++++++++++++++++++++++++++++++++++++++++
2022-07-17 12:36:31--113.185.44.152
url: 117.4.244.81:82/vt/api_notice.php
?channel=vtnemo&ticket=c5b696dcb794f4e2abcfe28d14055789&time=1658032589

++++++++++++++++++++++++++++++++++++++++++
2022-07-17 12:37:53--58.187.163.49
url: 117.4.244.81:82/vt/api_notice.php
?channel=vtnemo&ticket=6d79a13fc1e7064cb00fe142501d5a9f&time=1658032673

++++++++++++++++++++++++++++++++++++++++++
2022-07-17 12:38:20--58.187.163.49
url: 117.4.244.81:82/vt/api_notice.php
?channel=vtnemo&ticket=2535ea303c044e148918f669cf0c98b6&time=1658032699

++++++++++++++++++++++++++++++++++++++++++
2022-07-17 12:39:08--14.243.145.206
url: 117.4.244.81:82/vt/api_notice.php
?time=1658032748&ticket=abeadcd16f66d2b25c6edb1f60ae55ce&channel=vtnemo

++++++++++++++++++++++++++++++++++++++++++
2022-07-17 12:41:06--14.243.145.206
url: 117.4.244.81:82/vt/api_notice.php
?time=1658032865&ticket=a76721945f4d10d0554186d975b13057&channel=vtnemo

++++++++++++++++++++++++++++++++++++++++++
2022-07-17 12:41:44--14.243.145.206
url: 117.4.244.81:82/vt/api_notice.php
?time=1658032903&ticket=88853708a62bd8c796b6b1425de58780&channel=vtnemo

++++++++++++++++++++++++++++++++++++++++++
2022-07-17 12:42:25--14.243.145.206
url: 117.4.244.81:82/vt/api_notice.php
?time=1658032945&ticket=b3ca23978179b6f4ca9540c0b165de60&channel=vtnemo

++++++++++++++++++++++++++++++++++++++++++
2022-07-17 12:46:52--14.243.145.206
url: 117.4.244.81:82/vt/api_notice.php
?time=1658033212&ticket=c43367055ebc88730e62f67a623c4162&channel=vtnemo

++++++++++++++++++++++++++++++++++++++++++
2022-07-17 13:34:34--58.187.163.49
url: 117.4.244.81:82/vt/api_notice.php
?time=1658036073&ticket=35c4069a180bad8b45c439856d01b74a&channel=vtnemo

++++++++++++++++++++++++++++++++++++++++++
2022-07-17 13:35:46--58.187.163.49
url: 117.4.244.81:82/vt/api_notice.php
?time=1658036145&ticket=4322ba73b4f7f4e13209254cea2e2ea1&channel=vtnemo

++++++++++++++++++++++++++++++++++++++++++
2022-07-17 13:39:47--58.187.163.49
url: 117.4.244.81:82/vt/api_notice.php
?channel=vtnemo&ticket=9ba11d60f23e96d37d4b5b17116be4a4&time=1658036386

++++++++++++++++++++++++++++++++++++++++++
2022-07-17 13:41:55--58.187.163.49
url: 117.4.244.81:82/vt/api_notice.php
?channel=vtnemo&ticket=54f55679ce3135203ecc976674690b5b&time=1658036513

++++++++++++++++++++++++++++++++++++++++++
2022-07-17 13:51:15--58.187.163.49
url: 117.4.244.81:82/vt/api_notice.php
?channel=vtnemo&ticket=5b5fb52d8e304d3405f16169f008d0f0&time=1658037073

++++++++++++++++++++++++++++++++++++++++++
2022-07-17 13:52:24--113.185.44.152
url: 117.4.244.81:82/vt/api_notice.php
?ticket=179b048eb20560ecb0021347d1091531&time=1658037143&channel=vtnemo

++++++++++++++++++++++++++++++++++++++++++
2022-07-17 14:26:26--42.1.90.9
url: 117.4.244.81:82/vt/api_notice.php
?time=1658039186&ticket=6617f03299586ee6d705417eccc5e662&channel=vtnemo

++++++++++++++++++++++++++++++++++++++++++
2022-07-17 14:27:47--58.187.163.49
url: 117.4.244.81:82/vt/api_notice.php
?time=1658039267&channel=vtnemo&ticket=f017566f6484d652c4ade35ab76af96f

++++++++++++++++++++++++++++++++++++++++++
2022-07-17 14:28:11--58.187.163.49
url: 117.4.244.81:82/vt/api_notice.php
?time=1658039290&channel=vtnemo&ticket=e1a7361e48bb60ba7cff2f818d6fcb6d

++++++++++++++++++++++++++++++++++++++++++
2022-07-17 14:30:05--58.187.163.49
url: 117.4.244.81:82/vt/api_notice.php
?time=1658039404&channel=vtnemo&ticket=88d1a4c18d7b1077f0324098f5a44d43

++++++++++++++++++++++++++++++++++++++++++
2022-07-17 14:30:15--58.187.163.49
url: 117.4.244.81:82/vt/api_notice.php
?time=1658039414&channel=vtnemo&ticket=991ae3dba3d3dd40e811985a56981618

++++++++++++++++++++++++++++++++++++++++++
2022-07-17 14:32:54--58.187.163.49
url: 117.4.244.81:82/vt/api_notice.php
?time=1658039573&channel=vtnemo&ticket=df58f4a9d86191dce8f9a142fae3c11a

++++++++++++++++++++++++++++++++++++++++++
2022-07-17 14:33:06--58.187.163.49
url: 117.4.244.81:82/vt/api_notice.php
?time=1658039585&channel=vtnemo&ticket=54083a3db0c2ac1c28155f161e75cd58

++++++++++++++++++++++++++++++++++++++++++
2022-07-17 14:34:47--58.187.163.49
url: 117.4.244.81:82/vt/api_notice.php
?time=1658039686&channel=vtnemo&ticket=2de4dd773c3034c08abe368e87b4e5de

++++++++++++++++++++++++++++++++++++++++++
2022-07-17 14:38:35--58.187.163.49
url: 117.4.244.81:82/vt/api_notice.php
?time=1658039914&channel=vtnemo&ticket=10a34fdaf22709ec7924e0706600bb3b

++++++++++++++++++++++++++++++++++++++++++
2022-07-17 14:45:10--58.187.163.49
url: 117.4.244.81:82/vt/api_notice.php
?channel=vtnemo&ticket=da1a9abf8ba8de0946ed00fc57f6daf2&time=1658040309

++++++++++++++++++++++++++++++++++++++++++
2022-07-17 14:46:21--58.187.163.49
url: 117.4.244.81:82/vt/api_notice.php
?channel=vtnemo&ticket=6dc4f664066aa51c039f87a82cbdd270&time=1658040381

++++++++++++++++++++++++++++++++++++++++++
2022-07-17 14:46:39--58.187.163.49
url: 117.4.244.81:82/vt/api_notice.php
?channel=vtnemo&ticket=349eb3b04e6fd539e9ff1bec0c16e1dc&time=1658040399

++++++++++++++++++++++++++++++++++++++++++
2022-07-17 14:54:04--14.177.27.133
url: 117.4.244.81:82/vt/api_notice.php
?time=1658040844&channel=vtnemo&ticket=be9f5ff3b38d7906f4a743cc22c96a89

++++++++++++++++++++++++++++++++++++++++++
2022-07-17 14:57:00--14.177.27.133
url: 117.4.244.81:82/vt/api_notice.php
?time=1658041020&channel=vtnemo&ticket=89e71784c343111c2ef914dba5a333cb

++++++++++++++++++++++++++++++++++++++++++
2022-07-17 14:57:34--14.177.27.133
url: 117.4.244.81:82/vt/api_notice.php
?time=1658041054&channel=vtnemo&ticket=1ef113f9925118372c5a3cc0678a77e0

++++++++++++++++++++++++++++++++++++++++++
2022-07-17 14:58:23--58.187.163.49
url: 117.4.244.81:82/vt/api_notice.php
?channel=vtnemo&ticket=96996f0d89e26effd42bc4aa23519734&time=1658041102

++++++++++++++++++++++++++++++++++++++++++
2022-07-17 14:58:41--58.187.163.49
url: 117.4.244.81:82/vt/api_notice.php
?ticket=f893b5812d5285317f7fd8281b45449a&time=1658041120&channel=vtnemo

++++++++++++++++++++++++++++++++++++++++++
2022-07-17 15:01:19--58.187.163.49
url: 117.4.244.81:82/vt/api_notice.php
?ticket=2d01d2ab4f5d8c6893559a74e568c872&time=1658041278&channel=vtnemo

++++++++++++++++++++++++++++++++++++++++++
2022-07-17 15:19:16--58.187.163.49
url: 117.4.244.81:82/vt/api_notice.php
?ticket=10ea1dda7766438ae62f0124539eb2c7&time=1658042355&channel=vtnemo

++++++++++++++++++++++++++++++++++++++++++
2022-07-17 15:26:04--14.177.27.133
url: 117.4.244.81:82/vt/api_notice.php
?time=1658042764&channel=vtnemo&ticket=d3d2e8180d707a48db4a5c3b2fe06dbd

++++++++++++++++++++++++++++++++++++++++++
2022-07-17 15:28:52--42.1.90.9
url: 117.4.244.81:82/vt/api_notice.php
?ticket=032fa25d5ac33cfad294cc90e74ec193&time=1658042932&channel=vtnemo

++++++++++++++++++++++++++++++++++++++++++
2022-07-17 16:04:38--14.177.27.133
url: 117.4.244.81:82/vt/api_notice.php
?time=1658045078&channel=vtnemo&ticket=58c2f99c26ef45111fda7448ea7fcae9

++++++++++++++++++++++++++++++++++++++++++
2022-07-17 16:05:47--42.1.90.9
url: 117.4.244.81:82/vt/api_notice.php
?ticket=1d3b5590599c19f1aeb049792359c3f3&time=1658045147&channel=vtnemo

++++++++++++++++++++++++++++++++++++++++++
2022-07-17 16:06:04--42.1.90.9
url: 117.4.244.81:82/vt/api_notice.php
?ticket=6c65f33f6b871a8bcc4952ba2469a2e0&time=1658045163&channel=vtnemo

++++++++++++++++++++++++++++++++++++++++++
2022-07-17 16:11:56--42.1.90.9
url: 117.4.244.81:82/vt/api_notice.php
?ticket=e06adb620b73fa985beacc986edb247b&time=1658045516&channel=vtnemo

++++++++++++++++++++++++++++++++++++++++++
2022-07-17 16:13:52--42.1.90.9
url: 117.4.244.81:82/vt/api_notice.php
?ticket=a28ef4a6b17f9832a093a7775db7a2d7&time=1658045632&channel=vtnemo

++++++++++++++++++++++++++++++++++++++++++
2022-07-17 16:31:31--113.185.44.152
url: 117.4.244.81:82/vt/api_notice.php
?time=1658046689&channel=vtnemo&ticket=bdedc5a471db15b3f44c745cc6489cbf

++++++++++++++++++++++++++++++++++++++++++
2022-07-17 16:40:37--113.185.44.152
url: 117.4.244.81:82/vt/api_notice.php
?time=1658047235&channel=vtnemo&ticket=7086e4f7009230863dfabbccabf3f265

++++++++++++++++++++++++++++++++++++++++++
2022-07-17 16:41:16--113.185.44.152
url: 117.4.244.81:82/vt/api_notice.php
?time=1658047274&channel=vtnemo&ticket=2eb5953f58301370bd0d8a9840e7b328

++++++++++++++++++++++++++++++++++++++++++
2022-07-17 17:03:37--14.177.27.133
url: 117.4.244.81:82/vt/api_notice.php
?channel=vtnemo&time=1658048617&ticket=fd1ecbbe4b3a8a5830b86a74673665f6

++++++++++++++++++++++++++++++++++++++++++
2022-07-17 17:05:39--14.177.27.133
url: 117.4.244.81:82/vt/api_notice.php
?channel=vtnemo&time=1658048739&ticket=ba8e85602e5817ec553940f4f22ad6c7

++++++++++++++++++++++++++++++++++++++++++
2022-07-17 17:14:24--14.177.27.133
url: 117.4.244.81:82/vt/api_notice.php
?ticket=7b29cd4f4da53119c80b3b9bdee81f41&channel=vtnemo&time=1658049264

++++++++++++++++++++++++++++++++++++++++++
2022-07-17 17:17:22--14.177.27.133
url: 117.4.244.81:82/vt/api_notice.php
?ticket=14a3b3af6e274009fc17e9b37656f768&channel=vtnemo&time=1658049442

++++++++++++++++++++++++++++++++++++++++++
2022-07-17 17:55:54--117.0.152.188
url: 117.4.244.81:82/vt/api_notice.php
?time=1658051758&ticket=056cc5978b6be36798e1333c828bda29&channel=vtnemo

++++++++++++++++++++++++++++++++++++++++++
2022-07-17 17:58:34--117.0.152.188
url: 117.4.244.81:82/vt/api_notice.php
?time=1658051918&ticket=5ae83f612736b496a6e70d9271d0b3a0&channel=vtnemo

++++++++++++++++++++++++++++++++++++++++++
2022-07-17 18:06:24--14.177.27.133
url: 117.4.244.81:82/vt/api_notice.php
?channel=vtnemo&time=1658052383&ticket=62cbe1e1c776e6f48bb61638cf7a9f07

++++++++++++++++++++++++++++++++++++++++++
2022-07-17 18:14:01--59.153.233.177
url: 117.4.244.81:82/vt/api_notice.php
?time=1658052840&channel=vtnemo&ticket=18b5c4e8f838fa236644040b9055dfdb

++++++++++++++++++++++++++++++++++++++++++
2022-07-17 18:27:02--58.187.163.49
url: 117.4.244.81:82/vt/api_notice.php
?ticket=25a3950adf318d6350ab02ca5c60538b&time=1658053620&channel=vtnemo

++++++++++++++++++++++++++++++++++++++++++
2022-07-17 18:31:43--58.187.163.49
url: 117.4.244.81:82/vt/api_notice.php
?ticket=753ad7dcd3f3dc9a5ecf89a5c4a26f3c&time=1658053901&channel=vtnemo

++++++++++++++++++++++++++++++++++++++++++
2022-07-17 18:33:02--117.0.152.188
url: 117.4.244.81:82/vt/api_notice.php
?time=1658053985&ticket=bdaa693a2cf5539303e517dcfa28589c&channel=vtnemo

++++++++++++++++++++++++++++++++++++++++++
2022-07-17 18:50:32--117.0.152.188
url: 117.4.244.81:82/vt/api_notice.php
?channel=vtnemo&time=1658055035&ticket=9014fab2482710223b3b8a70894d065b

++++++++++++++++++++++++++++++++++++++++++
2022-07-17 18:55:25--58.187.163.49
url: 117.4.244.81:82/vt/api_notice.php
?ticket=5100151382693afeca3b9384cbc1b275&time=1658055324&channel=vtnemo

++++++++++++++++++++++++++++++++++++++++++
2022-07-17 18:56:33--117.0.152.188
url: 117.4.244.81:82/vt/api_notice.php
?channel=vtnemo&time=1658055396&ticket=857bf776661b9d3863abf280a7ddbb22

++++++++++++++++++++++++++++++++++++++++++
2022-07-17 19:48:50--14.177.27.133
url: 117.4.244.81:82/vt/api_notice.php
?time=1658058530&channel=vtnemo&ticket=7439899770e391c1ea01b3008ede96ce

++++++++++++++++++++++++++++++++++++++++++
2022-07-17 19:50:36--58.187.163.49
url: 117.4.244.81:82/vt/api_notice.php
?channel=vtnemo&time=1658058635&ticket=e4f98adf0ee92398c57cf4215ada8baf

++++++++++++++++++++++++++++++++++++++++++
2022-07-17 19:54:36--1.53.12.90
url: 117.4.244.81:82/vt/api_notice.php
?channel=vtnemo&ticket=6916378eba49cfa08fc8efa2798e8c92&time=1658058874

++++++++++++++++++++++++++++++++++++++++++
2022-07-17 19:59:21--1.53.12.90
url: 117.4.244.81:82/vt/api_notice.php
?channel=vtnemo&ticket=22d92b4b682e7da492519eff18e4acc1&time=1658059157

++++++++++++++++++++++++++++++++++++++++++
2022-07-17 20:01:38--118.68.247.240
url: 117.4.244.81:82/vt/api_notice.php
?time=1658059297&ticket=91b88e1f2294a55f4cdc0b9528e3b71e&channel=vtnemo

++++++++++++++++++++++++++++++++++++++++++
2022-07-17 20:02:29--1.53.12.90
url: 117.4.244.81:82/vt/api_notice.php
?channel=vtnemo&ticket=b80f72c4078d734b1f6224f29e37b8eb&time=1658059347

++++++++++++++++++++++++++++++++++++++++++
2022-07-17 20:06:31--14.177.27.133
url: 117.4.244.81:82/vt/api_notice.php
?time=1658059591&channel=vtnemo&ticket=870304d69d120908971d6d6c290c08ef

++++++++++++++++++++++++++++++++++++++++++
2022-07-17 20:06:44--1.53.12.90
url: 117.4.244.81:82/vt/api_notice.php
?ticket=18b9d6fcad960a13abab1e0395dfbe99&channel=vtnemo&time=1658059603

++++++++++++++++++++++++++++++++++++++++++
2022-07-17 20:07:36--1.53.12.90
url: 117.4.244.81:82/vt/api_notice.php
?ticket=1e92c0cd1dd39dc64bcd63ea26b3f110&channel=vtnemo&time=1658059655

++++++++++++++++++++++++++++++++++++++++++
2022-07-17 20:08:19--58.187.163.49
url: 117.4.244.81:82/vt/api_notice.php
?ticket=0a43d3b3f1807f2884bd6ed733454ab2&channel=vtnemo&time=1658059698

++++++++++++++++++++++++++++++++++++++++++
2022-07-17 20:10:05--14.177.27.133
url: 117.4.244.81:82/vt/api_notice.php
?time=1658059805&channel=vtnemo&ticket=23cc1993980143d38ff3b66f7efae205

++++++++++++++++++++++++++++++++++++++++++
2022-07-17 20:17:37--118.68.247.240
url: 117.4.244.81:82/vt/api_notice.php
?time=1658060256&ticket=177b7088546a40ea3288b2da3f9e6626&channel=vtnemo

++++++++++++++++++++++++++++++++++++++++++
2022-07-17 20:21:38--113.183.156.218
url: 117.4.244.81:82/vt/api_notice.php
?time=1658060496&ticket=1d217248e4dbaf4faf75b2dd8713f5f5&channel=vtnemo

++++++++++++++++++++++++++++++++++++++++++
2022-07-17 20:21:51--118.68.247.240
url: 117.4.244.81:82/vt/api_notice.php
?time=1658060510&ticket=bccbce8ca6aa19bfe4c188de83c0fd92&channel=vtnemo

++++++++++++++++++++++++++++++++++++++++++
2022-07-17 20:22:30--118.68.247.240
url: 117.4.244.81:82/vt/api_notice.php
?time=1658060549&ticket=5f092fa6bad478376281c9825f3e650a&channel=vtnemo

++++++++++++++++++++++++++++++++++++++++++
2022-07-17 20:22:32--113.183.156.218
url: 117.4.244.81:82/vt/api_notice.php
?time=1658060549&ticket=5f092fa6bad478376281c9825f3e650a&channel=vtnemo

++++++++++++++++++++++++++++++++++++++++++
2022-07-17 20:22:39--14.177.27.133
url: 117.4.244.81:82/vt/api_notice.php
?time=1658060559&channel=vtnemo&ticket=83b303919aba547eb32bf6dce7331b0c

++++++++++++++++++++++++++++++++++++++++++
2022-07-17 20:23:30--113.183.156.218
url: 117.4.244.81:82/vt/api_notice.php
?time=1658060608&ticket=ad13a675c1f77b6e32fff5da2530a565&channel=vtnemo

++++++++++++++++++++++++++++++++++++++++++
2022-07-17 20:23:40--113.183.156.218
url: 117.4.244.81:82/vt/api_notice.php
?time=1658060618&ticket=1a45d0a35dc754396e777d9f7667b852&channel=vtnemo

++++++++++++++++++++++++++++++++++++++++++
2022-07-17 20:25:05--118.68.247.240
url: 117.4.244.81:82/vt/api_notice.php
?time=1658060704&ticket=6b639ff37ffb83ec70333dda4565f603&channel=vtnemo

++++++++++++++++++++++++++++++++++++++++++
2022-07-17 20:26:22--1.53.12.90
url: 117.4.244.81:82/vt/api_notice.php
?time=1658060781&channel=vtnemo&ticket=53ac35878e2c8eb7b19d3925e568beb4

++++++++++++++++++++++++++++++++++++++++++
2022-07-17 20:33:22--58.187.163.49
url: 117.4.244.81:82/vt/api_notice.php
?ticket=eb7fb99a997cad48486a5b9c07c4a2ee&channel=vtnemo&time=1658061201

++++++++++++++++++++++++++++++++++++++++++
2022-07-17 20:33:46--118.68.247.240
url: 117.4.244.81:82/vt/api_notice.php
?time=1658061225&ticket=d1b134f337803084f65f8ae5a71cc04c&channel=vtnemo

++++++++++++++++++++++++++++++++++++++++++
2022-07-17 20:35:52--58.187.163.49
url: 117.4.244.81:82/vt/api_notice.php
?ticket=683a889d6e39cd8a06c7174531330487&channel=vtnemo&time=1658061351

++++++++++++++++++++++++++++++++++++++++++
2022-07-17 20:37:11--118.68.247.240
url: 117.4.244.81:82/vt/api_notice.php
?time=1658061430&ticket=23dc11a58b03bb56466683e2f4fc7995&channel=vtnemo

++++++++++++++++++++++++++++++++++++++++++
2022-07-17 20:38:20--59.153.233.177
url: 117.4.244.81:82/vt/api_notice.php
?ticket=b52c3ba1f981787fabee641ded189755&time=1658061500&channel=vtnemo

++++++++++++++++++++++++++++++++++++++++++
2022-07-17 20:41:04--118.68.247.240
url: 117.4.244.81:82/vt/api_notice.php
?time=1658061663&ticket=1e1636af354ab3867d8e32a97f0cfe4b&channel=vtnemo

++++++++++++++++++++++++++++++++++++++++++
2022-07-17 20:43:25--115.76.63.77
url: 117.4.244.81:82/vt/api_notice.php
?channel=vtnemo&ticket=d8f89f7642d7162835575ef9f23a05be&time=1658061809

++++++++++++++++++++++++++++++++++++++++++
2022-07-17 20:43:57--115.76.63.77
url: 117.4.244.81:82/vt/api_notice.php
?channel=vtnemo&ticket=b40b1b5aea5ff57801024ae752108c70&time=1658061840

++++++++++++++++++++++++++++++++++++++++++
2022-07-17 20:48:53--58.187.163.49
url: 117.4.244.81:82/vt/api_notice.php
?time=1658062133&ticket=c57f723cafdd232d741ac0fd8fd12889&channel=vtnemo

++++++++++++++++++++++++++++++++++++++++++
2022-07-17 21:12:57--58.187.163.49
url: 117.4.244.81:82/vt/api_notice.php
?ticket=83a6ccd73cdf6e30abdaf6d6f6f23721&time=1658063576&channel=vtnemo

++++++++++++++++++++++++++++++++++++++++++
2022-07-17 21:24:37--14.177.27.133
url: 117.4.244.81:82/vt/api_notice.php
?time=1658064277&channel=vtnemo&ticket=5b99430f5271755c18d55567ea4a11fc

++++++++++++++++++++++++++++++++++++++++++
2022-07-17 21:26:14--1.53.12.90
url: 117.4.244.81:82/vt/api_notice.php
?time=1658064373&channel=vtnemo&ticket=ac24b4339d5771fe691fa5e9a5354f95

++++++++++++++++++++++++++++++++++++++++++
2022-07-17 21:26:18--14.177.27.133
url: 117.4.244.81:82/vt/api_notice.php
?time=1658064378&channel=vtnemo&ticket=2d712c3f2c9606deb466143a0f71b08e

++++++++++++++++++++++++++++++++++++++++++
2022-07-17 21:26:33--1.53.12.90
url: 117.4.244.81:82/vt/api_notice.php
?time=1658064392&channel=vtnemo&ticket=0e261567a15b3f3b6160708300eb7493

++++++++++++++++++++++++++++++++++++++++++
2022-07-17 21:35:55--14.177.27.133
url: 117.4.244.81:82/vt/api_notice.php
?time=1658064955&channel=vtnemo&ticket=4e124dc90c585a141c716cd2fd78a291

++++++++++++++++++++++++++++++++++++++++++
2022-07-17 21:38:00--14.177.27.133
url: 117.4.244.81:82/vt/api_notice.php
?time=1658065080&channel=vtnemo&ticket=5241834eac9180ad39a47d2fda8f9a0d

++++++++++++++++++++++++++++++++++++++++++
2022-07-17 21:38:26--58.187.163.49
url: 117.4.244.81:82/vt/api_notice.php
?channel=vtnemo&ticket=4f5023450d73fb9c44df04fd924483e4&time=1658065105

++++++++++++++++++++++++++++++++++++++++++
2022-07-17 21:43:44--14.177.27.133
url: 117.4.244.81:82/vt/api_notice.php
?channel=vtnemo&ticket=af79e9de244c22e77426de2004710a26&time=1658065424

++++++++++++++++++++++++++++++++++++++++++
2022-07-17 21:52:21--14.177.27.133
url: 117.4.244.81:82/vt/api_notice.php
?channel=vtnemo&ticket=86e6b851a5fde872733437319e62c60b&time=1658065941

++++++++++++++++++++++++++++++++++++++++++
2022-07-17 21:54:03--113.22.11.8
url: 117.4.244.81:82/vt/api_notice.php
?time=1658066043&channel=vtnemo&ticket=43ee6a19e1e4dc73068b4fe7f1831cd6

++++++++++++++++++++++++++++++++++++++++++
2022-07-17 21:55:37--58.187.163.49
url: 117.4.244.81:82/vt/api_notice.php
?channel=vtnemo&ticket=ddbfe28046377a5567217bf3f7cd8356&time=1658066135

++++++++++++++++++++++++++++++++++++++++++
2022-07-17 21:57:49--113.22.11.8
url: 117.4.244.81:82/vt/api_notice.php
?time=1658066269&channel=vtnemo&ticket=b04f3d4091c12df01accfbaf84415766

++++++++++++++++++++++++++++++++++++++++++
2022-07-17 22:04:59--59.153.233.177
url: 117.4.244.81:82/vt/api_notice.php
?ticket=b3417df2c9ac77d2d9725caecd69c88d&channel=vtnemo&time=1658066699

++++++++++++++++++++++++++++++++++++++++++
2022-07-17 22:15:22--113.22.11.8
url: 117.4.244.81:82/vt/api_notice.php
?time=1658067322&ticket=b32fce3603d323f186071cb7ef8a5cd4&channel=vtnemo

++++++++++++++++++++++++++++++++++++++++++
2022-07-17 22:17:59--113.22.11.8
url: 117.4.244.81:82/vt/api_notice.php
?ticket=2cf23a4093e87883421ea0e648c4a34d&time=1658067478&channel=vtnemo

++++++++++++++++++++++++++++++++++++++++++
2022-07-17 22:24:21--113.22.11.8
url: 117.4.244.81:82/vt/api_notice.php
?ticket=a00708dffb892919eab8d7e2c462ea76&time=1658067860&channel=vtnemo

++++++++++++++++++++++++++++++++++++++++++
2022-07-17 22:24:54--59.153.233.177
url: 117.4.244.81:82/vt/api_notice.php
?time=1658067893&channel=vtnemo&ticket=95f10619eaa8ca27b3f7cd7bbf6fee4f

++++++++++++++++++++++++++++++++++++++++++
2022-07-17 22:25:18--14.181.35.147
url: 117.4.244.81:82/vt/api_notice.php
?time=1658067918&ticket=aae0043d33e4fe4daa147741d7f226ed&channel=vtnemo

++++++++++++++++++++++++++++++++++++++++++
2022-07-17 22:25:30--115.76.63.77
url: 117.4.244.81:82/vt/api_notice.php
?ticket=019ff19d4ae5ca938ac9c48159171600&channel=vtnemo&time=1658067933

++++++++++++++++++++++++++++++++++++++++++
2022-07-17 22:29:35--115.76.63.77
url: 117.4.244.81:82/vt/api_notice.php
?channel=vtnemo&ticket=1a3a6a87b10c4651ab9e25a3c36e80e6&time=1658068178

++++++++++++++++++++++++++++++++++++++++++
2022-07-17 22:30:14--14.181.35.147
url: 117.4.244.81:82/vt/api_notice.php
?time=1658068213&ticket=c511c2b89d3634a81aecbdebb5be5960&channel=vtnemo

++++++++++++++++++++++++++++++++++++++++++
2022-07-17 22:30:47--14.181.35.147
url: 117.4.244.81:82/vt/api_notice.php
?time=1658068246&ticket=bbdeea6b5a5d8e5622830e9140b7082d&channel=vtnemo

++++++++++++++++++++++++++++++++++++++++++
2022-07-17 22:32:16--59.153.233.177
url: 117.4.244.81:82/vt/api_notice.php
?time=1658068336&channel=vtnemo&ticket=57805ee5fac17666dcf4460771194274

++++++++++++++++++++++++++++++++++++++++++
2022-07-17 22:32:50--14.181.35.147
url: 117.4.244.81:82/vt/api_notice.php
?time=1658068370&ticket=b81157737bd2ca24868f799ef2d765c1&channel=vtnemo

++++++++++++++++++++++++++++++++++++++++++
2022-07-17 22:33:13--59.153.233.177
url: 117.4.244.81:82/vt/api_notice.php
?time=1658068393&channel=vtnemo&ticket=f1e0b3364d8f6d64a0c8ff1c36a298af

++++++++++++++++++++++++++++++++++++++++++
2022-07-17 22:38:43--113.22.11.8
url: 117.4.244.81:82/vt/api_notice.php
?ticket=16b27cfeca9eb2716d2e5e3e87d318f7&time=1658068723&channel=vtnemo

++++++++++++++++++++++++++++++++++++++++++
2022-07-17 22:42:20--113.22.11.8
url: 117.4.244.81:82/vt/api_notice.php
?ticket=861e8cb5391a5d6a000e8b2321084197&time=1658068939&channel=vtnemo

++++++++++++++++++++++++++++++++++++++++++
2022-07-17 22:44:41--113.185.47.196
url: 117.4.244.81:82/vt/api_notice.php
?time=1658069079&channel=vtnemo&ticket=e6fc807dd0538378bb2246455379f767

++++++++++++++++++++++++++++++++++++++++++
2022-07-17 22:45:10--113.22.11.8
url: 117.4.244.81:82/vt/api_notice.php
?ticket=df459d2e5ed32bcc752679ee71ca9fb4&time=1658069109&channel=vtnemo

++++++++++++++++++++++++++++++++++++++++++
2022-07-17 22:45:39--113.185.47.196
url: 117.4.244.81:82/vt/api_notice.php
?time=1658069137&channel=vtnemo&ticket=d45b10989f56e68823afb6aac03395d6

++++++++++++++++++++++++++++++++++++++++++
2022-07-17 22:47:32--113.185.47.196
url: 117.4.244.81:82/vt/api_notice.php
?time=1658069250&channel=vtnemo&ticket=3a6ed2bcf4a2aa04c6a61457faf9ae01

++++++++++++++++++++++++++++++++++++++++++
2022-07-17 22:48:46--118.68.247.240
url: 117.4.244.81:82/vt/api_notice.php
?time=1658069325&ticket=41de061afac0610398430546247d6e92&channel=vtnemo

++++++++++++++++++++++++++++++++++++++++++
2022-07-17 22:53:04--118.68.247.240
url: 117.4.244.81:82/vt/api_notice.php
?time=1658069583&ticket=d43858c01a85ded244d2abb00c4616b2&channel=vtnemo

++++++++++++++++++++++++++++++++++++++++++
2022-07-17 22:57:13--58.187.163.49
url: 117.4.244.81:82/vt/api_notice.php
?time=1658069832&channel=vtnemo&ticket=b2225cc5a5b85854bca2f6cc93663ada

++++++++++++++++++++++++++++++++++++++++++
2022-07-17 23:21:32--113.22.11.8
url: 117.4.244.81:82/vt/api_notice.php
?time=1658071292&ticket=a2b818ea8c08e32884dadcb9be6488cf&channel=vtnemo

++++++++++++++++++++++++++++++++++++++++++
2022-07-17 23:26:29--203.210.253.204
url: 117.4.244.81:82/vt/api_notice.php
?ticket=bd6202e7576043bf7e7a22bbefb9c0ad&time=1658071591&channel=vtnemo

++++++++++++++++++++++++++++++++++++++++++
2022-07-17 23:27:48--113.22.11.8
url: 117.4.244.81:82/vt/api_notice.php
?time=1658071668&ticket=1e9d5399fda5a9712c3b4653a141e025&channel=vtnemo

++++++++++++++++++++++++++++++++++++++++++
2022-07-17 23:29:54--203.210.253.204
url: 117.4.244.81:82/vt/api_notice.php
?ticket=76ffac403c27b945c81a18cde73e00df&time=1658071795&channel=vtnemo

++++++++++++++++++++++++++++++++++++++++++
2022-07-17 23:31:56--58.187.163.49
url: 117.4.244.81:82/vt/api_notice.php
?channel=vtnemo&ticket=b11ee09b2ad42c7b3bc5b5f124a1c707&time=1658071916

++++++++++++++++++++++++++++++++++++++++++
2022-07-17 23:40:37--14.243.145.206
url: 117.4.244.81:82/vt/api_notice.php
?channel=vtnemo&ticket=fd3627eaeb5bb52492dfc8cb0d62d70f&time=1658072436

++++++++++++++++++++++++++++++++++++++++++
2022-07-17 23:42:20--115.76.50.153
url: 117.4.244.81:82/vt/api_notice.php
?time=1658072539&ticket=828b6b9770bf1526d2e6be85cdd1e62e&channel=vtnemo

++++++++++++++++++++++++++++++++++++++++++
2022-07-17 23:46:02--115.76.50.153
url: 117.4.244.81:82/vt/api_notice.php
?time=1658072761&ticket=1c233e414d2715db70cfc9738c8ae7a4&channel=vtnemo

++++++++++++++++++++++++++++++++++++++++++
2022-07-17 23:48:02--115.76.50.153
url: 117.4.244.81:82/vt/api_notice.php
?time=1658072881&ticket=1fc94e8be259164f0d1db192836af138&channel=vtnemo

++++++++++++++++++++++++++++++++++++++++++
2022-07-17 23:49:52--27.3.149.67
url: 117.4.244.81:82/vt/api_notice.php
?time=1658072991&ticket=f8124fafddf085de71bc50db5c2a84d1&channel=vtnemo

++++++++++++++++++++++++++++++++++++++++++
2022-07-17 23:53:31--113.22.11.8
url: 117.4.244.81:82/vt/api_notice.php
?ticket=1170cd9d7cee16fe89c872b94b39f260&time=1658073210&channel=vtnemo

++++++++++++++++++++++++++++++++++++++++++
2022-07-17 23:57:16--27.3.149.67
url: 117.4.244.81:82/vt/api_notice.php
?time=1658073436&ticket=cc06ac6a3c38262e3015c4052f1bdba6&channel=vtnemo

++++++++++++++++++++++++++++++++++++++++++
2022-07-17 23:58:08--113.22.11.8
url: 117.4.244.81:82/vt/api_notice.php
?ticket=bab661ed09f27872dd76b1718d67c637&time=1658073487&channel=vtnemo

++++++++++++++++++++++++++++++++++++++++++
2022-07-17 23:58:41--27.3.149.67
url: 117.4.244.81:82/vt/api_notice.php
?channel=vtnemo&time=1658073521&ticket=4cda9b2c8b5774cd7db4b976b5b6bf21
