
++++++++++++++++++++++++++++++++++++++++++
2022-07-19 00:04:17 -- 115.164.47.232
code:-1 -- msg:missing_parameter
data:[]
url: 117.4.244.81:82/vt/api_update_info.php
?accname=besun21&server_id=1&nickname=B%C3%A9+Sun&level=89&ticket=500c698ccc7ff2fb8ad283595edfece4&role_id=24383825645568&time=1658160257&last_login_server=1&channel=vtnemo

++++++++++++++++++++++++++++++++++++++++++
2022-07-19 08:03:10 -- 113.22.11.8
code:-1 -- msg:missing_parameter
data:[]
url: 117.4.244.81:82/vt/api_update_info.php
?nickname=cherryl&last_login_server=1&time=1658188990&accname=trongloan&level=49&role_id=24384001134592&ticket=4b60a0646b433bc27f06ec3e2c09fbb1&server_id=1&channel=vtnemo

++++++++++++++++++++++++++++++++++++++++++
2022-07-19 08:04:31 -- 58.187.163.49
code:-1 -- msg:missing_parameter
data:[]
url: 117.4.244.81:82/vt/api_update_info.php
?nickname=UyenThanh&role_id=24383483707392&last_login_server=1&accname=abc123&time=1658189069&server_id=1&level=97&ticket=70946369ced3eadc982db112b20d7adb&channel=vtnemo

++++++++++++++++++++++++++++++++++++++++++
2022-07-19 08:05:08 -- 113.185.40.179
code:-1 -- msg:missing_parameter
data:[]
url: 117.4.244.81:82/vt/api_update_info.php
?nickname=hiha&role_id=24383485521920&channel=vtnemo&ticket=a9fececf4c151496e64132599c8c8add&level=54&time=1658189106&accname=aechoivui&last_login_server=1&server_id=1

++++++++++++++++++++++++++++++++++++++++++
2022-07-19 08:20:43 -- 27.3.149.67
code:-1 -- msg:missing_parameter
data:[]
url: 117.4.244.81:82/vt/api_update_info.php
?role_id=24383653474304&time=1658190043&ticket=360782151a87564c4e614a2e32385657&accname=voi123&level=93&nickname=voi&last_login_server=1&server_id=1&channel=vtnemo

++++++++++++++++++++++++++++++++++++++++++
2022-07-19 08:23:18 -- 113.22.11.8
code:-1 -- msg:missing_parameter
data:[]
url: 117.4.244.81:82/vt/api_update_info.php
?role_id=24384001134592&level=49&last_login_server=1&ticket=7fc21860e263cc92d557d07150b2e0a7&accname=trongloan&nickname=cherryl&server_id=1&channel=vtnemo&time=1658190198

++++++++++++++++++++++++++++++++++++++++++
2022-07-19 08:45:04 -- 113.22.11.8
code:-1 -- msg:missing_parameter
data:[]
url: 117.4.244.81:82/vt/api_update_info.php
?role_id=24384001134592&level=59&last_login_server=1&ticket=6c7f6f068eecdec40fb3a0b661289a0a&accname=trongloan&nickname=cherryl&server_id=1&channel=vtnemo&time=1658191505

++++++++++++++++++++++++++++++++++++++++++
2022-07-19 09:23:46 -- 58.187.163.49
code:-1 -- msg:missing_parameter
data:[]
url: 117.4.244.81:82/vt/api_update_info.php
?server_id=1&level=99&role_id=24383483707392&ticket=c5c2f7cff9efc9ca68f7ca0330cc968e&channel=vtnemo&nickname=UyenThanh&time=1658193825&accname=abc123&last_login_server=1

++++++++++++++++++++++++++++++++++++++++++
2022-07-19 09:26:54 -- 113.185.40.193
code:-1 -- msg:missing_parameter
data:[]
url: 117.4.244.81:82/vt/api_update_info.php
?nickname=cherryl&server_id=1&ticket=e9ca0f2e0d907d82faa2e6e0aa9121c4&time=1658194015&last_login_server=1&level=66&role_id=24384001134592&channel=vtnemo&accname=trongloan

++++++++++++++++++++++++++++++++++++++++++
2022-07-19 09:28:16 -- 58.187.163.49
code:-1 -- msg:missing_parameter
data:[]
url: 117.4.244.81:82/vt/api_update_info.php
?server_id=1&accname=abc123&role_id=24383483707392&level=99&ticket=2b76f47561cea39d7e477caf89977d18&nickname=UyenThanh&last_login_server=1&time=1658194095&channel=vtnemo

++++++++++++++++++++++++++++++++++++++++++
2022-07-19 09:29:56 -- 27.3.149.67
code:-1 -- msg:missing_parameter
data:[]
url: 117.4.244.81:82/vt/api_update_info.php
?role_id=24383653474304&level=95&accname=voi123&server_id=1&time=1658194196&last_login_server=1&channel=vtnemo&ticket=7867eff1ae30f6a91463e74b78e570b7&nickname=voi

++++++++++++++++++++++++++++++++++++++++++
2022-07-19 09:36:41 -- 58.187.163.49
code:-1 -- msg:missing_parameter
data:[]
url: 117.4.244.81:82/vt/api_update_info.php
?channel=vtnemo&nickname=UyenThanh&accname=abc123&last_login_server=1&server_id=1&time=1658194600&role_id=24383483707392&ticket=0f00a5d71eb8e60eb220766d6b4fd79d&level=99

++++++++++++++++++++++++++++++++++++++++++
2022-07-19 09:51:26 -- 58.187.163.49
code:-1 -- msg:missing_parameter
data:[]
url: 117.4.244.81:82/vt/api_update_info.php
?channel=vtnemo&last_login_server=1&level=99&role_id=24383483707392&nickname=UyenThanh&server_id=1&accname=abc123&ticket=ea643e5e5e124aeb51298a9f96bca01d&time=1658195485

++++++++++++++++++++++++++++++++++++++++++
2022-07-19 10:19:06 -- 113.185.44.4
code:-1 -- msg:missing_parameter
data:[]
url: 117.4.244.81:82/vt/api_update_info.php
?ticket=0542113cdd01ef5e99fbbdcafd86adde&accname=trongloan&level=79&role_id=24384001134592&channel=vtnemo&server_id=1&last_login_server=1&nickname=cherryl&time=1658197146

++++++++++++++++++++++++++++++++++++++++++
2022-07-19 11:00:41 -- 113.185.44.4
code:-1 -- msg:missing_parameter
data:[]
url: 117.4.244.81:82/vt/api_update_info.php
?server_id=1&level=89&last_login_server=1&nickname=cherryl&role_id=24384001134592&ticket=bdb45cb73d0db32169a12e180dc87d56&time=1658199642&accname=trongloan&channel=vtnemo

++++++++++++++++++++++++++++++++++++++++++
2022-07-19 11:09:24 -- 58.187.163.49
code:-1 -- msg:missing_parameter
data:[]
url: 117.4.244.81:82/vt/api_update_info.php
?level=99&ticket=c598de424e70fa3546e869e257ca1fcf&channel=vtnemo&last_login_server=1&accname=abc123&role_id=24383483707392&server_id=1&nickname=UyenThanh&time=1658200163

++++++++++++++++++++++++++++++++++++++++++
2022-07-19 11:33:37 -- 58.187.163.49
code:-1 -- msg:missing_parameter
data:[]
url: 117.4.244.81:82/vt/api_update_info.php
?last_login_server=1&server_id=1&role_id=24383483707392&level=99&accname=abc123&nickname=UyenThanh&time=1658201616&channel=vtnemo&ticket=3355b666ddb1a011a63acede7f784d14

++++++++++++++++++++++++++++++++++++++++++
2022-07-19 11:34:14 -- 27.67.130.58
code:-1 -- msg:missing_parameter
data:[]
url: 117.4.244.81:82/vt/api_update_info.php
?nickname=KiemMa&time=1658201653&accname=toanvv&server_id=1&channel=vtnemo&role_id=24383464448000&level=88&ticket=7ce159aa215958131f3833635bb9ab48&last_login_server=1

++++++++++++++++++++++++++++++++++++++++++
2022-07-19 11:47:30 -- 58.187.163.49
code:-1 -- msg:missing_parameter
data:[]
url: 117.4.244.81:82/vt/api_update_info.php
?role_id=24383483707392&server_id=1&last_login_server=1&ticket=97bc91e9998d1e2873155e5c5c5e6a51&time=1658202448&accname=abc123&level=99&nickname=UyenThanh&channel=vtnemo

++++++++++++++++++++++++++++++++++++++++++
2022-07-19 15:04:27 -- 113.185.44.4
code:-1 -- msg:missing_parameter
data:[]
url: 117.4.244.81:82/vt/api_update_info.php
?level=89&nickname=cherryl&channel=vtnemo&last_login_server=1&server_id=1&ticket=08b3a339761474e0e45874ada70b8712&time=1658214268&role_id=24384001134592&accname=trongloan

++++++++++++++++++++++++++++++++++++++++++
2022-07-19 15:29:07 -- 58.187.163.49
code:-1 -- msg:missing_parameter
data:[]
url: 117.4.244.81:82/vt/api_update_info.php
?accname=abc123&server_id=1&level=99&channel=vtnemo&time=1658215745&ticket=c0b6d1607a3f2195301ab83cca97b745&last_login_server=1&role_id=24383483707392&nickname=UyenThanh

++++++++++++++++++++++++++++++++++++++++++
2022-07-19 16:22:24 -- 113.185.44.4
code:-1 -- msg:missing_parameter
data:[]
url: 117.4.244.81:82/vt/api_update_info.php
?channel=vtnemo&server_id=1&level=89&accname=trongloan&time=1658218944&last_login_server=1&ticket=d02f1a7b244b72872f54314ae0791dd2&role_id=24384001134592&nickname=cherryl

++++++++++++++++++++++++++++++++++++++++++
2022-07-19 16:29:23 -- 113.185.44.4
code:-1 -- msg:missing_parameter
data:[]
url: 117.4.244.81:82/vt/api_update_info.php
?server_id=1&time=1658219364&channel=vtnemo&role_id=24384001134592&level=89&nickname=cherryl&last_login_server=1&ticket=01cbb7b2038205acdc584b0ceefcbfd7&accname=trongloan

++++++++++++++++++++++++++++++++++++++++++
2022-07-19 16:57:17 -- 113.185.44.4
code:-1 -- msg:missing_parameter
data:[]
url: 117.4.244.81:82/vt/api_update_info.php
?channel=vtnemo&time=1658221037&last_login_server=1&level=89&accname=trongloan&ticket=eaa5d0b62b702f33a406345cf4719d6e&server_id=1&role_id=24384001134592&nickname=cherryl

++++++++++++++++++++++++++++++++++++++++++
2022-07-19 20:46:18 -- 58.187.163.49
code:-1 -- msg:missing_parameter
data:[]
url: 117.4.244.81:82/vt/api_update_info.php
?last_login_server=1&level=99&role_id=24383483707392&time=1658234777&accname=abc123&ticket=aa6feed754436b0f2e0692d62d64a096&channel=vtnemo&nickname=UyenThanh&server_id=1

++++++++++++++++++++++++++++++++++++++++++
2022-07-19 20:49:24 -- 27.3.149.67
code:-1 -- msg:missing_parameter
data:[]
url: 117.4.244.81:82/vt/api_update_info.php
?level=95&ticket=8c15e2251063d640f8c3d7d86c530a4a&nickname=voi&server_id=1&role_id=24383653474304&last_login_server=1&channel=vtnemo&time=1658234963&accname=voi123

++++++++++++++++++++++++++++++++++++++++++
2022-07-19 21:20:43 -- 113.22.11.8
code:-1 -- msg:missing_parameter
data:[]
url: 117.4.244.81:82/vt/api_update_info.php
?role_id=24384001134592&server_id=1&last_login_server=1&time=1658236844&channel=vtnemo&ticket=31a2eb7c584a878b9842d027a276dd78&nickname=cherryl&level=92&accname=trongloan

++++++++++++++++++++++++++++++++++++++++++
2022-07-19 22:16:27 -- 113.185.43.191
code:-1 -- msg:missing_parameter
data:[]
url: 117.4.244.81:82/vt/api_update_info.php
?accname=trongloan&role_id=24384001134592&level=92&server_id=1&last_login_server=1&time=1658240187&channel=vtnemo&ticket=7546c9db5fa5192d6901119ae7cedba0&nickname=cherryl

++++++++++++++++++++++++++++++++++++++++++
2022-07-19 23:05:06 -- 113.22.11.8
code:-1 -- msg:missing_parameter
data:[]
url: 117.4.244.81:82/vt/api_update_info.php
?level=92&channel=vtnemo&server_id=1&time=1658243107&nickname=cherryl&last_login_server=1&accname=trongloan&ticket=022bc708093be9e32f2dae48ae5a2479&role_id=24384001134592
