
++++++++++++++++++++++++++++++++++++++++++
2022-11-18 01:24:22 -- 1.54.176.179
code:-1 -- msg:missing_parameter
data:[]
url: 117.4.244.81:82/vt/api_update_info.php
?accname=abc123&channel=vtnemo&last_login_server=1&role_id=24383483707392&ticket=d9dc0ab1d4c02cd7dda2a9b290c7e566&time=1668705861&server_id=1&level=99&nickname=%C4%90%E1%BA%A1iT%E1%BB%B7

++++++++++++++++++++++++++++++++++++++++++
2022-11-18 01:33:21 -- 1.54.176.179
code:-1 -- msg:missing_parameter
data:[]
url: 117.4.244.81:82/vt/api_update_info.php
?level=99&last_login_server=1&role_id=24383483707392&nickname=%C4%90%E1%BA%A1iT%E1%BB%B7&accname=abc123&server_id=1&time=1668706400&ticket=cb69d89ce7ea88cd01b47381f2021c36&channel=vtnemo

++++++++++++++++++++++++++++++++++++++++++
2022-11-18 02:43:01 -- 1.54.176.179
code:-1 -- msg:missing_parameter
data:[]
url: 117.4.244.81:82/vt/api_update_info.php
?last_login_server=1&time=1668710580&role_id=24383483707392&level=99&ticket=c99ce5fa6ae6dea905950c153a50b2ab&nickname=%C4%90%E1%BA%A1iT%E1%BB%B7&channel=vtnemo&server_id=1&accname=abc123

++++++++++++++++++++++++++++++++++++++++++
2022-11-18 02:57:53 -- 136.158.25.244
code:-1 -- msg:missing_parameter
data:[]
url: 117.4.244.81:82/vt/api_update_info.php
?server_id=1&time=1668711473&channel=vtnemo&nickname=V%C3%B4Ng%C3%A3&ticket=bb07605972cf3827806b6bc9467be061&last_login_server=1&level=99&role_id=24420370886656&accname=shacojx

++++++++++++++++++++++++++++++++++++++++++
2022-11-18 03:29:19 -- 1.54.176.179
code:-1 -- msg:missing_parameter
data:[]
url: 117.4.244.81:82/vt/api_update_info.php
?server_id=1&ticket=f02bad9013a7319854dc6b46e02c0dc8&role_id=24420370886656&nickname=V%C3%B4Ng%C3%A3&last_login_server=1&time=1668713358&accname=shacojx&channel=vtnemo&level=99

++++++++++++++++++++++++++++++++++++++++++
2022-11-18 20:42:35 -- 58.186.71.113
code:-1 -- msg:missing_parameter
data:[]
url: 117.4.244.81:82/vt/api_update_info.php
?ticket=ccd4ea5720a61cf6b04933327741c2e5&server_id=1&level=99&channel=vtnemo&accname=abc123&last_login_server=1&time=1668775354&nickname=%C4%90%E1%BA%A1iT%E1%BB%B7&role_id=24383483707392

++++++++++++++++++++++++++++++++++++++++++
2022-11-18 22:58:10 -- 58.186.71.113
code:-1 -- msg:missing_parameter
data:[]
url: 117.4.244.81:82/vt/api_update_info.php
?time=1668783488&role_id=24383483707392&channel=vtnemo&level=99&last_login_server=1&ticket=f8b7e4871eae9f8f26b230cb0a9af41f&server_id=1&nickname=%C4%90%E1%BA%A1iT%E1%BB%B7&accname=abc123
