
++++++++++++++++++++++++++++++++++++++++++
2022-11-11 23:21:01--14.180.145.87
url: 117.4.244.81:82/vt/api_client_error.php
?role_id=24425039175680&server_id=1&nick_name=VIP0&time=1668180061&level=49&ticket=a86849ac367b368f97d9d73409021452&channel=vtnemo&content=%5Bstring+%22%0D...%22%5D%3A4%3A+System.FormatException%3A+Input+string+was+not+in+the+correct+format%0D%0A++at+System.Int16.Parse+%28System.String+s%29+%5B0x00000%5D+in+%3Cfilename+unknown%3E%3A0+%0D%0A++at+System.Convert.ToInt16+%28System.String+value%29+%5B0x00000%5D+in+%3Cfilename+unknown%3E%3A0+%0D%0A++at+FairyGUI.Utils.XMLUtils.DecodeString+%28System.String+aSource%29+%5B0x00000%5D+in+%3Cfilename+unknown%3E%3A0+%0D%0A++at+FairyGUI.Utils.XMLIterator.ParseAttributes+%28IDictionary+attrs%29+%5B0x00000%5D+in+%3Cfilename+unknown%3E%3A0+%0D%0A++at+FairyGUI.Utils.XMLIterator.GetAttributes+%28System.Collections.Generic.Dictionary%602+result%29+%5B0x00000%5D+in+%3Cfilename+unknown%3E%3A0+%0D%0A++at+FairyGUI.Utils.XML.Parse+%28System.String+aSource%29+%5B0x00000%5D+in+%3Cfilename+unknown%3E%3A0+%0D%0A++at+FairyGUI.UIPackage.LoadComponent+%28FairyGUI.PackageItem+item%29+%5B0x00000%5D+in+%3Cfilename+unknown%3E%3A0+%0D%0A++at+FairyGUI.UIPackage.GetItemAsset+%28FairyGUI.PackageItem+item%29+%5B0x00000%5D+in+%3Cfilename+unknown%3E%3A0+%0D%0A++at+FairyGUI.UIPackage.LoadPackage+%28%29+%5B0x00000%5D+in+%3Cfilename+unknown%3E%3A0+%0D%0A++at+FairyGUI.UIPackage.AddPackage+%28System.String+bundleName%2C+System.String+assetName%2C+FairyGUI.LoadResource+loadFunc%29+%5B0x00000%5D+in+%3Cfilename+unknown%3E%3A0+%0D%0A++at+FairyGUI.UIPackage.LoadPackage+%28System.String+bundleName%2C+System.String+assetName%29+%5B0x00000%5D+in+%3Cfilename+unknown%3E%3A0+%0D%0A++at+Lua%5FN3DClient%5FUIManager.AddUIPackage+%28IntPtr+l%29+%5B0x00000%5D+in+%3Cfilename+unknown%3E%3A0+%0D%0Astack+traceback%3A%0D%0A%09%5BC%5D%3A+in+function+%27assert%27%0D%0A%09%5Bstring+%22%0D...%22%5D%3A4%3A+in+function+%3C%5Bstring+%22%0D...%22%5D%3A3%3E%0D%0A%09%28...tail+calls...%29%0D%0A%09global%2Fasset%5Floader%3A200%3A+in+method+%27%5FOnLoadAssetFinish%27%0D%0A%09global%2Fasset%5Floader%3A74%3A+in+method+%27Update%27%0D%0A%09global%2Frunner%3A27%3A+in+method+%27Update%27%0D%0A%09app%3A45%3A+in+function+%27app.Update%27
