
++++++++++++++++++++++++++++++++++++++++++
2022-11-06 19:38:17 -- 14.161.232.93
code:-1 -- msg:missing_parameter
data:[]
url: 117.4.244.81:82/vt/api_update_info.php
?nickname=G%E1%BA%A5u&role_id=24422568894464&accname=tinogom1&level=72&last_login_server=1&server_id=1&time=1667734695&ticket=3c1d9737048327f8c400e70a74169e92&channel=vtnemo

++++++++++++++++++++++++++++++++++++++++++
2022-11-06 21:08:31 -- 14.161.232.93
code:-1 -- msg:missing_parameter
data:[]
url: 117.4.244.81:82/vt/api_update_info.php
?level=80&server_id=1&role_id=24422568894464&nickname=G%E1%BA%A5u&accname=tinogom1&ticket=ea9b34f0f61461b69f4d1269a35909fc&channel=vtnemo&last_login_server=1&time=1667740109

++++++++++++++++++++++++++++++++++++++++++
2022-11-06 22:44:01 -- 14.161.232.93
code:-1 -- msg:missing_parameter
data:[]
url: 117.4.244.81:82/vt/api_update_info.php
?level=85&nickname=S%E1%BB%91ngC%C3%B2n&accname=tinogom&role_id=24422211739648&server_id=1&ticket=21196e4f9552d61b238ded2e90a7ab63&last_login_server=1&time=1667745838&channel=vtnemo
