
++++++++++++++++++++++++++++++++++++++++++
2022-07-29 17:46:48--113.181.221.82
url: 117.4.244.81:82/vt/api_insert_reg.php
?accname=yeungocanh97&nickname=B%C3%A1o&sid=1&time=1659088008&device_id=4fb368a0e57907d7512e0f704af5e994&role_id=24387810521088&ticket=2bd65a8df5e121008f868d7731e997be&channel=vtnemo&os=11
