
++++++++++++++++++++++++++++++++++++++++++
2022-07-21 00:06:54--27.3.149.67
url: 117.4.244.81:82/vt/api_notice.php
?channel=vtnemo&time=1658333214&ticket=a366ee4c73d67ac9a05e80c3fefd2461

++++++++++++++++++++++++++++++++++++++++++
2022-07-21 00:15:17--27.3.149.67
url: 117.4.244.81:82/vt/api_notice.php
?channel=vtnemo&time=1658333716&ticket=0d7b521296c1f674a006d2b2abffdc07

++++++++++++++++++++++++++++++++++++++++++
2022-07-21 01:31:11--117.4.244.81
url: 117.4.244.81:82/vt/api_notice.php
?channel=vtnemo&time=1658338274&ticket=76bca5bdcf6070c4a44b3b2f2b681966

++++++++++++++++++++++++++++++++++++++++++
2022-07-21 01:33:46--117.4.244.81
url: 117.4.244.81:82/vt/api_notice.php
?channel=vtnemo&time=1658338428&ticket=768b79ca9abe2dfd345540de3ba3cd48

++++++++++++++++++++++++++++++++++++++++++
2022-07-21 01:55:45--117.4.244.81
url: 117.4.244.81:82/vt/api_notice.php
?channel=vtnemo&ticket=aaa2efbddea9e70647312da7a1067b92&time=1658339747

++++++++++++++++++++++++++++++++++++++++++
2022-07-21 01:58:13--117.4.244.81
url: 117.4.244.81:82/vt/api_notice.php
?channel=vtnemo&ticket=aafab5ac20242962fece4dd88a26813d&time=1658339895

++++++++++++++++++++++++++++++++++++++++++
2022-07-21 02:05:02--117.4.244.81
url: 117.4.244.81:82/vt/api_notice.php
?ticket=336e73c3b604f2e3d21fe66a5ebc8c51&time=1658340304&channel=vtnemo

++++++++++++++++++++++++++++++++++++++++++
2022-07-21 02:09:31--117.4.244.81
url: 117.4.244.81:82/vt/api_notice.php
?ticket=e7a559ce0d471ef71fbe0b022d5394fd&channel=vtnemo&time=1658340573

++++++++++++++++++++++++++++++++++++++++++
2022-07-21 02:33:37--117.4.244.81
url: 117.4.244.81:82/vt/api_notice.php
?ticket=9478a57754d732f2eac88f8011633830&channel=vtnemo&time=1658342019

++++++++++++++++++++++++++++++++++++++++++
2022-07-21 06:20:06--117.4.244.81
url: 117.4.244.81:82/vt/api_notice.php
?ticket=397e79fde15dd1abc7f7355f56663372&time=1658355609&channel=vtnemo

++++++++++++++++++++++++++++++++++++++++++
2022-07-21 07:35:20--58.187.163.49
url: 117.4.244.81:82/vt/api_notice.php
?ticket=2dca1c39380f750145cd550db7522628&time=1658360119&channel=vtnemo

++++++++++++++++++++++++++++++++++++++++++
2022-07-21 07:35:52--58.187.163.49
url: 117.4.244.81:82/vt/api_notice.php
?ticket=933d30962a16fabaf644c1d578435cbd&time=1658360151&channel=vtnemo

++++++++++++++++++++++++++++++++++++++++++
2022-07-21 09:00:56--113.185.42.23
url: 117.4.244.81:82/vt/api_notice.php
?ticket=feb8ca12d58d5c5e41a95f1b8533956a&channel=vtnemo&time=1658365254

++++++++++++++++++++++++++++++++++++++++++
2022-07-21 09:01:40--113.185.42.23
url: 117.4.244.81:82/vt/api_notice.php
?ticket=5d8207f5569d228b9e77ba12cdad666b&channel=vtnemo&time=1658365297

++++++++++++++++++++++++++++++++++++++++++
2022-07-21 11:56:45--113.185.42.248
url: 117.4.244.81:82/vt/api_notice.php
?channel=vtnemo&time=1658375805&ticket=0193d3f4787a0fd5ea51f67e70281a68

++++++++++++++++++++++++++++++++++++++++++
2022-07-21 11:57:47--113.185.42.248
url: 117.4.244.81:82/vt/api_notice.php
?channel=vtnemo&time=1658375866&ticket=b86c5be1bc2b8f44a8f400d67c3d0c7a

++++++++++++++++++++++++++++++++++++++++++
2022-07-21 11:59:03--113.185.42.248
url: 117.4.244.81:82/vt/api_notice.php
?channel=vtnemo&time=1658375942&ticket=4fd9039f35eb90860fa22a961195ad93

++++++++++++++++++++++++++++++++++++++++++
2022-07-21 16:51:42--113.185.47.209
url: 117.4.244.81:82/vt/api_notice.php
?ticket=a3c970b8abecbf87b46df40a230ed295&time=1658393502&channel=vtnemo

++++++++++++++++++++++++++++++++++++++++++
2022-07-21 16:52:31--113.185.47.209
url: 117.4.244.81:82/vt/api_notice.php
?ticket=31a82ef4192077f6b5e1b074fc67fd67&time=1658393550&channel=vtnemo

++++++++++++++++++++++++++++++++++++++++++
2022-07-21 16:57:39--113.185.47.209
url: 117.4.244.81:82/vt/api_notice.php
?ticket=5913ce575c88b6172188266e6f088927&time=1658393858&channel=vtnemo

++++++++++++++++++++++++++++++++++++++++++
2022-07-21 17:00:01--113.185.47.209
url: 117.4.244.81:82/vt/api_notice.php
?ticket=753f873451970a9592988483457ee116&time=1658394001&channel=vtnemo

++++++++++++++++++++++++++++++++++++++++++
2022-07-21 17:04:25--113.185.47.209
url: 117.4.244.81:82/vt/api_notice.php
?ticket=80c82162ea96f38ce442da2c09409047&time=1658394264&channel=vtnemo

++++++++++++++++++++++++++++++++++++++++++
2022-07-21 17:16:44--113.185.47.209
url: 117.4.244.81:82/vt/api_notice.php
?ticket=ba7fd7a3fa5f0eb485b07e059302b7d0&time=1658395003&channel=vtnemo

++++++++++++++++++++++++++++++++++++++++++
2022-07-21 18:53:29--59.153.245.130
url: 117.4.244.81:82/vt/api_notice.php
?channel=vtnemo&time=1658400807&ticket=43551d53058f258b41b3807b2f9f65b2

++++++++++++++++++++++++++++++++++++++++++
2022-07-21 18:54:25--59.153.245.130
url: 117.4.244.81:82/vt/api_notice.php
?channel=vtnemo&time=1658400863&ticket=825f1405668bc06e178a4532fe942c74

++++++++++++++++++++++++++++++++++++++++++
2022-07-21 21:05:47--118.68.67.52
url: 117.4.244.81:82/vt/api_notice.php
?channel=vtnemo&ticket=f8bc5b88869e9ea744b26348eb1f9f06&time=1658408746

++++++++++++++++++++++++++++++++++++++++++
2022-07-21 21:06:59--118.68.67.52
url: 117.4.244.81:82/vt/api_notice.php
?channel=vtnemo&ticket=fbfe1bfe3062c5da0610aaf468f2e15c&time=1658408818

++++++++++++++++++++++++++++++++++++++++++
2022-07-21 22:37:26--117.4.244.81
url: 117.4.244.81:82/vt/api_notice.php
?channel=vtnemo&time=1658414246&ticket=a79d9c31d671dbbe0681019677418f3c

++++++++++++++++++++++++++++++++++++++++++
2022-07-21 22:37:39--117.4.244.81
url: 117.4.244.81:82/vt/api_notice.php
?channel=vtnemo&time=1658414259&ticket=d04d6e2039f1dbea62e883e8633d1f83

++++++++++++++++++++++++++++++++++++++++++
2022-07-21 22:43:19--117.4.244.81
url: 117.4.244.81:82/vt/api_notice.php
?ticket=1db747a66ea5527c419010c8bdbeb218&channel=vtnemo&time=1658414599

++++++++++++++++++++++++++++++++++++++++++
2022-07-21 23:01:03--117.4.244.81
url: 117.4.244.81:82/vt/api_notice.php
?ticket=4c2631c5b7139c6b95de805c46ec6216&channel=vtnemo&time=1658415663

++++++++++++++++++++++++++++++++++++++++++
2022-07-21 23:01:34--117.4.244.81
url: 117.4.244.81:82/vt/api_notice.php
?ticket=39e1b56ad23c388fa1a35bedbfedff54&channel=vtnemo&time=1658415694
