
++++++++++++++++++++++++++++++++++++++++++
2022-11-04 00:00:24--113.188.187.164
url: 117.4.244.81:82/vt/api_active.php
?channel=vtnemo&time=1667491222&ticket=613f0719f44492f104c9f66ab5121620

++++++++++++++++++++++++++++++++++++++++++
2022-11-04 01:09:54--113.188.187.164
url: 117.4.244.81:82/vt/api_active.php
?channel=vtnemo&time=1667495392&ticket=26f76d5cc9188343f3331592a4f81833

++++++++++++++++++++++++++++++++++++++++++
2022-11-04 01:10:57--113.188.187.164
url: 117.4.244.81:82/vt/api_active.php
?channel=vtnemo&time=1667495455&ticket=5f598d2afe707bb6832e6cf84ac92616

++++++++++++++++++++++++++++++++++++++++++
2022-11-04 01:12:15--113.188.187.164
url: 117.4.244.81:82/vt/api_active.php
?channel=vtnemo&time=1667495533&ticket=b0a872c621d880dd97888a4d1b9ca927

++++++++++++++++++++++++++++++++++++++++++
2022-11-04 01:25:09--113.188.187.164
url: 117.4.244.81:82/vt/api_active.php
?channel=vtnemo&time=1667496307&ticket=1f261e6a60dccd2e57cecec508346fe8

++++++++++++++++++++++++++++++++++++++++++
2022-11-04 02:21:15--113.188.187.164
url: 117.4.244.81:82/vt/api_active.php
?channel=vtnemo&time=1667499673&ticket=989595905e0f01cd6fe13b3c16105d1c

++++++++++++++++++++++++++++++++++++++++++
2022-11-04 02:26:53--113.188.187.164
url: 117.4.244.81:82/vt/api_active.php
?channel=vtnemo&time=1667500011&ticket=bca5904e901a7df1f2d8313e174ecef2

++++++++++++++++++++++++++++++++++++++++++
2022-11-04 02:57:47--113.188.187.164
url: 117.4.244.81:82/vt/api_active.php
?channel=vtnemo&time=1667501865&ticket=d5269ff52bdf5056b133485f5451f2f4

++++++++++++++++++++++++++++++++++++++++++
2022-11-04 07:59:54--113.188.187.164
url: 117.4.244.81:82/vt/api_active.php
?channel=vtnemo&time=1667519992&ticket=23ce496b183daa9fb965364544ed8416

++++++++++++++++++++++++++++++++++++++++++
2022-11-04 08:40:57--126.253.205.155
url: 117.4.244.81:82/vt/api_active.php
?channel=vtnemo&time=1667522455&ticket=37f4cd576a6aa9e3bd3dbb0dbc30e986

++++++++++++++++++++++++++++++++++++++++++
2022-11-04 10:04:19--113.188.187.164
url: 117.4.244.81:82/vt/api_active.php
?channel=vtnemo&time=1667527457&ticket=f457752c9a2e6f7fd59134564610e215

++++++++++++++++++++++++++++++++++++++++++
2022-11-04 10:11:56--113.188.187.164
url: 117.4.244.81:82/vt/api_active.php
?channel=vtnemo&time=1667527914&ticket=66fa0ab67b0cac5fb170cf2051433c13

++++++++++++++++++++++++++++++++++++++++++
2022-11-04 11:17:24--113.188.187.164
url: 117.4.244.81:82/vt/api_active.php
?channel=vtnemo&time=1667531842&ticket=fe96cbac54e3c63cec073fea2c895c4f

++++++++++++++++++++++++++++++++++++++++++
2022-11-04 13:08:28--113.185.45.155
url: 117.4.244.81:82/vt/api_active.php
?channel=vtnemo&time=1667538507&ticket=a43619fb1fcf9f011819e4287c6743cd

++++++++++++++++++++++++++++++++++++++++++
2022-11-04 13:13:03--113.188.187.164
url: 117.4.244.81:82/vt/api_active.php
?channel=vtnemo&time=1667538781&ticket=8a425a8a5af4b79fd96f18cddac3f529

++++++++++++++++++++++++++++++++++++++++++
2022-11-04 13:16:03--113.188.187.164
url: 117.4.244.81:82/vt/api_active.php
?channel=vtnemo&time=1667538961&ticket=b483e31919e557f047ae14a7281f17f8

++++++++++++++++++++++++++++++++++++++++++
2022-11-04 13:23:47--113.188.187.164
url: 117.4.244.81:82/vt/api_active.php
?channel=vtnemo&time=1667539425&ticket=0886985990467d21c94ccd049bb29667

++++++++++++++++++++++++++++++++++++++++++
2022-11-04 14:06:04--126.253.205.155
url: 117.4.244.81:82/vt/api_active.php
?channel=vtnemo&time=1667541962&ticket=d270116900604ee3e0d29c351a3dce78

++++++++++++++++++++++++++++++++++++++++++
2022-11-04 16:26:43--113.188.187.164
url: 117.4.244.81:82/vt/api_active.php
?channel=vtnemo&time=1667550401&ticket=f8e81c84aad45c4809af8df0d2f4b568

++++++++++++++++++++++++++++++++++++++++++
2022-11-04 17:22:00--136.158.25.154
url: 117.4.244.81:82/vt/api_active.php
?channel=vtnemo&time=1667553721&ticket=7fe2a7e00fc79af1caa463be4d85b924

++++++++++++++++++++++++++++++++++++++++++
2022-11-04 19:31:29--113.188.187.164
url: 117.4.244.81:82/vt/api_active.php
?channel=vtnemo&time=1667561487&ticket=5b8992f28df68257bea15a772c63352e

++++++++++++++++++++++++++++++++++++++++++
2022-11-04 19:51:30--113.188.187.164
url: 117.4.244.81:82/vt/api_active.php
?channel=vtnemo&time=1667562688&ticket=ee7b0cf64bd7a1b0ad61ca38c42fb16f

++++++++++++++++++++++++++++++++++++++++++
2022-11-04 19:58:34--113.188.187.164
url: 117.4.244.81:82/vt/api_active.php
?channel=vtnemo&time=1667563112&ticket=fe34288f3fb8b6edb8da15ae686528a0

++++++++++++++++++++++++++++++++++++++++++
2022-11-04 20:02:08--113.188.187.164
url: 117.4.244.81:82/vt/api_active.php
?channel=vtnemo&time=1667563326&ticket=05c2124ef4efb028af1d96353e65f298

++++++++++++++++++++++++++++++++++++++++++
2022-11-04 20:54:21--113.188.187.164
url: 117.4.244.81:82/vt/api_active.php
?channel=vtnemo&time=1667566459&ticket=b21ff3b2cd3659a8579773b8cc20000f

++++++++++++++++++++++++++++++++++++++++++
2022-11-04 21:03:40--113.188.187.164
url: 117.4.244.81:82/vt/api_active.php
?channel=vtnemo&time=1667567018&ticket=4eb32b871001dfd9529bced22e9413df

++++++++++++++++++++++++++++++++++++++++++
2022-11-04 22:40:49--113.188.187.164
url: 117.4.244.81:82/vt/api_active.php
?channel=vtnemo&time=1667572846&ticket=dd254ee6e98c6ed676a77d9acb83d21f

++++++++++++++++++++++++++++++++++++++++++
2022-11-04 23:02:58--113.188.187.164
url: 117.4.244.81:82/vt/api_active.php
?channel=vtnemo&time=1667574176&ticket=0c60a11feeae8c388978658ae7255be3
