
++++++++++++++++++++++++++++++++++++++++++
2022-10-07 18:53:33 -- 123.22.223.187
code:1 -- msg:success
data:{"is_white":0,"zone_list":[{"name":"\u65b01\u533a","list":[1,2]}],"server_list":{"1":{"server_id":"1","description":"Kieu Phong","game_ip":"117.4.244.81","game_port":"9000","otime":"1581213600","visible_time":"1579795200","hot_state":"0","recom_state":"1","default":"1","stop_service_describe":""},"2":{"server_id":"2","description":"Chua Ra","game_ip":"117.4.244.81","game_port":"9001","otime":"1581323219","visible_time":"1580486400","hot_state":"0","recom_state":"0","default":"1","stop_service_describe":""}},"person_list":[]}
url: 117.4.244.81:82/vt/api_server.php
?ticket=78103295b1073dfd4c8d95507dc93662&device_id=7ebbc1363bc7ee1cf260e0795096119d&time=1665140012&channel=vtnemo&ios_version=18379&accname=123qaz

++++++++++++++++++++++++++++++++++++++++++
2022-10-07 19:08:20 -- 113.184.126.255
code:1 -- msg:success
data:{"is_white":0,"zone_list":[{"name":"\u65b01\u533a","list":[1,2]}],"server_list":{"1":{"server_id":"1","description":"Kieu Phong","game_ip":"117.4.244.81","game_port":"9000","otime":"1581213600","visible_time":"1579795200","hot_state":"0","recom_state":"1","default":"1","stop_service_describe":""},"2":{"server_id":"2","description":"Chua Ra","game_ip":"117.4.244.81","game_port":"9001","otime":"1581323219","visible_time":"1580486400","hot_state":"0","recom_state":"0","default":"1","stop_service_describe":""}},"person_list":[]}
url: 117.4.244.81:82/vt/api_server.php
?ios_version=18379&device_id=d9957757b5fa940d71c1eb0e424bcb2b&ticket=674ddcc890e3951df65b39965717117e&time=1665140899&channel=vtnemo&accname=nghiadz

++++++++++++++++++++++++++++++++++++++++++
2022-10-07 21:43:53 -- 1.52.162.235
code:1 -- msg:success
data:{"is_white":0,"zone_list":[{"name":"\u65b01\u533a","list":[1,2]}],"server_list":{"1":{"server_id":"1","description":"Kieu Phong","game_ip":"117.4.244.81","game_port":"9000","otime":"1581213600","visible_time":"1579795200","hot_state":"0","recom_state":"1","default":"1","stop_service_describe":""},"2":{"server_id":"2","description":"Chua Ra","game_ip":"117.4.244.81","game_port":"9001","otime":"1581323219","visible_time":"1580486400","hot_state":"0","recom_state":"0","default":"1","stop_service_describe":""}},"person_list":[]}
url: 117.4.244.81:82/vt/api_server.php
?time=1665150233&ios_version=18379&channel=vtnemo&device_id=3e3872998bbfe24b8ae490f5a23c09f1&ticket=c0a5fda7ce05667473fe9b9e817df365&accname=khoailazz
