
++++++++++++++++++++++++++++++++++++++++++
2022-11-18 01:24:08 -- 1.54.176.179
code:1 -- msg:success
data:{"platform":"10000","game_id":"111","is_pay":"1","admin_url":"http:\/\/117.4.244.81:82\/","res_url":"http:\/\/117.4.244.81:82\/dev\/","version_url":"http:\/\/117.4.244.81:82\/dev\/","verify_url":"vt\/api_verify.php","server_url":"vt\/api_server.php","order_url":"vt\/api_order.php","reg_url":"vt\/api_insert_reg.php","update_url":"vt\/api_update_info.php","notice_url":"vt\/api_notice.php","error_url":"vt\/api_client_error.php","card_url":"vt\/api_card.php","pos_url":"vt\/api_pos.php","photo_upload_url":"wx\/show\/head_photo_upload.php","photo_show_url":"http:\/\/183.6.169.170:7511\/wx\/show\/"}
url: 117.4.244.81:82/vt/api_active.php
?channel=vtnemo&time=1668705847&ticket=14bdb8385f79745384a20f4b3abb2e13

++++++++++++++++++++++++++++++++++++++++++
2022-11-18 01:33:05 -- 1.54.176.179
code:1 -- msg:success
data:{"platform":"10000","game_id":"111","is_pay":"1","admin_url":"http:\/\/117.4.244.81:82\/","res_url":"http:\/\/117.4.244.81:82\/dev\/","version_url":"http:\/\/117.4.244.81:82\/dev\/","verify_url":"vt\/api_verify.php","server_url":"vt\/api_server.php","order_url":"vt\/api_order.php","reg_url":"vt\/api_insert_reg.php","update_url":"vt\/api_update_info.php","notice_url":"vt\/api_notice.php","error_url":"vt\/api_client_error.php","card_url":"vt\/api_card.php","pos_url":"vt\/api_pos.php","photo_upload_url":"wx\/show\/head_photo_upload.php","photo_show_url":"http:\/\/183.6.169.170:7511\/wx\/show\/"}
url: 117.4.244.81:82/vt/api_active.php
?channel=vtnemo&time=1668706384&ticket=d6706c2e6e1cd07e9a0edcc1061edc14

++++++++++++++++++++++++++++++++++++++++++
2022-11-18 02:42:46 -- 1.54.176.179
code:1 -- msg:success
data:{"platform":"10000","game_id":"111","is_pay":"1","admin_url":"http:\/\/117.4.244.81:82\/","res_url":"http:\/\/117.4.244.81:82\/dev\/","version_url":"http:\/\/117.4.244.81:82\/dev\/","verify_url":"vt\/api_verify.php","server_url":"vt\/api_server.php","order_url":"vt\/api_order.php","reg_url":"vt\/api_insert_reg.php","update_url":"vt\/api_update_info.php","notice_url":"vt\/api_notice.php","error_url":"vt\/api_client_error.php","card_url":"vt\/api_card.php","pos_url":"vt\/api_pos.php","photo_upload_url":"wx\/show\/head_photo_upload.php","photo_show_url":"http:\/\/183.6.169.170:7511\/wx\/show\/"}
url: 117.4.244.81:82/vt/api_active.php
?channel=vtnemo&time=1668710565&ticket=603c74f76ac39097e789faa038c4a8ae

++++++++++++++++++++++++++++++++++++++++++
2022-11-18 02:57:40 -- 136.158.25.244
code:1 -- msg:success
data:{"platform":"10000","game_id":"111","is_pay":"1","admin_url":"http:\/\/117.4.244.81:82\/","res_url":"http:\/\/117.4.244.81:82\/dev\/","version_url":"http:\/\/117.4.244.81:82\/dev\/","verify_url":"vt\/api_verify.php","server_url":"vt\/api_server.php","order_url":"vt\/api_order.php","reg_url":"vt\/api_insert_reg.php","update_url":"vt\/api_update_info.php","notice_url":"vt\/api_notice.php","error_url":"vt\/api_client_error.php","card_url":"vt\/api_card.php","pos_url":"vt\/api_pos.php","photo_upload_url":"wx\/show\/head_photo_upload.php","photo_show_url":"http:\/\/183.6.169.170:7511\/wx\/show\/"}
url: 117.4.244.81:82/vt/api_active.php
?channel=vtnemo&time=1668711459&ticket=732bda9551fe3c14331b13063805f898

++++++++++++++++++++++++++++++++++++++++++
2022-11-18 03:20:12 -- 1.54.176.179
code:1 -- msg:success
data:{"platform":"10000","game_id":"111","is_pay":"1","admin_url":"http:\/\/117.4.244.81:82\/","res_url":"http:\/\/117.4.244.81:82\/dev\/","version_url":"http:\/\/117.4.244.81:82\/dev\/","verify_url":"vt\/api_verify.php","server_url":"vt\/api_server.php","order_url":"vt\/api_order.php","reg_url":"vt\/api_insert_reg.php","update_url":"vt\/api_update_info.php","notice_url":"vt\/api_notice.php","error_url":"vt\/api_client_error.php","card_url":"vt\/api_card.php","pos_url":"vt\/api_pos.php","photo_upload_url":"wx\/show\/head_photo_upload.php","photo_show_url":"http:\/\/183.6.169.170:7511\/wx\/show\/"}
url: 117.4.244.81:82/vt/api_active.php
?channel=vtnemo&time=1668712811&ticket=2f65514ae64655682999c80cf3bc66db

++++++++++++++++++++++++++++++++++++++++++
2022-11-18 20:39:06 -- 58.186.71.113
code:1 -- msg:success
data:{"platform":"10000","game_id":"111","is_pay":"1","admin_url":"http:\/\/117.4.244.81:82\/","res_url":"http:\/\/117.4.244.81:82\/dev\/","version_url":"http:\/\/117.4.244.81:82\/dev\/","verify_url":"vt\/api_verify.php","server_url":"vt\/api_server.php","order_url":"vt\/api_order.php","reg_url":"vt\/api_insert_reg.php","update_url":"vt\/api_update_info.php","notice_url":"vt\/api_notice.php","error_url":"vt\/api_client_error.php","card_url":"vt\/api_card.php","pos_url":"vt\/api_pos.php","photo_upload_url":"wx\/show\/head_photo_upload.php","photo_show_url":"http:\/\/183.6.169.170:7511\/wx\/show\/"}
url: 117.4.244.81:82/vt/api_active.php
?channel=vtnemo&time=1668775097&ticket=e650ef784ee0c8585db2f32f1dc60bb5

++++++++++++++++++++++++++++++++++++++++++
2022-11-18 20:41:45 -- 58.186.71.113
code:1 -- msg:success
data:{"platform":"10000","game_id":"111","is_pay":"1","admin_url":"http:\/\/117.4.244.81:82\/","res_url":"http:\/\/117.4.244.81:82\/dev\/","version_url":"http:\/\/117.4.244.81:82\/dev\/","verify_url":"vt\/api_verify.php","server_url":"vt\/api_server.php","order_url":"vt\/api_order.php","reg_url":"vt\/api_insert_reg.php","update_url":"vt\/api_update_info.php","notice_url":"vt\/api_notice.php","error_url":"vt\/api_client_error.php","card_url":"vt\/api_card.php","pos_url":"vt\/api_pos.php","photo_upload_url":"wx\/show\/head_photo_upload.php","photo_show_url":"http:\/\/183.6.169.170:7511\/wx\/show\/"}
url: 117.4.244.81:82/vt/api_active.php
?channel=vtnemo&time=1668775304&ticket=1a02159de38a6bc65aeca1bc87b16b11

++++++++++++++++++++++++++++++++++++++++++
2022-11-18 22:57:56 -- 58.186.71.113
code:1 -- msg:success
data:{"platform":"10000","game_id":"111","is_pay":"1","admin_url":"http:\/\/117.4.244.81:82\/","res_url":"http:\/\/117.4.244.81:82\/dev\/","version_url":"http:\/\/117.4.244.81:82\/dev\/","verify_url":"vt\/api_verify.php","server_url":"vt\/api_server.php","order_url":"vt\/api_order.php","reg_url":"vt\/api_insert_reg.php","update_url":"vt\/api_update_info.php","notice_url":"vt\/api_notice.php","error_url":"vt\/api_client_error.php","card_url":"vt\/api_card.php","pos_url":"vt\/api_pos.php","photo_upload_url":"wx\/show\/head_photo_upload.php","photo_show_url":"http:\/\/183.6.169.170:7511\/wx\/show\/"}
url: 117.4.244.81:82/vt/api_active.php
?channel=vtnemo&time=1668783474&ticket=cd14c207e071a7c917f598e8f9fefcd1
