
++++++++++++++++++++++++++++++++++++++++++
2022-09-13 14:14:54 -- 116.109.53.24
code:1 -- msg:success
data:{"platform":"10000","game_id":"111","is_pay":"1","admin_url":"http:\/\/117.4.244.81:82\/","res_url":"http:\/\/117.4.244.81:82\/dev\/","version_url":"http:\/\/117.4.244.81:82\/dev\/","verify_url":"vt\/api_verify.php","server_url":"vt\/api_server.php","order_url":"vt\/api_order.php","reg_url":"vt\/api_insert_reg.php","update_url":"vt\/api_update_info.php","notice_url":"vt\/api_notice.php","error_url":"vt\/api_client_error.php","card_url":"vt\/api_card.php","pos_url":"vt\/api_pos.php","photo_upload_url":"wx\/show\/head_photo_upload.php","photo_show_url":"http:\/\/183.6.169.170:7511\/wx\/show\/"}
url: 117.4.244.81:82/vt/api_active.php
?channel=vtnemo&time=1663049693&ticket=dfdd72bcbceda7dcf2ae6fbf9adf921c

++++++++++++++++++++++++++++++++++++++++++
2022-09-13 14:23:42 -- 116.109.53.24
code:1 -- msg:success
data:{"platform":"10000","game_id":"111","is_pay":"1","admin_url":"http:\/\/117.4.244.81:82\/","res_url":"http:\/\/117.4.244.81:82\/dev\/","version_url":"http:\/\/117.4.244.81:82\/dev\/","verify_url":"vt\/api_verify.php","server_url":"vt\/api_server.php","order_url":"vt\/api_order.php","reg_url":"vt\/api_insert_reg.php","update_url":"vt\/api_update_info.php","notice_url":"vt\/api_notice.php","error_url":"vt\/api_client_error.php","card_url":"vt\/api_card.php","pos_url":"vt\/api_pos.php","photo_upload_url":"wx\/show\/head_photo_upload.php","photo_show_url":"http:\/\/183.6.169.170:7511\/wx\/show\/"}
url: 117.4.244.81:82/vt/api_active.php
?channel=vtnemo&time=1663050221&ticket=981b4937ddec2d8ceccf70cf0926968c
