
++++++++++++++++++++++++++++++++++++++++++
2022-07-17 03:25:42--117.4.244.81
url: 117.4.244.81:82/vt/api_active.php
?channel=vtnemo&time=1657999542&ticket=cd05cad807516a83ed7a25718331716a

++++++++++++++++++++++++++++++++++++++++++
2022-07-17 03:26:59--171.229.114.111
url: 117.4.244.81:82/vt/api_active.php
?channel=vtnemo&time=1657999619&ticket=f0752da46fb04dca9f8bd34c0e46127a

++++++++++++++++++++++++++++++++++++++++++
2022-07-17 03:29:38--117.4.244.81
url: 117.4.244.81:82/vt/api_active.php
?channel=vtnemo&time=1657999778&ticket=1a012ffcdf182ec8c044959fc5d856bb

++++++++++++++++++++++++++++++++++++++++++
2022-07-17 04:02:58--117.1.222.3
url: 117.4.244.81:82/vt/api_active.php
?channel=vtnemo&time=1658001779&ticket=986148473273feafae205b9f69286262

++++++++++++++++++++++++++++++++++++++++++
2022-07-17 04:06:12--117.1.222.3
url: 117.4.244.81:82/vt/api_active.php
?channel=vtnemo&time=1658001974&ticket=7b9bde6282867cb45343acb0c77522c3

++++++++++++++++++++++++++++++++++++++++++
2022-07-17 10:46:53--171.229.114.111
url: 117.4.244.81:82/vt/api_active.php
?channel=vtnemo&time=1658026013&ticket=93690b5de21c93d5f360b8d7ef286722

++++++++++++++++++++++++++++++++++++++++++
2022-07-17 11:00:29--117.1.222.3
url: 117.4.244.81:82/vt/api_active.php
?channel=vtnemo&time=1658026831&ticket=062492d8634a296c6263c4d85f388724

++++++++++++++++++++++++++++++++++++++++++
2022-07-17 11:08:32--58.187.163.49
url: 117.4.244.81:82/vt/api_active.php
?channel=vtnemo&time=1658027308&ticket=38617ad8753c17d6d661a0b33356a195

++++++++++++++++++++++++++++++++++++++++++
2022-07-17 11:11:10--58.187.163.49
url: 117.4.244.81:82/vt/api_active.php
?channel=vtnemo&time=1658027469&ticket=8cd4bd67d414ada3323234625fdc8d57

++++++++++++++++++++++++++++++++++++++++++
2022-07-17 11:15:28--58.187.163.49
url: 117.4.244.81:82/vt/api_active.php
?channel=vtnemo&time=1658027726&ticket=00b1541ebd7acd075b3dd9391f5bb13e

++++++++++++++++++++++++++++++++++++++++++
2022-07-17 11:20:01--58.187.163.49
url: 117.4.244.81:82/vt/api_active.php
?channel=vtnemo&time=1658027999&ticket=e278395db50102989a9cc37013dd97f2

++++++++++++++++++++++++++++++++++++++++++
2022-07-17 11:21:44--58.187.163.49
url: 117.4.244.81:82/vt/api_active.php
?channel=vtnemo&time=1658028102&ticket=ba2223281eccac529257b5f5fc97fdba

++++++++++++++++++++++++++++++++++++++++++
2022-07-17 11:22:57--58.187.163.49
url: 117.4.244.81:82/vt/api_active.php
?channel=vtnemo&time=1658028175&ticket=29bf7533da2f8e8f9506b6b227c7f60d

++++++++++++++++++++++++++++++++++++++++++
2022-07-17 11:26:01--113.163.69.183
url: 117.4.244.81:82/vt/api_active.php
?channel=vtnemo&time=1658028361&ticket=abe12bca844b24cfa4196bc1c7201278

++++++++++++++++++++++++++++++++++++++++++
2022-07-17 11:30:57--58.187.163.49
url: 117.4.244.81:82/vt/api_active.php
?channel=vtnemo&time=1658028656&ticket=f724d0b10ad7c061223d634eab9874ec

++++++++++++++++++++++++++++++++++++++++++
2022-07-17 11:33:56--116.99.207.12
url: 117.4.244.81:82/vt/api_active.php
?channel=vtnemo&time=1658028835&ticket=e50237d4e9f0bda53b3720bb45b784fe

++++++++++++++++++++++++++++++++++++++++++
2022-07-17 11:43:43--58.187.163.49
url: 117.4.244.81:82/vt/api_active.php
?channel=vtnemo&time=1658029422&ticket=efb9007c3e13267da90b735f7558282d

++++++++++++++++++++++++++++++++++++++++++
2022-07-17 11:45:16--171.229.114.111
url: 117.4.244.81:82/vt/api_active.php
?channel=vtnemo&time=1658029516&ticket=222f48ced515443860c874c51f41cbd4

++++++++++++++++++++++++++++++++++++++++++
2022-07-17 11:48:16--171.229.114.111
url: 117.4.244.81:82/vt/api_active.php
?channel=vtnemo&time=1658029696&ticket=07cfc58cc2f48fdb9f3acbd42ce79eb4

++++++++++++++++++++++++++++++++++++++++++
2022-07-17 11:48:20--58.187.163.49
url: 117.4.244.81:82/vt/api_active.php
?channel=vtnemo&time=1658029700&ticket=3d869f622bd77d1f5e9ad9dd29a77991

++++++++++++++++++++++++++++++++++++++++++
2022-07-17 11:51:58--171.229.114.111
url: 117.4.244.81:82/vt/api_active.php
?channel=vtnemo&time=1658029918&ticket=bf8ea8aed90aa8c7f33dc58fc69c1d3c

++++++++++++++++++++++++++++++++++++++++++
2022-07-17 11:56:34--116.106.228.172
url: 117.4.244.81:82/vt/api_active.php
?channel=vtnemo&time=1658030193&ticket=605c85e50b59081759f310d612b901a9

++++++++++++++++++++++++++++++++++++++++++
2022-07-17 11:58:24--171.229.114.111
url: 117.4.244.81:82/vt/api_active.php
?channel=vtnemo&time=1658030304&ticket=28010fe150b65bf4b18fbbc317da7d4d

++++++++++++++++++++++++++++++++++++++++++
2022-07-17 12:01:04--58.187.163.49
url: 117.4.244.81:82/vt/api_active.php
?channel=vtnemo&time=1658030464&ticket=3263593d242d753961b1822b82142862

++++++++++++++++++++++++++++++++++++++++++
2022-07-17 12:01:33--117.1.222.3
url: 117.4.244.81:82/vt/api_active.php
?channel=vtnemo&time=1658030496&ticket=0eced3135508a3142aee54a264d2adea

++++++++++++++++++++++++++++++++++++++++++
2022-07-17 12:06:05--58.187.163.49
url: 117.4.244.81:82/vt/api_active.php
?channel=vtnemo&time=1658030763&ticket=bf9f38bad3bfdaf90a126e47ac92ee30

++++++++++++++++++++++++++++++++++++++++++
2022-07-17 12:15:48--58.187.163.49
url: 117.4.244.81:82/vt/api_active.php
?channel=vtnemo&time=1658031346&ticket=75d28f8fd9e692117c41286868386bd1

++++++++++++++++++++++++++++++++++++++++++
2022-07-17 12:18:10--58.187.163.49
url: 117.4.244.81:82/vt/api_active.php
?channel=vtnemo&time=1658031488&ticket=0d4f02c406eb70ab12c74b36610a615d

++++++++++++++++++++++++++++++++++++++++++
2022-07-17 12:23:07--14.182.167.140
url: 117.4.244.81:82/vt/api_active.php
?channel=vtnemo&time=1658031785&ticket=e7c4b1f351e40ca3c2e96515a6b9966a

++++++++++++++++++++++++++++++++++++++++++
2022-07-17 12:26:46--113.185.44.152
url: 117.4.244.81:82/vt/api_active.php
?channel=vtnemo&time=1658032003&ticket=7954a9825d3e6d630c879664865177f3

++++++++++++++++++++++++++++++++++++++++++
2022-07-17 12:28:38--42.1.90.9
url: 117.4.244.81:82/vt/api_active.php
?channel=vtnemo&time=1658032115&ticket=2586ef6d80900706ce2b4b5966f9d926

++++++++++++++++++++++++++++++++++++++++++
2022-07-17 12:30:41--113.183.156.218
url: 117.4.244.81:82/vt/api_active.php
?channel=vtnemo&time=1658032239&ticket=f5affabf49fc204f39b0494d6cd25ecc

++++++++++++++++++++++++++++++++++++++++++
2022-07-17 12:37:47--58.187.163.49
url: 117.4.244.81:82/vt/api_active.php
?channel=vtnemo&time=1658032667&ticket=4c49c2bf4046c1f71283c78e52da2e5a

++++++++++++++++++++++++++++++++++++++++++
2022-07-17 12:38:59--14.243.145.206
url: 117.4.244.81:82/vt/api_active.php
?channel=vtnemo&time=1658032738&ticket=07821607a1eee8ea5f321fdcb7121f2c

++++++++++++++++++++++++++++++++++++++++++
2022-07-17 13:34:28--58.187.163.49
url: 117.4.244.81:82/vt/api_active.php
?channel=vtnemo&time=1658036067&ticket=13bceda165fcd0378c4b68ec520d93b2

++++++++++++++++++++++++++++++++++++++++++
2022-07-17 13:39:41--58.187.163.49
url: 117.4.244.81:82/vt/api_active.php
?channel=vtnemo&time=1658036380&ticket=5be17f4390e943ca05877d966c4a47b6

++++++++++++++++++++++++++++++++++++++++++
2022-07-17 13:52:12--113.185.44.152
url: 117.4.244.81:82/vt/api_active.php
?channel=vtnemo&time=1658037131&ticket=14d8fdaa3824c15d5c6f735e66a92c93

++++++++++++++++++++++++++++++++++++++++++
2022-07-17 14:26:17--42.1.90.9
url: 117.4.244.81:82/vt/api_active.php
?channel=vtnemo&time=1658039177&ticket=e393ca690ef7d108dd318d2cb6758ebc

++++++++++++++++++++++++++++++++++++++++++
2022-07-17 14:27:42--58.187.163.49
url: 117.4.244.81:82/vt/api_active.php
?channel=vtnemo&time=1658039261&ticket=443edf63971d9103f3be00c36357998c

++++++++++++++++++++++++++++++++++++++++++
2022-07-17 14:38:30--58.187.163.49
url: 117.4.244.81:82/vt/api_active.php
?channel=vtnemo&time=1658039909&ticket=b3f11c3827a8e98b64f1d98b7163e84a

++++++++++++++++++++++++++++++++++++++++++
2022-07-17 14:45:03--58.187.163.49
url: 117.4.244.81:82/vt/api_active.php
?channel=vtnemo&time=1658040303&ticket=8db97010793823422db78927c0a7fcf1

++++++++++++++++++++++++++++++++++++++++++
2022-07-17 14:53:21--14.177.27.133
url: 117.4.244.81:82/vt/api_active.php
?channel=vtnemo&time=1658040801&ticket=16b0694f31e373750ac61206a3fd61c6

++++++++++++++++++++++++++++++++++++++++++
2022-07-17 14:58:35--58.187.163.49
url: 117.4.244.81:82/vt/api_active.php
?channel=vtnemo&time=1658041114&ticket=077882c2bd218b034ccbe22a8b91fc06

++++++++++++++++++++++++++++++++++++++++++
2022-07-17 15:28:42--42.1.90.9
url: 117.4.244.81:82/vt/api_active.php
?channel=vtnemo&time=1658042922&ticket=b4337a3142a9aa81c01270ed25be27f3

++++++++++++++++++++++++++++++++++++++++++
2022-07-17 16:31:19--113.185.44.152
url: 117.4.244.81:82/vt/api_active.php
?channel=vtnemo&time=1658046678&ticket=f58456e9711cc0b533eadf95bc6e2337

++++++++++++++++++++++++++++++++++++++++++
2022-07-17 17:03:33--14.177.27.133
url: 117.4.244.81:82/vt/api_active.php
?channel=vtnemo&time=1658048613&ticket=9cef1bc8915436f0d7da47ee78b8a5b9

++++++++++++++++++++++++++++++++++++++++++
2022-07-17 17:14:19--14.177.27.133
url: 117.4.244.81:82/vt/api_active.php
?channel=vtnemo&time=1658049259&ticket=f2b69cc1446799a42b1cec425a4e5ba7

++++++++++++++++++++++++++++++++++++++++++
2022-07-17 17:55:51--117.0.152.188
url: 117.4.244.81:82/vt/api_active.php
?channel=vtnemo&time=1658051755&ticket=752c86aed1a3dd1f43e68cdfb89146bc

++++++++++++++++++++++++++++++++++++++++++
2022-07-17 18:06:19--14.177.27.133
url: 117.4.244.81:82/vt/api_active.php
?channel=vtnemo&time=1658052379&ticket=010b821524b4d8edff95586e385fcf7d

++++++++++++++++++++++++++++++++++++++++++
2022-07-17 18:13:51--59.153.233.177
url: 117.4.244.81:82/vt/api_active.php
?channel=vtnemo&time=1658052830&ticket=1b73628a339d941a8968548355b46655

++++++++++++++++++++++++++++++++++++++++++
2022-07-17 18:26:56--58.187.163.49
url: 117.4.244.81:82/vt/api_active.php
?channel=vtnemo&time=1658053614&ticket=2bed64978413a5d2064faeef3fd3fdf8

++++++++++++++++++++++++++++++++++++++++++
2022-07-17 18:50:29--117.0.152.188
url: 117.4.244.81:82/vt/api_active.php
?channel=vtnemo&time=1658055032&ticket=f33a199925308bc3a51a056c5c147a00

++++++++++++++++++++++++++++++++++++++++++
2022-07-17 19:34:25--118.68.247.240
url: 117.4.244.81:82/vt/api_active.php
?channel=vtnemo&time=1658057664&ticket=72393f5294f2291496f36aeb5bfa40d9

++++++++++++++++++++++++++++++++++++++++++
2022-07-17 19:39:04--118.68.247.240
url: 117.4.244.81:82/vt/api_active.php
?channel=vtnemo&time=1658057943&ticket=6231ea8d7420b94b760132788d84f065

++++++++++++++++++++++++++++++++++++++++++
2022-07-17 19:48:46--14.177.27.133
url: 117.4.244.81:82/vt/api_active.php
?channel=vtnemo&time=1658058526&ticket=cca3d7994bf98df056e669ad78cb65da

++++++++++++++++++++++++++++++++++++++++++
2022-07-17 19:50:30--58.187.163.49
url: 117.4.244.81:82/vt/api_active.php
?channel=vtnemo&time=1658058629&ticket=10aa0595a1f72be8ec0a6049d3a9cc18

++++++++++++++++++++++++++++++++++++++++++
2022-07-17 19:53:10--1.53.12.90
url: 117.4.244.81:82/vt/api_active.php
?channel=vtnemo&time=1658058788&ticket=f044bbab8e1536eb7e453c0f69a342f0

++++++++++++++++++++++++++++++++++++++++++
2022-07-17 20:00:40--118.68.247.240
url: 117.4.244.81:82/vt/api_active.php
?channel=vtnemo&time=1658059239&ticket=03e44b8d4dd7a65d4ae2fff2facc65a1

++++++++++++++++++++++++++++++++++++++++++
2022-07-17 20:06:31--1.53.12.90
url: 117.4.244.81:82/vt/api_active.php
?channel=vtnemo&time=1658059589&ticket=6631c0c6e17bed1c25dee21446051d0e

++++++++++++++++++++++++++++++++++++++++++
2022-07-17 20:08:13--58.187.163.49
url: 117.4.244.81:82/vt/api_active.php
?channel=vtnemo&time=1658059692&ticket=eab46cac2c37ffaa2e45f5defa516177

++++++++++++++++++++++++++++++++++++++++++
2022-07-17 20:21:30--113.183.156.218
url: 117.4.244.81:82/vt/api_active.php
?channel=vtnemo&time=1658060487&ticket=2541ee2b96b5b867286e081b8098277e

++++++++++++++++++++++++++++++++++++++++++
2022-07-17 20:22:23--113.183.156.218
url: 117.4.244.81:82/vt/api_active.php
?channel=vtnemo&time=1658060541&ticket=cbadcac48bacdc838a7fddd291ba36ba

++++++++++++++++++++++++++++++++++++++++++
2022-07-17 20:26:12--1.53.12.90
url: 117.4.244.81:82/vt/api_active.php
?channel=vtnemo&time=1658060771&ticket=7d03e0dc287c5aea4a265fcd630cecde

++++++++++++++++++++++++++++++++++++++++++
2022-07-17 20:38:10--59.153.233.177
url: 117.4.244.81:82/vt/api_active.php
?channel=vtnemo&time=1658061490&ticket=7310f92708d674f22092ade186f341eb

++++++++++++++++++++++++++++++++++++++++++
2022-07-17 20:43:22--115.76.63.77
url: 117.4.244.81:82/vt/api_active.php
?channel=vtnemo&time=1658061805&ticket=857a6c353249a9f846da3653ab723d5f

++++++++++++++++++++++++++++++++++++++++++
2022-07-17 20:48:48--58.187.163.49
url: 117.4.244.81:82/vt/api_active.php
?channel=vtnemo&time=1658062127&ticket=872346b3d6fb52057fbe12cb344b41da

++++++++++++++++++++++++++++++++++++++++++
2022-07-17 21:12:51--58.187.163.49
url: 117.4.244.81:82/vt/api_active.php
?channel=vtnemo&time=1658063570&ticket=d48a96358d8012d13a76ed8b30b85dac

++++++++++++++++++++++++++++++++++++++++++
2022-07-17 21:24:33--14.177.27.133
url: 117.4.244.81:82/vt/api_active.php
?channel=vtnemo&time=1658064272&ticket=6f1702b17dc0178fe4ebcbe16c51a1cb

++++++++++++++++++++++++++++++++++++++++++
2022-07-17 21:26:07--1.53.12.90
url: 117.4.244.81:82/vt/api_active.php
?channel=vtnemo&time=1658064366&ticket=a7510ad587e9752f05cf6a03e5e703bc

++++++++++++++++++++++++++++++++++++++++++
2022-07-17 21:38:20--58.187.163.49
url: 117.4.244.81:82/vt/api_active.php
?channel=vtnemo&time=1658065099&ticket=cab7916fa068e67db5412e547e520b7a

++++++++++++++++++++++++++++++++++++++++++
2022-07-17 21:43:39--14.177.27.133
url: 117.4.244.81:82/vt/api_active.php
?channel=vtnemo&time=1658065419&ticket=d4ebc01f30194832551f1af313dc5f4a

++++++++++++++++++++++++++++++++++++++++++
2022-07-17 21:53:13--113.22.11.8
url: 117.4.244.81:82/vt/api_active.php
?channel=vtnemo&time=1658065992&ticket=09b4ce5f0e5092c8e794c7fa2dab4ff4

++++++++++++++++++++++++++++++++++++++++++
2022-07-17 22:04:49--59.153.233.177
url: 117.4.244.81:82/vt/api_active.php
?channel=vtnemo&time=1658066689&ticket=99ea32dc5cddee32c0371dbe49b18e4f

++++++++++++++++++++++++++++++++++++++++++
2022-07-17 22:15:15--113.22.11.8
url: 117.4.244.81:82/vt/api_active.php
?channel=vtnemo&time=1658067315&ticket=1b4f680bd47b41d12f8a3d92f961c4c4

++++++++++++++++++++++++++++++++++++++++++
2022-07-17 22:17:51--113.22.11.8
url: 117.4.244.81:82/vt/api_active.php
?channel=vtnemo&time=1658067470&ticket=6f250effefbc69e009e06da2c12b2646

++++++++++++++++++++++++++++++++++++++++++
2022-07-17 22:24:24--14.181.35.147
url: 117.4.244.81:82/vt/api_active.php
?channel=vtnemo&time=1658067863&ticket=e394f93b6ecb7ed6c0698ef214216652

++++++++++++++++++++++++++++++++++++++++++
2022-07-17 22:24:44--59.153.233.177
url: 117.4.244.81:82/vt/api_active.php
?channel=vtnemo&time=1658067884&ticket=b97fe90f7157fb2ce34298c489eb2c2b

++++++++++++++++++++++++++++++++++++++++++
2022-07-17 22:25:26--115.76.63.77
url: 117.4.244.81:82/vt/api_active.php
?channel=vtnemo&time=1658067930&ticket=9a6de2ca51a40dd2dbb1992b5a23e121

++++++++++++++++++++++++++++++++++++++++++
2022-07-17 22:29:31--115.76.63.77
url: 117.4.244.81:82/vt/api_active.php
?channel=vtnemo&time=1658068175&ticket=03207a774b269c611be39c8b64e01bad

++++++++++++++++++++++++++++++++++++++++++
2022-07-17 22:44:29--113.185.47.196
url: 117.4.244.81:82/vt/api_active.php
?channel=vtnemo&time=1658069068&ticket=b80dc0973d714de6369fe3201006a388

++++++++++++++++++++++++++++++++++++++++++
2022-07-17 22:48:41--118.68.247.240
url: 117.4.244.81:82/vt/api_active.php
?channel=vtnemo&time=1658069320&ticket=873616e3aa30cc749d8c5f1e64844ae0

++++++++++++++++++++++++++++++++++++++++++
2022-07-17 22:57:07--58.187.163.49
url: 117.4.244.81:82/vt/api_active.php
?channel=vtnemo&time=1658069826&ticket=acc76a97f664a7a02b892eac2786d314

++++++++++++++++++++++++++++++++++++++++++
2022-07-17 23:21:25--113.22.11.8
url: 117.4.244.81:82/vt/api_active.php
?channel=vtnemo&time=1658071284&ticket=5e0407a2f3a5b7d4d2c2b0768d514223

++++++++++++++++++++++++++++++++++++++++++
2022-07-17 23:25:21--203.210.253.204
url: 117.4.244.81:82/vt/api_active.php
?channel=vtnemo&time=1658071522&ticket=4015946088fa3c8779a1546e66b8a490

++++++++++++++++++++++++++++++++++++++++++
2022-07-17 23:31:50--58.187.163.49
url: 117.4.244.81:82/vt/api_active.php
?channel=vtnemo&time=1658071909&ticket=63c9295f24dcfb2fad479ca2c2f37592

++++++++++++++++++++++++++++++++++++++++++
2022-07-17 23:35:49--115.76.50.153
url: 117.4.244.81:82/vt/api_active.php
?channel=vtnemo&time=1658072147&ticket=7142b14309da6e8bb20484b041f7d3ce

++++++++++++++++++++++++++++++++++++++++++
2022-07-17 23:40:27--14.243.145.206
url: 117.4.244.81:82/vt/api_active.php
?channel=vtnemo&time=1658072426&ticket=694be74c0184ea009976ea4e06dbfd62

++++++++++++++++++++++++++++++++++++++++++
2022-07-17 23:49:14--27.3.149.67
url: 117.4.244.81:82/vt/api_active.php
?channel=vtnemo&time=1658072953&ticket=d5d9289dd37ec06b45e56b58fbcd3881

++++++++++++++++++++++++++++++++++++++++++
2022-07-17 23:53:23--113.22.11.8
url: 117.4.244.81:82/vt/api_active.php
?channel=vtnemo&time=1658073203&ticket=a6795489400950f308b80574a29d2b27

++++++++++++++++++++++++++++++++++++++++++
2022-07-17 23:58:36--27.3.149.67
url: 117.4.244.81:82/vt/api_active.php
?channel=vtnemo&time=1658073515&ticket=46bccb533895146d581fdd279ea8c7ff
