
++++++++++++++++++++++++++++++++++++++++++
2022-11-03 02:33:09--136.158.25.154
url: 117.4.244.81:82/vt/api_update_info.php
?time=1667413992&server_id=1&nickname=V%C3%B4Ng%C3%A3&ticket=688f1402902869490c358720f8f331bf&last_login_server=1&level=75&channel=vtnemo&accname=shacojx&role_id=24420370886656

++++++++++++++++++++++++++++++++++++++++++
2022-11-03 05:56:49--113.185.40.245
url: 117.4.244.81:82/vt/api_update_info.php
?time=1667426209&last_login_server=1&accname=aechoivui&nickname=hiha&channel=vtnemo&level=96&ticket=2ac7b99128bd559415658b835a325358&role_id=24383485521920&server_id=1

++++++++++++++++++++++++++++++++++++++++++
2022-11-03 12:02:50--136.158.25.154
url: 117.4.244.81:82/vt/api_update_info.php
?role_id=24420370886656&level=89&accname=shacojx&last_login_server=1&ticket=d74d8996c9340c22eadeb9d532ae1125&nickname=V%C3%B4Ng%C3%A3&channel=vtnemo&time=1667448170&server_id=1

++++++++++++++++++++++++++++++++++++++++++
2022-11-03 14:02:27--136.158.25.154
url: 117.4.244.81:82/vt/api_update_info.php
?time=1667455347&last_login_server=1&role_id=24420370886656&channel=vtnemo&nickname=V%C3%B4Ng%C3%A3&ticket=b23110c817e9287150978411f91e608b&accname=shacojx&server_id=1&level=93

++++++++++++++++++++++++++++++++++++++++++
2022-11-03 14:08:48--113.185.40.93
url: 117.4.244.81:82/vt/api_update_info.php
?channel=vtnemo&level=96&time=1667455727&server_id=1&role_id=24383485521920&ticket=67f3da6b6012fb7aad6241c04afb78f3&last_login_server=1&nickname=hiha&accname=aechoivui

++++++++++++++++++++++++++++++++++++++++++
2022-11-03 15:49:39--113.185.40.85
url: 117.4.244.81:82/vt/api_update_info.php
?level=98&last_login_server=1&ticket=dbfaf32575f993804e88ede0c06c6e50&accname=aechoivui&nickname=hiha&time=1667461779&role_id=24383485521920&channel=vtnemo&server_id=1

++++++++++++++++++++++++++++++++++++++++++
2022-11-03 16:23:30--136.158.25.154
url: 117.4.244.81:82/vt/api_update_info.php
?accname=shacojx&channel=vtnemo&ticket=296dba5f273cd7c89accaaad89bed93b&time=1667463810&server_id=1&role_id=24420370886656&last_login_server=1&nickname=V%C3%B4Ng%C3%A3&level=95

++++++++++++++++++++++++++++++++++++++++++
2022-11-03 20:26:52--113.185.40.166
url: 117.4.244.81:82/vt/api_update_info.php
?time=1667478411&role_id=24383485521920&level=98&server_id=1&channel=vtnemo&ticket=84fb2b2a634e4090c4617b8a91844aeb&last_login_server=1&accname=aechoivui&nickname=hiha

++++++++++++++++++++++++++++++++++++++++++
2022-11-03 22:37:06--136.158.25.154
url: 117.4.244.81:82/vt/api_update_info.php
?accname=shacojx&nickname=V%C3%B4Ng%C3%A3&role_id=24420370886656&ticket=a7e8a6e73607483dfb6309545e838469&time=1667486226&level=95&last_login_server=1&channel=vtnemo&server_id=1

++++++++++++++++++++++++++++++++++++++++++
2022-11-03 22:47:31--153.242.91.10
url: 117.4.244.81:82/vt/api_update_info.php
?ticket=e256eccdf81cdaaf3137b803fcce60f2&level=6&server_id=1&time=1667486850&accname=quangsach&role_id=24422211473408&nickname=%E3%83%A0%E3%83%B3%E3%81%A1%E3%82%83%E3%82%93&last_login_server=1&channel=vtnemo

++++++++++++++++++++++++++++++++++++++++++
2022-11-03 22:54:32--153.242.91.10
url: 117.4.244.81:82/vt/api_update_info.php
?server_id=1&ticket=e7be8c323fcc179b554de03aa8fb692f&nickname=%E3%83%A0%E3%83%B3%E3%81%A1%E3%82%83%E3%82%93&accname=quangsach&level=49&channel=vtnemo&time=1667487271&role_id=24422211473408&last_login_server=1

++++++++++++++++++++++++++++++++++++++++++
2022-11-03 23:02:43--133.106.47.242
url: 117.4.244.81:82/vt/api_update_info.php
?accname=quangsach&channel=vtnemo&role_id=24422211473408&last_login_server=1&server_id=1&level=49&ticket=e713b14f088556cd8d7c1d55eb7f4bb7&time=1667487762&nickname=%E3%83%A0%E3%83%B3%E3%81%A1%E3%82%83%E3%82%93

++++++++++++++++++++++++++++++++++++++++++
2022-11-03 23:04:47--113.188.187.164
url: 117.4.244.81:82/vt/api_update_info.php
?role_id=24422211739648&last_login_server=1&channel=vtnemo&time=1667487885&ticket=effcc424af04584ebe11d44f7580a9ef&nickname=S%E1%BB%91ngC%C3%B2n&accname=tinogom&level=49&server_id=1

++++++++++++++++++++++++++++++++++++++++++
2022-11-03 23:05:01--136.158.25.154
url: 117.4.244.81:82/vt/api_update_info.php
?ticket=edc473d23edf07b8767318cedc715e50&last_login_server=1&level=95&role_id=24420370886656&nickname=V%C3%B4Ng%C3%A3&time=1667487901&channel=vtnemo&accname=shacojx&server_id=1

++++++++++++++++++++++++++++++++++++++++++
2022-11-03 23:45:34--113.188.187.164
url: 117.4.244.81:82/vt/api_update_info.php
?ticket=a8e72dc13589a9dd3c4728b2a6e09b79&nickname=S%E1%BB%91ngC%C3%B2n&level=56&server_id=1&channel=vtnemo&time=1667490332&last_login_server=1&role_id=24422211739648&accname=tinogom
