2022-11-19 21:00:00.809 [error] <0.136.0>@svr_group:handle_cast:119 Group Server no initiate yet ! Ignore Msg: {dispatch_activity,start_activity,#{callback => svr_dynasty_war_mgr,callback2 => undefined,cluster => 0,end_time => 1668868200,group => true,group_id => 0,id => 6001,index => 0,op_id => 0,open_list => [{1,-1,0,[1,2,3,4,5,6,7]}],schedule => [{2,1800},{3,0}],server_list => [],start_time => 1668866400,state => 2,type => 6}}
2022-11-19 21:30:00.611 [error] <0.136.0>@svr_group:handle_cast:119 Group Server no initiate yet ! Ignore Msg: {dispatch_activity,stop_activity,#{callback => svr_dynasty_war_mgr,callback2 => undefined,cluster => 0,end_time => 1668868200,group => true,group_id => 0,id => 6001,index => 0,op_id => 0,open_list => [{1,-1,0,[1,2,3,4,5,6,7]}],schedule => [{2,1800},{3,0}],server_list => [],start_time => 1668868200,state => 3,type => 6}}
2022-11-19 21:31:00.671 [error] <0.136.0>@svr_group:handle_cast:119 Group Server no initiate yet ! Ignore Msg: {dispatch_activity,remove_activity,#{callback => svr_dynasty_war_mgr,callback2 => undefined,cluster => 0,end_time => 1668868200,group => true,group_id => 0,id => 6001,index => 0,op_id => 0,open_list => [{1,-1,0,[1,2,3,4,5,6,7]}],schedule => [{2,1800},{3,0}],server_list => [],start_time => 1668868200,state => 3,type => 6}}
