2022-11-18 00:00:08.352 [info] <0.134.0>@svr_global_timer:do_daily_logic:122 svr_logic_timer, do_daily_logic
2022-11-18 14:00:00.104 [info] <0.138.0>@lib_activity:start_activity:700 start activity 6001 in {{2022,11,18},{14,0,0}}
2022-11-18 14:00:00.104 [error] <0.136.0>@svr_group:handle_cast:119 Group Server no initiate yet ! Ignore Msg: {dispatch_activity,start_activity,#{callback => svr_dynasty_war_mgr,callback2 => undefined,cluster => 0,end_time => 1668756600,group => true,group_id => 0,id => 6001,index => 0,op_id => 0,open_list => [{1,-1,0,[1,2,3,4,5,6,7]}],schedule => [{2,1800},{3,0}],server_list => [],start_time => 1668754800,state => 2,type => 6}}
2022-11-18 14:30:00.911 [info] <0.138.0>@lib_activity:stop_activity:716 stop activity 6001 in {{2022,11,18},{14,30,0}}
2022-11-18 14:30:00.911 [error] <0.136.0>@svr_group:handle_cast:119 Group Server no initiate yet ! Ignore Msg: {dispatch_activity,stop_activity,#{callback => svr_dynasty_war_mgr,callback2 => undefined,cluster => 0,end_time => 1668756600,group => true,group_id => 0,id => 6001,index => 0,op_id => 0,open_list => [{1,-1,0,[1,2,3,4,5,6,7]}],schedule => [{2,1800},{3,0}],server_list => [],start_time => 1668756600,state => 3,type => 6}}
2022-11-18 14:31:00.971 [info] <0.138.0>@lib_activity:remove_activity:735 remove activity 6001 in {{2022,11,18},{14,31,0}}
2022-11-18 14:31:00.971 [error] <0.136.0>@svr_group:handle_cast:119 Group Server no initiate yet ! Ignore Msg: {dispatch_activity,remove_activity,#{callback => svr_dynasty_war_mgr,callback2 => undefined,cluster => 0,end_time => 1668756600,group => true,group_id => 0,id => 6001,index => 0,op_id => 0,open_list => [{1,-1,0,[1,2,3,4,5,6,7]}],schedule => [{2,1800},{3,0}],server_list => [],start_time => 1668756600,state => 3,type => 6}}
2022-11-18 21:00:00.443 [info] <0.138.0>@lib_activity:start_activity:700 start activity 6001 in {{2022,11,18},{21,0,0}}
2022-11-18 21:00:00.444 [error] <0.136.0>@svr_group:handle_cast:119 Group Server no initiate yet ! Ignore Msg: {dispatch_activity,start_activity,#{callback => svr_dynasty_war_mgr,callback2 => undefined,cluster => 0,end_time => 1668781800,group => true,group_id => 0,id => 6001,index => 0,op_id => 0,open_list => [{1,-1,0,[1,2,3,4,5,6,7]}],schedule => [{2,1800},{3,0}],server_list => [],start_time => 1668780000,state => 2,type => 6}}
2022-11-18 21:30:00.248 [info] <0.138.0>@lib_activity:stop_activity:716 stop activity 6001 in {{2022,11,18},{21,30,0}}
2022-11-18 21:30:00.248 [error] <0.136.0>@svr_group:handle_cast:119 Group Server no initiate yet ! Ignore Msg: {dispatch_activity,stop_activity,#{callback => svr_dynasty_war_mgr,callback2 => undefined,cluster => 0,end_time => 1668781800,group => true,group_id => 0,id => 6001,index => 0,op_id => 0,open_list => [{1,-1,0,[1,2,3,4,5,6,7]}],schedule => [{2,1800},{3,0}],server_list => [],start_time => 1668781800,state => 3,type => 6}}
2022-11-18 21:31:00.309 [info] <0.138.0>@lib_activity:remove_activity:735 remove activity 6001 in {{2022,11,18},{21,31,0}}
2022-11-18 21:31:00.309 [error] <0.136.0>@svr_group:handle_cast:119 Group Server no initiate yet ! Ignore Msg: {dispatch_activity,remove_activity,#{callback => svr_dynasty_war_mgr,callback2 => undefined,cluster => 0,end_time => 1668781800,group => true,group_id => 0,id => 6001,index => 0,op_id => 0,open_list => [{1,-1,0,[1,2,3,4,5,6,7]}],schedule => [{2,1800},{3,0}],server_list => [],start_time => 1668781800,state => 3,type => 6}}
