2022-11-19 00:00:09.800 [info] <0.134.0>@svr_global_timer:do_daily_logic:122 svr_logic_timer, do_daily_logic
2022-11-19 16:28:01.451 [info] <0.132.0>@svr_global_timer:start_link:37 Starting [svr_global_timer] ...
2022-11-19 21:00:00.809 [info] <0.138.0>@lib_activity:start_activity:700 start activity 6001 in {{2022,11,19},{21,0,0}}
2022-11-19 21:00:00.809 [error] <0.136.0>@svr_group:handle_cast:119 Group Server no initiate yet ! Ignore Msg: {dispatch_activity,start_activity,#{callback => svr_dynasty_war_mgr,callback2 => undefined,cluster => 0,end_time => 1668868200,group => true,group_id => 0,id => 6001,index => 0,op_id => 0,open_list => [{1,-1,0,[1,2,3,4,5,6,7]}],schedule => [{2,1800},{3,0}],server_list => [],start_time => 1668866400,state => 2,type => 6}}
2022-11-19 21:30:00.610 [info] <0.138.0>@lib_activity:stop_activity:716 stop activity 6001 in {{2022,11,19},{21,30,0}}
2022-11-19 21:30:00.611 [error] <0.136.0>@svr_group:handle_cast:119 Group Server no initiate yet ! Ignore Msg: {dispatch_activity,stop_activity,#{callback => svr_dynasty_war_mgr,callback2 => undefined,cluster => 0,end_time => 1668868200,group => true,group_id => 0,id => 6001,index => 0,op_id => 0,open_list => [{1,-1,0,[1,2,3,4,5,6,7]}],schedule => [{2,1800},{3,0}],server_list => [],start_time => 1668868200,state => 3,type => 6}}
2022-11-19 21:31:00.670 [info] <0.138.0>@lib_activity:remove_activity:735 remove activity 6001 in {{2022,11,19},{21,31,0}}
2022-11-19 21:31:00.671 [error] <0.136.0>@svr_group:handle_cast:119 Group Server no initiate yet ! Ignore Msg: {dispatch_activity,remove_activity,#{callback => svr_dynasty_war_mgr,callback2 => undefined,cluster => 0,end_time => 1668868200,group => true,group_id => 0,id => 6001,index => 0,op_id => 0,open_list => [{1,-1,0,[1,2,3,4,5,6,7]}],schedule => [{2,1800},{3,0}],server_list => [],start_time => 1668868200,state => 3,type => 6}}
2022-11-19 22:42:04.669 [info] <0.129.0>@svr_node_kf:do_add_nodes:181 Connection between 'tl_k10001100@117.4.244.81' and 'tl_k10001300@117.4.244.81' established !
2022-11-19 22:45:46.596 [info] <0.132.0>@svr_global_timer:start_link:37 Starting [svr_global_timer] ...
2022-11-19 22:45:49.626 [info] <0.129.0>@svr_node_kf:do_add_nodes:181 Connection between 'tl_k10001100@117.4.244.81' and 'tl_k10001300@117.4.244.81' established !
