2022-11-17 00:00:06.908 [info] <0.134.0>@svr_global_timer:do_daily_logic:122 svr_logic_timer, do_daily_logic
2022-11-17 14:00:00.174 [info] <0.138.0>@lib_activity:start_activity:700 start activity 6001 in {{2022,11,17},{14,0,0}}
2022-11-17 14:00:00.174 [error] <0.136.0>@svr_group:handle_cast:119 Group Server no initiate yet ! Ignore Msg: {dispatch_activity,start_activity,#{callback => svr_dynasty_war_mgr,callback2 => undefined,cluster => 0,end_time => 1668670200,group => true,group_id => 0,id => 6001,index => 0,op_id => 0,open_list => [{1,-1,0,[1,2,3,4,5,6,7]}],schedule => [{2,1800},{3,0}],server_list => [],start_time => 1668668400,state => 2,type => 6}}
2022-11-17 14:30:00.988 [info] <0.138.0>@lib_activity:stop_activity:716 stop activity 6001 in {{2022,11,17},{14,30,0}}
2022-11-17 14:30:00.988 [error] <0.136.0>@svr_group:handle_cast:119 Group Server no initiate yet ! Ignore Msg: {dispatch_activity,stop_activity,#{callback => svr_dynasty_war_mgr,callback2 => undefined,cluster => 0,end_time => 1668670200,group => true,group_id => 0,id => 6001,index => 0,op_id => 0,open_list => [{1,-1,0,[1,2,3,4,5,6,7]}],schedule => [{2,1800},{3,0}],server_list => [],start_time => 1668670200,state => 3,type => 6}}
2022-11-17 14:31:00.047 [info] <0.138.0>@lib_activity:remove_activity:735 remove activity 6001 in {{2022,11,17},{14,31,0}}
2022-11-17 14:31:00.047 [error] <0.136.0>@svr_group:handle_cast:119 Group Server no initiate yet ! Ignore Msg: {dispatch_activity,remove_activity,#{callback => svr_dynasty_war_mgr,callback2 => undefined,cluster => 0,end_time => 1668670200,group => true,group_id => 0,id => 6001,index => 0,op_id => 0,open_list => [{1,-1,0,[1,2,3,4,5,6,7]}],schedule => [{2,1800},{3,0}],server_list => [],start_time => 1668670200,state => 3,type => 6}}
2022-11-17 21:00:00.542 [info] <0.138.0>@lib_activity:start_activity:700 start activity 6001 in {{2022,11,17},{21,0,0}}
2022-11-17 21:00:00.542 [error] <0.136.0>@svr_group:handle_cast:119 Group Server no initiate yet ! Ignore Msg: {dispatch_activity,start_activity,#{callback => svr_dynasty_war_mgr,callback2 => undefined,cluster => 0,end_time => 1668695400,group => true,group_id => 0,id => 6001,index => 0,op_id => 0,open_list => [{1,-1,0,[1,2,3,4,5,6,7]}],schedule => [{2,1800},{3,0}],server_list => [],start_time => 1668693600,state => 2,type => 6}}
2022-11-17 21:30:00.349 [info] <0.138.0>@lib_activity:stop_activity:716 stop activity 6001 in {{2022,11,17},{21,30,0}}
2022-11-17 21:30:00.349 [error] <0.136.0>@svr_group:handle_cast:119 Group Server no initiate yet ! Ignore Msg: {dispatch_activity,stop_activity,#{callback => svr_dynasty_war_mgr,callback2 => undefined,cluster => 0,end_time => 1668695400,group => true,group_id => 0,id => 6001,index => 0,op_id => 0,open_list => [{1,-1,0,[1,2,3,4,5,6,7]}],schedule => [{2,1800},{3,0}],server_list => [],start_time => 1668695400,state => 3,type => 6}}
2022-11-17 21:31:00.409 [info] <0.138.0>@lib_activity:remove_activity:735 remove activity 6001 in {{2022,11,17},{21,31,0}}
2022-11-17 21:31:00.409 [error] <0.136.0>@svr_group:handle_cast:119 Group Server no initiate yet ! Ignore Msg: {dispatch_activity,remove_activity,#{callback => svr_dynasty_war_mgr,callback2 => undefined,cluster => 0,end_time => 1668695400,group => true,group_id => 0,id => 6001,index => 0,op_id => 0,open_list => [{1,-1,0,[1,2,3,4,5,6,7]}],schedule => [{2,1800},{3,0}],server_list => [],start_time => 1668695400,state => 3,type => 6}}
