
++++++++++++++++++++++++++++++++++++++++++
2022-09-08 14:14:11 -- 42.117.78.7
code:1 -- msg:success
data:{"platform":"10000","game_id":"111","is_pay":"1","admin_url":"http:\/\/117.4.244.81:82\/","res_url":"http:\/\/117.4.244.81:82\/dev\/","version_url":"http:\/\/117.4.244.81:82\/dev\/","verify_url":"vt\/api_verify.php","server_url":"vt\/api_server.php","order_url":"vt\/api_order.php","reg_url":"vt\/api_insert_reg.php","update_url":"vt\/api_update_info.php","notice_url":"vt\/api_notice.php","error_url":"vt\/api_client_error.php","card_url":"vt\/api_card.php","pos_url":"vt\/api_pos.php","photo_upload_url":"wx\/show\/head_photo_upload.php","photo_show_url":"http:\/\/183.6.169.170:7511\/wx\/show\/"}
url: 117.4.244.81:82/vt/api_active.php
?channel=vtnemo&time=1662617650&ticket=e8fdf4c479f287dfd0f9096cb27f2b62
