
++++++++++++++++++++++++++++++++++++++++++
2022-07-24 13:15:53--117.4.244.81
url: 117.4.244.81:82/vt/api_update_info.php
?last_login_server=1&ticket=57fbc446caf7b433b3e41b17d4f44119&server_id=1&accname=toanvv&nickname=KiemMa&time=1658639755&level=97&channel=vtnemo&role_id=24383464448000

++++++++++++++++++++++++++++++++++++++++++
2022-07-24 13:53:15--117.4.244.81
url: 117.4.244.81:82/vt/api_update_info.php
?time=1658641997&channel=vtnemo&role_id=24385052717056&nickname=KiemThanh&accname=toanvv1&last_login_server=1&server_id=1&level=49&ticket=d1dd4f89bcba01ec2444fb6816f15bcc

++++++++++++++++++++++++++++++++++++++++++
2022-07-24 13:53:35--27.68.212.129
url: 117.4.244.81:82/vt/api_update_info.php
?server_id=1&ticket=56521148dbfc483a715b3e4506542f11&channel=vtnemo&time=1658642013&accname=toanvv&level=99&nickname=KiemMa&last_login_server=1&role_id=24383464448000

++++++++++++++++++++++++++++++++++++++++++
2022-07-24 22:03:30--27.3.149.67
url: 117.4.244.81:82/vt/api_update_info.php
?accname=voi123&server_id=1&nickname=voi&ticket=0b7836e6c051741eab4bb7091fd67fe5&channel=vtnemo&last_login_server=1&time=1658671410&level=99&role_id=24383653474304
