
++++++++++++++++++++++++++++++++++++++++++
2022-07-25 08:48:19 -- 67.188.29.138
code:1 -- msg:success
data:{"is_white":0,"zone_list":[{"name":"\u65b01\u533a","list":[1,2]}],"server_list":{"1":{"server_id":"1","description":"Kieu Phong","game_ip":"117.4.244.81","game_port":"9000","otime":"1581213600","visible_time":"1579795200","hot_state":"0","recom_state":"1","default":"1","stop_service_describe":""},"2":{"server_id":"2","description":"Chua Ra","game_ip":"117.4.244.81","game_port":"9001","otime":"1581323219","visible_time":"1580486400","hot_state":"0","recom_state":"0","default":"1","stop_service_describe":""}},"person_list":[{"role_id":"24385534648320","accname":"Vicky987","last_login_server":"1","last_login_time":"1658532375","nickname":"Nancy","server_id":"1","reg_time":"1658532375","level":"1","channel":"vtnemo"}]}
url: 117.4.244.81:82/vt/api_server.php
?ios_version=18379&ticket=391f7991e8eff0ed72ae388b0daa9601&time=1658710194&accname=Vicky987&device_id=b83c8b6d512585c48b01ea4ac3302d53&channel=vtnemo

++++++++++++++++++++++++++++++++++++++++++
2022-07-25 16:48:18 -- 67.188.29.138
code:1 -- msg:success
data:{"is_white":0,"zone_list":[{"name":"\u65b01\u533a","list":[1,2]}],"server_list":{"1":{"server_id":"1","description":"Kieu Phong","game_ip":"117.4.244.81","game_port":"9000","otime":"1581213600","visible_time":"1579795200","hot_state":"0","recom_state":"1","default":"1","stop_service_describe":""},"2":{"server_id":"2","description":"Chua Ra","game_ip":"117.4.244.81","game_port":"9001","otime":"1581323219","visible_time":"1580486400","hot_state":"0","recom_state":"0","default":"1","stop_service_describe":""}},"person_list":[{"role_id":"24385534648320","accname":"Vicky987","last_login_server":"1","last_login_time":"1658532375","nickname":"Nancy","server_id":"1","reg_time":"1658532375","level":"1","channel":"vtnemo"}]}
url: 117.4.244.81:82/vt/api_server.php
?ios_version=18379&device_id=b83c8b6d512585c48b01ea4ac3302d53&time=1658738993&accname=Vicky987&channel=vtnemo&ticket=b859df74dc5f37a9c48657cf45548675

++++++++++++++++++++++++++++++++++++++++++
2022-07-25 16:49:06 -- 67.188.29.138
code:1 -- msg:success
data:{"is_white":0,"zone_list":[{"name":"\u65b01\u533a","list":[1,2]}],"server_list":{"1":{"server_id":"1","description":"Kieu Phong","game_ip":"117.4.244.81","game_port":"9000","otime":"1581213600","visible_time":"1579795200","hot_state":"0","recom_state":"1","default":"1","stop_service_describe":""},"2":{"server_id":"2","description":"Chua Ra","game_ip":"117.4.244.81","game_port":"9001","otime":"1581323219","visible_time":"1580486400","hot_state":"0","recom_state":"0","default":"1","stop_service_describe":""}},"person_list":[{"role_id":"24385534648320","accname":"Vicky987","last_login_server":"1","last_login_time":"1658532375","nickname":"Nancy","server_id":"1","reg_time":"1658532375","level":"1","channel":"vtnemo"}]}
url: 117.4.244.81:82/vt/api_server.php
?time=1658739041&device_id=b83c8b6d512585c48b01ea4ac3302d53&accname=Vicky987&ios_version=18379&ticket=c230d1587c1bec789b081b70d6fbc613&channel=vtnemo

++++++++++++++++++++++++++++++++++++++++++
2022-07-25 21:38:01 -- 27.3.149.67
code:1 -- msg:success
data:{"is_white":0,"zone_list":[{"name":"\u65b01\u533a","list":[1,2]}],"server_list":{"1":{"server_id":"1","description":"Kieu Phong","game_ip":"117.4.244.81","game_port":"9000","otime":"1581213600","visible_time":"1579795200","hot_state":"0","recom_state":"1","default":"1","stop_service_describe":""},"2":{"server_id":"2","description":"Chua Ra","game_ip":"117.4.244.81","game_port":"9001","otime":"1581323219","visible_time":"1580486400","hot_state":"0","recom_state":"0","default":"1","stop_service_describe":""}},"person_list":[{"role_id":"24383653474304","accname":"voi123","last_login_server":"1","last_login_time":"1658073104","nickname":"voi","server_id":"1","reg_time":"1658073104","level":"1","channel":"vtnemo"}]}
url: 117.4.244.81:82/vt/api_server.php
?time=1658756281&channel=vtnemo&ios_version=18379&ticket=0bf6c267a995b26b932249aa3da21ba9&device_id=5556655c70cb158f8797b8a454c97461&accname=voi123

++++++++++++++++++++++++++++++++++++++++++
2022-07-25 21:39:11 -- 27.3.149.67
code:1 -- msg:success
data:{"is_white":0,"zone_list":[{"name":"\u65b01\u533a","list":[1,2]}],"server_list":{"1":{"server_id":"1","description":"Kieu Phong","game_ip":"117.4.244.81","game_port":"9000","otime":"1581213600","visible_time":"1579795200","hot_state":"0","recom_state":"1","default":"1","stop_service_describe":""},"2":{"server_id":"2","description":"Chua Ra","game_ip":"117.4.244.81","game_port":"9001","otime":"1581323219","visible_time":"1580486400","hot_state":"0","recom_state":"0","default":"1","stop_service_describe":""}},"person_list":[{"role_id":"24383653474304","accname":"voi123","last_login_server":"1","last_login_time":"1658073104","nickname":"voi","server_id":"1","reg_time":"1658073104","level":"1","channel":"vtnemo"}]}
url: 117.4.244.81:82/vt/api_server.php
?device_id=5556655c70cb158f8797b8a454c97461&time=1658756351&accname=voi123&ios_version=18379&ticket=afa066bfced6bd6bf3f28e7f6f11805a&channel=vtnemo

++++++++++++++++++++++++++++++++++++++++++
2022-07-25 22:41:13 -- 27.3.149.67
code:1 -- msg:success
data:{"is_white":0,"zone_list":[{"name":"\u65b01\u533a","list":[1,2]}],"server_list":{"1":{"server_id":"1","description":"Kieu Phong","game_ip":"117.4.244.81","game_port":"9000","otime":"1581213600","visible_time":"1579795200","hot_state":"0","recom_state":"1","default":"1","stop_service_describe":""},"2":{"server_id":"2","description":"Chua Ra","game_ip":"117.4.244.81","game_port":"9001","otime":"1581323219","visible_time":"1580486400","hot_state":"0","recom_state":"0","default":"1","stop_service_describe":""}},"person_list":[{"role_id":"24383653474304","accname":"voi123","last_login_server":"1","last_login_time":"1658073104","nickname":"voi","server_id":"1","reg_time":"1658073104","level":"1","channel":"vtnemo"}]}
url: 117.4.244.81:82/vt/api_server.php
?ios_version=18379&ticket=f4d7def83e74195ea8fb1d7261a1c90b&accname=voi123&channel=vtnemo&device_id=5556655c70cb158f8797b8a454c97461&time=1658760072
